# Max2Obj Version 4.0 Mar 10th, 2001
#
mtllib ./coin.mtl
g
# object Cylinder01 to come ...
#
v  0.000000 0.000000 -0.000000
v  4.157821 0.000000 -0.000000
v  3.600779 0.000000 -2.078911
v  2.078911 0.000000 -3.600779
v  -0.000000 0.000000 -4.157821
v  -2.078911 0.000000 -3.600779
v  -3.600779 0.000000 -2.078911
v  -4.157821 0.000000 -0.000001
v  -3.600779 0.000000 2.078910
v  -2.078912 0.000000 3.600778
v  -0.000002 0.000000 4.157821
v  2.078908 0.000000 3.600780
v  3.600777 0.000000 2.078913
v  4.157821 2.076317 -0.000000
v  3.600779 2.076317 -2.078911
v  2.078911 2.076317 -3.600779
v  -0.000000 2.076317 -4.157821
v  -2.078911 2.076317 -3.600779
v  -3.600779 2.076317 -2.078911
v  -4.157821 2.076317 -0.000001
v  -3.600779 2.076317 2.078910
v  -2.078912 2.076317 3.600778
v  -0.000002 2.076317 4.157821
v  2.078908 2.076317 3.600780
v  3.600777 2.076317 2.078913
v  0.000000 2.076317 -0.000000
# 26 vertices

vt  0.500000 0.500000 -0.249750
vt  0.750000 0.000499 0.999001
vt  0.833333 0.000499 0.999001
vt  0.916667 0.000499 0.999001
vt  1.000000 0.000499 0.999001
vt  0.083333 0.000499 0.999001
vt  0.166667 0.000499 0.999001
vt  0.250000 0.000499 0.999001
vt  0.333333 0.000499 0.999001
vt  0.416667 0.000499 0.999001
vt  0.500000 0.000499 0.999001
vt  0.583333 0.000499 0.999001
vt  0.666667 0.000499 0.999001
vt  0.750000 0.999501 0.999001
vt  0.833333 0.999501 0.999001
vt  0.916667 0.999501 0.999001
vt  1.000000 0.999501 0.999001
vt  0.083333 0.999501 0.999001
vt  0.166667 0.999501 0.999001
vt  0.250000 0.999501 0.999001
vt  0.333333 0.999501 0.999001
vt  0.416667 0.999501 0.999001
vt  0.500000 0.999501 0.999001
vt  0.583333 0.999501 0.999001
vt  0.666667 0.999501 0.999001
vt  0.500000 0.500000 0.249750
vt  0.500000 0.500000 -0.249750
vt  0.250250 0.932580 -0.249750
vt  0.500000 0.999501 -0.249750
vt  0.500000 0.500000 -0.249750
vt  0.067420 0.749750 -0.249750
vt  0.250250 0.932580 -0.249750
vt  0.500000 0.500000 -0.249750
vt  0.000500 0.500000 -0.249750
vt  0.067420 0.749750 -0.249750
vt  0.500000 0.500000 -0.249750
vt  0.067420 0.250250 -0.249750
vt  0.000500 0.500000 -0.249750
vt  0.500000 0.500000 -0.249750
vt  0.250250 0.067420 -0.249750
vt  0.067420 0.250250 -0.249750
vt  0.500000 0.500000 -0.249750
vt  0.500000 0.000500 -0.249750
vt  0.250250 0.067420 -0.249750
vt  0.500000 0.500000 -0.249750
vt  0.749750 0.067420 -0.249750
vt  0.500000 0.000500 -0.249750
vt  0.500000 0.500000 -0.249750
vt  0.932580 0.250250 -0.249750
vt  0.749750 0.067420 -0.249750
vt  0.500000 0.500000 -0.249750
vt  0.999501 0.500000 -0.249750
vt  0.932580 0.250250 -0.249750
vt  0.500000 0.500000 -0.249750
vt  0.932580 0.749750 -0.249750
vt  0.999501 0.500000 -0.249750
vt  0.500000 0.500000 -0.249750
vt  0.749751 0.932580 -0.249750
vt  0.932580 0.749750 -0.249750
vt  0.500000 0.999501 -0.249750
vt  0.749751 0.932580 -0.249750
vt  -0.000000 0.000499 0.999001
vt  -0.000000 0.999501 0.999001
vt  -0.000000 0.000499 0.999001
vt  0.500000 0.500000 0.249750
vt  0.500000 0.999501 0.249750
vt  0.250250 0.932580 0.249750
vt  0.500000 0.500000 0.249750
vt  0.250250 0.932580 0.249750
vt  0.067420 0.749750 0.249750
vt  0.500000 0.500000 0.249750
vt  0.067420 0.749750 0.249750
vt  0.000500 0.500000 0.249750
vt  0.500000 0.500000 0.249750
vt  0.000500 0.500000 0.249750
vt  0.067420 0.250250 0.249750
vt  0.500000 0.500000 0.249750
vt  0.067420 0.250250 0.249750
vt  0.250250 0.067420 0.249750
vt  0.500000 0.500000 0.249750
vt  0.250250 0.067420 0.249750
vt  0.500000 0.000500 0.249750
vt  0.500000 0.500000 0.249750
vt  0.500000 0.000500 0.249750
vt  0.749750 0.067420 0.249750
vt  0.500000 0.500000 0.249750
vt  0.749750 0.067420 0.249750
vt  0.932580 0.250250 0.249750
vt  0.500000 0.500000 0.249750
vt  0.932580 0.250250 0.249750
vt  0.999501 0.500000 0.249750
vt  0.500000 0.500000 0.249750
vt  0.999501 0.500000 0.249750
vt  0.932580 0.749750 0.249750
vt  0.500000 0.500000 0.249750
vt  0.932580 0.749750 0.249750
vt  0.749751 0.932580 0.249750
vt  0.749751 0.932580 0.249750
vt  0.500000 0.999501 0.249750
# 99 texture vertices

g Cylinder01
usemtl 02_-_Default
f 1/27 3/28 2/29
f 1/30 4/31 3/32
f 1/33 5/34 4/35
f 1/36 6/37 5/38
f 1/39 7/40 6/41
f 1/42 8/43 7/44
f 1/45 9/46 8/47
f 1/48 10/49 9/50
f 1/51 11/52 10/53
f 1/54 12/55 11/56
f 1/57 13/58 12/59
f 1/1 2/60 13/61
f 2/2 15/15 14/14
f 2/2 3/3 15/15
f 3/3 16/16 15/15
f 3/3 4/4 16/16
f 4/4 17/17 16/16
f 4/4 5/5 17/17
f 5/62 18/18 17/63
f 5/64 6/6 18/18
f 6/6 19/19 18/18
f 6/6 7/7 19/19
f 7/7 20/20 19/19
f 7/7 8/8 20/20
f 8/8 21/21 20/20
f 8/8 9/9 21/21
f 9/9 22/22 21/21
f 9/9 10/10 22/22
f 10/10 23/23 22/22
f 10/10 11/11 23/23
f 11/11 24/24 23/23
f 11/11 12/12 24/24
f 12/12 25/25 24/24
f 12/12 13/13 25/25
f 13/13 14/14 25/25
f 13/13 2/2 14/14
f 26/65 14/66 15/67
f 26/68 15/69 16/70
f 26/71 16/72 17/73
f 26/74 17/75 18/76
f 26/77 18/78 19/79
f 26/80 19/81 20/82
f 26/83 20/84 21/85
f 26/86 21/87 22/88
f 26/89 22/90 23/91
f 26/92 23/93 24/94
f 26/95 24/96 25/97
f 26/26 25/98 14/99
# 48 faces

g
