# Max2Obj Version 4.0 Mar 10th, 2001
#
mtllib ./Tower2.mtl
g
# object Wt_kBishop to come ...
#
v  -0.213547 0.273923 -0.308929
v  -2.332163 0.303790 -2.952532
v  -2.255151 0.524231 -2.855942
v  -2.689069 1.185042 -3.395905
v  -2.643247 1.594354 -3.337811
v  -2.364982 1.657534 -2.990439
v  -2.365377 1.940880 -2.990291
v  -2.834070 0.302843 -2.466889
v  -2.738742 0.523318 -2.388017
v  -3.083301 0.711878 -2.671455
v  -3.275240 1.183935 -2.828726
v  -3.218428 1.593267 -2.781268
v  -2.874219 1.656572 -2.497707
v  -2.874614 1.939919 -2.497560
v  -3.296522 2.726578 -2.843698
v  -3.067957 3.419428 -2.654325
v  -2.934062 3.419559 -2.544060
v  -2.628991 4.112484 -2.291689
v  -2.495098 4.112616 -2.181426
v  -2.228851 5.214779 -1.960340
v  -2.113996 5.151925 -1.865862
v  -2.000241 5.876145 -1.770985
v  -1.713723 6.159772 -1.534563
v  -1.886488 6.600366 -1.676104
v  -1.733998 6.978310 -1.549904
v  -1.562111 7.167377 -1.408039
v  -1.316137 9.088078 -1.202292
v  -1.129522 12.425457 -1.043079
v  -1.779902 12.456303 -1.578619
v  -1.703702 12.676758 -1.515501
v  -1.856851 12.771057 -1.641466
v  -1.780693 13.022996 -1.578335
v  -1.168831 13.181009 -1.074200
v  -1.188530 13.590267 -1.089744
v  -1.170018 14.031048 -1.073768
v  -1.055738 14.377472 -0.979083
v  -1.076007 15.196011 -0.994417
v  -1.191301 15.573695 -1.088736
v  -1.192444 16.392250 -1.088320
v  -1.711136 17.997372 -1.512800
v  -1.752379 20.138176 -1.543214
v  -0.569196 22.091278 -0.565616
v  -0.684621 22.563408 -0.659891
v  -3.235276 0.301992 -1.898314
v  -3.125308 0.522500 -1.840195
v  -3.743798 1.182943 -2.164699
v  -3.678204 1.592294 -2.129686
v  -3.281282 1.655710 -1.920829
v  -3.281678 1.939056 -1.920685
v  -1.754417 13.872833 -1.102519
v  -1.580125 15.415695 -1.008924
v  -0.642091 22.846737 -0.506285
v  -3.520363 0.301275 -1.268660
v  -3.399985 0.521809 -1.233521
v  -3.834715 0.710161 -1.359523
v  -4.076744 1.182104 -1.429334
v  -4.004907 1.591471 -1.408114
v  -3.570527 1.654982 -1.281986
v  -3.570923 1.938328 -1.281837
v  -4.103035 2.724736 -1.435557
v  -3.814360 3.417723 -1.351140
v  -3.645400 3.417934 -1.302101
v  -3.260173 4.111041 -1.189662
v  -2.754840 5.213577 -1.041987
v  -2.185664 12.455375 -0.870178
v  -2.089423 12.675878 -0.842046
v  -2.282654 12.770083 -0.898045
v  -2.186457 13.022069 -0.869889
v  -3.678370 0.300715 -0.602120
v  -3.552223 0.521269 -0.591310
v  -4.261277 1.181451 -0.650900
v  -4.185977 1.590830 -0.644270
v  -3.730841 1.654413 -0.605718
v  -3.731236 1.937759 -0.605570
v  -3.228465 4.110767 -0.561664
v  -2.724106 5.150388 -0.518331
v  -2.573377 5.874701 -0.505117
v  -2.194418 6.158562 -0.472872
v  -2.422647 6.599014 -0.491911
v  -2.220855 6.977083 -0.474599
v  -1.993504 7.166289 -0.455241
v  -1.470807 13.180249 -0.407239
v  -1.496667 13.589493 -0.409174
v  -1.471993 14.030287 -0.406808
v  -1.320733 14.376806 -0.393789
v  -2.239236 20.136948 -0.467909
v  -1.330762 21.554911 -0.390143
v  -3.703225 0.300336 0.075682
v  -3.576174 0.520904 0.061759
v  -4.034932 0.709134 0.112385
v  -4.290306 1.181009 0.140700
v  -4.214466 1.590395 0.132484
v  -3.756062 1.654029 0.081984
v  -3.756458 1.937375 0.082128
v  -4.317935 2.723633 0.144285
v  -4.013243 3.416702 0.110953
v  -3.834938 3.416961 0.091305
v  -3.428360 4.110179 0.046735
v  -2.894991 5.212858 -0.011653
v  -1.677754 9.087035 -0.144436
v  -1.427700 12.424598 -0.170816
v  -2.293782 12.454820 -0.075349
v  -2.192200 12.675348 -0.086462
v  -2.396111 12.769504 -0.063964
v  -2.294575 13.021514 -0.075060
v  -1.355150 15.195204 -0.177827
v  -1.788479 15.414955 -0.129990
v  -1.508512 15.572777 -0.160793
v  -1.509656 16.391336 -0.160377
v  -2.199636 17.995966 -0.083763
v  -2.253569 20.136730 -0.077057
v  -0.677044 22.090967 -0.250117
v  -0.830538 22.562988 -0.233036
v  -3.593980 0.300153 0.738709
v  -3.470915 0.520725 0.700589
v  -4.162718 1.180794 0.915033
v  -4.089266 1.590184 0.892301
v  -3.645218 1.653842 0.754691
v  -3.645611 1.937188 0.754833
v  -2.811260 5.212717 0.496503
v  -1.935079 13.871902 0.225614
v  -2.214062 19.286545 0.312479
v  -3.354824 0.300169 1.361475
v  -3.240489 0.520742 1.300627
v  -3.653470 0.708952 1.520186
v  -3.883414 1.180813 1.642352
v  -3.815202 1.590204 1.605981
v  -3.402571 1.653860 1.386547
v  -3.402968 1.937207 1.386692
v  -3.908500 2.723437 1.655326
v  -3.634325 3.416522 1.509367
v  -3.473822 3.416789 1.424018
v  -3.107929 4.110025 1.229290
v  -2.947428 4.110292 1.143943
v  -2.490304 5.149994 0.900618
v  -2.353747 5.874331 0.827830
v  -2.010208 6.158250 0.645084
v  -2.217187 6.598668 0.755040
v  -2.034280 6.976768 0.657692
v  -1.828187 7.166011 0.548054
v  -1.623062 8.047875 0.438771
v  -2.087793 12.454722 0.684863
v  -1.996382 12.675257 0.636206
v  -2.179948 12.769399 0.733789
v  -2.088585 13.021415 0.685148
v  -1.355083 13.180053 0.295072
v  -1.378588 13.589293 0.307467
v  -1.356273 14.030092 0.295501
v  -1.219187 14.376635 0.222517
v  -2.052668 20.136633 0.664380
v  -0.657800 22.846500 -0.077994
v  -2.994955 0.300387 1.920047
v  -2.893750 0.520953 1.838809
v  -3.463128 1.181068 2.294706
v  -3.402797 1.590455 2.246095
v  -3.037448 1.654082 1.953274
v  -3.037846 1.937428 1.953419
v  -2.352154 5.212898 1.401906
v  -1.473119 15.414980 0.691224
v  -0.711631 22.563000 0.076603
v  -2.528198 0.300801 2.392960
v  -2.444031 0.521349 2.294467
v  -2.748404 0.709642 2.649553
v  -2.918012 1.181549 2.847015
v  -2.867900 1.590927 2.788050
v  -2.563881 1.654499 2.433089
v  -2.564275 1.937846 2.433236
v  -2.937063 2.724178 2.867517
v  -2.735290 3.417207 2.631206
v  -2.617025 3.417442 2.493160
v  -2.347677 4.110605 2.177957
v  -1.994420 5.213213 1.764364
v  -1.188873 9.087228 0.819687
v  -1.024586 12.424755 0.624168
v  -1.599056 12.455095 1.294722
v  -1.531786 12.675610 1.215945
v  -1.667080 12.769791 1.373770
v  -1.599850 13.021789 1.295008
v  -0.977774 15.195354 0.566409
v  -1.079673 15.572948 0.684933
v  -1.080813 16.391504 0.685351
v  -1.539223 17.996223 1.218648
v  -0.969758 21.554939 0.549919
v  -0.531240 22.091022 0.037425
v  -1.972494 0.301389 2.762045
v  -1.908606 0.521917 2.650081
v  -2.269013 1.182238 3.278060
v  -2.231071 1.591601 3.211018
v  -2.000061 1.655097 2.807565
v  -2.000456 1.938443 2.807709
v  -1.746719 4.111351 2.360496
v  -1.491395 5.150875 1.912713
v  -1.415374 5.875159 1.778582
v  -1.223189 6.158944 1.442493
v  -1.339354 6.599442 1.644460
v  -1.237173 6.977471 1.465328
v  -1.121889 7.166634 1.263678
v  -0.860676 13.180489 0.796003
v  -0.874087 13.589738 0.818624
v  -0.861865 14.030529 0.796432
v  -0.785315 14.377016 0.662116
v  -1.255556 20.137337 1.472012
v  -1.349196 0.302131 3.013114
v  -1.308057 0.522634 2.891981
v  -1.457521 0.711101 3.328556
v  -1.541073 1.183105 3.571276
v  -1.516781 1.592453 3.498739
v  -1.367662 1.655850 3.062303
v  -1.368060 1.939197 3.062441
v  -1.551520 2.725742 3.596306
v  -1.453016 3.418655 3.305678
v  -1.394996 3.418822 3.135942
v  -1.263339 4.111830 2.748320
v  -1.090806 5.214234 2.239661
v  -0.901981 12.455883 1.661384
v  -0.869134 12.676358 1.564501
v  -0.935578 12.770617 1.758536
v  -0.902777 13.022575 1.661675
v  -0.804491 13.872900 1.371121
v  -0.740337 15.415756 1.177921
v  -0.394288 22.846756 0.139012
v  -0.682256 0.303001 3.136516
v  -0.665458 0.523470 3.010887
v  -0.762166 1.184119 3.715400
v  -0.752478 1.593448 3.640160
v  -0.690987 1.656733 3.187506
v  -0.691381 1.940079 3.187658
v  -0.579648 5.214900 2.334244
v  -0.323370 22.563435 0.280831
v  0.002697 0.303963 3.127521
v  -0.005505 0.524397 3.002216
v  0.022646 0.713103 3.453810
v  0.037776 1.185242 3.704884
v  0.032469 1.594550 3.629847
v  0.003963 1.657707 3.178374
v  0.003566 1.941053 3.178522
v  0.037199 2.727893 3.730757
v  0.017286 3.420646 3.430110
v  0.006232 3.420720 3.254522
v  -0.019993 4.113513 2.853532
v  -0.031044 4.113586 2.677950
v  -0.064070 5.152734 2.176812
v  -0.074555 5.876906 2.026679
v  -0.098630 6.160409 1.650573
v  -0.085034 6.601076 1.876546
v  -0.098195 6.978954 1.676074
v  -0.112665 7.167949 1.450418
v  -0.135877 9.088543 1.125302
v  -0.156321 12.425841 0.876172
v  -0.102693 12.456964 1.729025
v  -0.109316 12.677387 1.628800
v  -0.096814 12.771751 1.829516
v  -0.103483 13.023659 1.729307
v  -0.154223 13.181410 0.926723
v  -0.153213 13.590675 0.952013
v  -0.155409 14.031449 0.927155
v  -0.165366 14.377825 0.776825
v  -0.164931 15.196370 0.802326
v  -0.155984 15.574101 0.953026
v  -0.157130 16.392658 0.953439
v  -0.116747 17.998003 1.631503
v  -0.116583 20.138821 1.682761
v  -0.217187 22.091417 0.128577
v  0.679336 0.304977 2.986456
v  0.646436 0.525376 2.866302
v  0.828010 1.186430 3.540139
v  0.807883 1.595716 3.468189
v  0.690480 1.658739 3.035255
v  0.690082 1.942085 3.035397
v  0.463906 5.216416 2.219229
v  0.162877 15.417025 1.166050
v  1.321658 0.306013 2.718758
v  1.265319 0.526372 2.608370
v  1.466766 0.715349 3.006262
v  1.578169 1.187637 3.227505
v  1.543978 1.596899 3.161414
v  1.342176 1.659788 2.763648
v  1.341782 1.943134 2.763795
v  1.587219 2.730303 3.250390
v  1.451775 3.422875 2.985536
v  1.373335 3.422844 2.830842
v  1.193067 4.115400 2.477595
v  0.956197 5.217208 2.014061
v  0.677132 12.458178 1.487346
v  0.632002 12.678539 1.399061
v  0.721518 12.773024 1.575906
v  0.676342 13.024870 1.487633
v  0.540677 13.874856 1.222864
v  0.238585 21.556576 0.652181
v  -0.043374 22.847263 0.100339
v  1.904981 0.307021 2.334707
v  1.827355 0.527346 2.238335
v  2.259423 1.188817 2.778973
v  2.212457 1.598058 2.721291
v  1.934020 1.660812 2.373987
v  1.933621 1.944159 2.374130
v  1.621309 4.116244 1.989307
v  1.310577 5.154946 1.603900
v  1.216777 5.878983 1.488492
v  0.984423 6.162152 1.199185
v  1.122982 6.603020 1.373084
v  0.998747 6.980720 1.218899
v  0.859304 7.169512 1.045331
v  0.526157 13.182503 0.643160
v  0.541048 13.591795 0.662665
v  0.524970 14.032544 0.643587
v  0.431699 14.378785 0.527986
v  0.980360 20.140585 1.225590
v  0.110986 22.564112 0.146217
v  2.406890 0.307969 1.849058
v  2.310946 0.528258 1.770414
v  2.654977 0.717493 2.054036
v  2.845593 1.189924 2.211798
v  2.787641 1.599142 2.164746
v  2.443254 1.661774 1.881250
v  2.442858 1.945120 1.881390
v  2.862567 2.732605 2.228329
v  2.632066 3.425005 2.039661
v  2.498174 3.424875 1.929402
v  2.191167 4.117200 1.677731
v  1.787948 5.218709 1.347499
v  0.864411 9.090212 0.593390
v  0.668476 12.427215 0.437577
v  1.318767 12.459334 0.973146
v  1.241952 12.679639 0.910248
v  1.394837 12.774239 1.036309
v  1.317977 13.026028 0.973436
v  0.607218 15.197657 0.391730
v  0.932080 15.418357 0.659614
v  0.721458 15.575564 0.486431
v  0.720316 16.394121 0.486846
v  1.234517 18.000256 0.912954
v  0.081144 22.091911 -0.030063
v  2.808094 0.308819 1.280481
v  2.697508 0.529077 1.222587
v  3.314153 1.190915 1.547770
v  3.247415 1.600117 1.513170
v  2.850319 1.662636 1.304375
v  2.849917 1.945982 1.304520
v  2.095440 5.219360 0.911739
v  1.501132 20.141621 0.617683
v  3.093180 0.309537 0.650828
v  2.972188 0.529769 0.615911
v  3.406390 0.719209 0.742109
v  3.647099 1.191754 0.812405
v  3.574115 1.600939 0.791595
v  3.139565 1.663364 0.665535
v  3.139166 1.946711 0.665669
v  3.669082 2.734446 0.820194
v  3.378469 3.426709 0.736480
v  3.209510 3.426499 0.687440
v  2.822351 4.118643 0.575703
v  2.653394 4.118431 0.526669
v  2.169201 5.156765 0.387089
v  2.023368 5.880692 0.345423
v  1.660915 6.163585 0.240482
v  1.877533 6.604618 0.303758
v  1.683909 6.982171 0.247908
v  1.466408 7.170797 0.184954
v  1.247946 8.052047 0.122356
v  1.724531 12.460263 0.264704
v  1.627675 12.680521 0.236791
v  1.820638 12.775212 0.292882
v  1.723740 13.026955 0.264996
v  0.951132 13.183405 0.040894
v  0.974702 13.592712 0.048113
v  0.949948 14.033442 0.041327
v  0.804640 14.379574 -0.000525
v  0.189383 22.847731 -0.171357
v  3.251185 0.310098 -0.015708
v  3.124426 0.530308 -0.026296
v  3.831635 1.192408 0.033964
v  3.755191 1.601582 0.027751
v  3.299877 1.663933 -0.010736
v  3.299480 1.947279 -0.010592
v  2.435034 5.220340 -0.081695
v  1.512490 13.876914 -0.154342
v  1.308010 15.419302 -0.170682
v  0.336992 22.564627 -0.248376
v  3.276042 0.310476 -0.693515
v  3.148378 0.530673 -0.679366
v  3.606606 0.720237 -0.729801
v  3.860660 1.192850 -0.757636
v  3.783680 1.602016 -0.749003
v  3.325098 1.664317 -0.698437
v  3.324703 1.947663 -0.698293
v  3.883983 2.735548 -0.759653
v  3.577353 3.427731 -0.725615
v  3.399047 3.427471 -0.705966
v  2.990534 4.119505 -0.660695
v  2.454090 5.220631 -0.601182
v  1.226032 9.091253 -0.464462
v  0.966652 12.428075 -0.434695
v  1.832648 12.460817 -0.530128
v  1.730452 12.681048 -0.518788
v  1.934094 12.775793 -0.541198
v  1.831857 13.027510 -0.529840
v  0.886361 15.198462 -0.424868
v  1.038669 15.576480 -0.441518
v  1.037524 16.395037 -0.441101
v  1.723019 18.001665 -0.516084
v  1.770970 20.142580 -0.520610
v  0.852008 21.557978 -0.418826
v  0.188995 22.092224 -0.345564
v  3.166800 0.310659 -1.356535
v  3.043115 0.530851 -1.318196
v  3.733073 1.193066 -1.531971
v  3.658481 1.602227 -1.508820
v  3.214253 1.664504 -1.371144
v  3.213859 1.947850 -1.370997
v  2.717338 4.119406 -1.216959
v  2.222399 5.157576 -1.063492
v  2.073342 5.881454 -1.017240
v  1.702827 6.164223 -0.902398
v  1.924281 6.605331 -0.970996
v  1.726357 6.982818 -0.909627
v  1.504023 7.171372 -0.840712
v  0.977466 13.183805 -0.677068
v  1.001569 13.593122 -0.684505
v  0.976274 14.033844 -0.676636
v  0.827748 14.379927 -0.630574
v  2.927645 0.310642 -1.979303
v  2.812690 0.530832 -1.918230
v  3.225145 0.720419 -2.137599
v  3.453772 1.193045 -2.259284
v  3.384414 1.602207 -2.222498
v  2.971609 1.664486 -2.002998
v  2.971214 1.947832 -2.002855
v  3.474544 2.735745 -2.270694
v  3.198434 3.427912 -2.124031
v  3.037932 3.427645 -2.038679
v  2.670104 4.119658 -1.843251
v  2.187062 5.220759 -1.586642
v  1.626660 12.460916 -1.290337
v  1.534638 12.681145 -1.241452
v  1.717932 12.775899 -1.338949
v  1.625867 13.027608 -1.290049
v  1.163949 15.419546 -1.044986
v  0.167636 22.847874 -0.516924
v  2.567774 0.310424 -2.537874
v  2.465955 0.530622 -2.456419
v  3.033483 1.192789 -2.911635
v  2.972009 1.601956 -2.862613
v  2.606485 1.664264 -2.569727
v  2.606091 1.947610 -2.569585
v  1.911251 5.220591 -2.014748
v  1.168287 13.877077 -1.424632
v  1.362554 20.142548 -1.584145
v  0.222261 22.564682 -0.671806
v  2.101012 0.310011 -3.010795
v  2.016232 0.530226 -2.912072
v  2.320079 0.719728 -3.266966
v  2.488368 1.192308 -3.463944
v  2.437113 1.601484 -3.404568
v  2.132917 1.663847 -3.049543
v  2.132523 1.947193 -3.049401
v  2.503108 2.735004 -3.482879
v  2.299403 3.427227 -3.245866
v  2.181138 3.426992 -3.107816
v  1.909850 4.119079 -2.791917
v  1.791586 4.118844 -2.653864
v  1.452237 5.157107 -2.258900
v  1.349852 5.881013 -2.140205
v  1.096034 6.163855 -1.844235
v  1.247474 6.604919 -2.021504
v  1.111784 6.982445 -1.863539
v  0.959469 7.171041 -1.685945
v  0.737149 9.091062 -1.428587
v  0.563542 12.427917 -1.229675
v  1.137926 12.460542 -1.900195
v  1.070037 12.680788 -1.821202
v  1.205061 12.775507 -1.978926
v  1.137135 13.027235 -1.899907
v  0.596273 13.183574 -1.268736
v  0.612598 13.592885 -1.288247
v  0.595087 14.033612 -1.268301
v  0.493232 14.379725 -1.149796
v  0.508987 15.198316 -1.169101
v  0.609827 15.576310 -1.287239
v  0.608682 16.394867 -1.286826
v  1.062602 18.001404 -1.818492
v  1.093402 20.142309 -1.856848
v  0.043188 22.092167 -0.633111
v  1.545311 0.309423 -3.379876
v  1.480810 0.529659 -3.267687
v  1.839372 1.191622 -3.894988
v  1.800282 1.600810 -3.827535
v  1.569096 1.663249 -3.424022
v  1.568699 1.946595 -3.423877
v  1.127613 5.219824 -2.660074
v  0.548458 15.419004 -1.668595
v  0.786985 19.291962 -2.092529
v  0.308788 21.557646 -1.261989
v  0.922011 0.308681 -3.630945
v  0.880260 0.528943 -3.509591
v  1.029199 0.718270 -3.945964
v  1.111430 1.190754 -4.188207
v  1.085992 1.599958 -4.115256
v  0.936699 1.662496 -3.678753
v  0.936301 1.945842 -3.678611
v  1.117562 2.733438 -4.211677
v  1.017127 3.425777 -3.920340
v  0.959103 3.425610 -3.750600
v  0.825511 4.117854 -3.362275
v  0.649901 5.219254 -2.852498
v  0.440847 12.459755 -2.266860
v  0.407383 12.680040 -2.169753
v  0.473565 12.774680 -2.363693
v  0.440057 13.026448 -2.266570
v  0.413538 20.141541 -2.214457
v  -0.095877 22.847618 -0.733930
v  0.255071 0.307813 -3.754351
v  0.237660 0.528107 -3.628492
v  0.332523 1.189738 -4.332330
v  0.321688 1.598963 -4.256676
v  0.260023 1.661613 -3.803960
v  0.259627 1.944960 -3.803816
v  0.188174 4.116932 -3.299728
v  0.118305 5.155517 -2.796218
v  0.096766 5.879519 -2.644953
v  0.045060 6.162602 -2.267574
v  0.075232 6.603522 -2.493693
v  0.047337 6.981175 -2.292307
v  0.016283 7.169916 -2.065870
v  -0.063953 13.182787 -1.534679
v  -0.061108 13.592083 -1.559622
v  -0.065144 14.032826 -1.534249
v  -0.086152 14.379034 -1.383179
v  -0.166005 22.564245 -0.876032
v  -0.429878 0.306850 -3.745347
v  -0.422289 0.527180 -3.619816
v  -0.450969 0.716268 -4.071226
v  -0.467417 1.188617 -4.321820
v  -0.463255 1.597859 -4.246366
v  -0.434924 1.660639 -3.794825
v  -0.435320 1.943985 -3.794682
v  -0.471154 2.731288 -4.346122
v  -0.453175 3.423787 -4.044767
v  -0.442125 3.423713 -3.869185
v  -0.417831 4.116171 -3.467498
v  -0.386219 5.217852 -2.940182
v  -0.315849 9.089746 -1.734205
v  -0.304720 12.426831 -1.481677
v  -0.358445 12.458673 -2.334499
v  -0.352435 12.679011 -2.234052
v  -0.365198 12.773544 -2.434674
v  -0.359235 13.025366 -2.334212
v  -0.341475 13.875278 -2.032775
v  -0.303858 15.197298 -1.405021
v  -0.331004 15.417858 -1.831326
v  -0.313857 15.575156 -1.555327
v  -0.315001 16.393713 -1.554911
v  -0.359867 17.999626 -2.231349
v  -0.270864 22.091776 -0.724261
v  -1.106513 0.305835 -3.604286
v  -1.074235 0.526200 -3.483906
v  -1.257650 1.187428 -4.157075
v  -1.238670 1.596695 -4.084707
v  -1.121444 1.659607 -3.651709
v  -1.121836 1.942953 -3.651563
v  -0.756194 20.139902 -2.199083
v  -1.748839 0.304799 -3.336584
v  -1.693114 0.525205 -3.225973
v  -1.895092 0.714022 -3.623675
v  -2.007812 1.186222 -3.844431
v  -1.974764 1.595510 -3.777925
v  -1.773143 1.658558 -3.380095
v  -1.773538 1.941904 -3.379952
v  -2.021172 2.728879 -3.865748
v  -1.887666 3.421557 -3.600200
v  -1.809223 3.421589 -3.445500
v  -1.630892 4.114285 -3.091553
v  -1.552446 4.114316 -2.936851
v  -1.397099 5.216280 -2.626899
v  -1.329776 5.153340 -2.494330
v  -1.263551 5.877475 -2.361365
v  -1.095855 6.160887 -2.029721
v  -1.197327 6.601609 -2.228396
v  -1.108204 6.979439 -2.051405
v  -1.007613 7.168377 -1.852409
v  -0.864616 9.088893 -1.564137
v  -1.138267 12.457460 -2.092823
v  -1.093751 12.677859 -2.004311
v  -1.183533 12.772272 -2.181062
v  -1.139059 13.024154 -2.092535
v  -0.780683 13.181709 -1.385258
v  -0.792460 13.590983 -1.407150
v  -1.005773 13.874246 -1.826906
v  -0.781867 14.031750 -1.384828
v  -0.715116 14.378088 -1.252055
v  -0.918278 15.416944 -1.649323
v  -0.795232 15.574406 -1.406141
v  -0.796374 16.392963 -1.405731
v  -0.502425 22.563740 -0.805901
v  -0.446790 22.847103 -0.695257
v  -1.331361 21.007294 -1.195064
v  -1.114812 21.028118 -1.386831
v  -1.533153 20.944147 -0.977345
v  -1.722093 20.834000 -0.727979
v  -2.062443 20.432940 -0.098020
v  -1.898837 20.668251 -0.438769
v  -2.192996 20.108902 0.295451
v  -2.195887 20.136635 0.273021
v  0.742643 20.141937 -2.081890
v  0.763958 20.114239 -2.074233
v  -0.017932 20.671642 -1.946113
v  0.350793 20.437292 -2.031965
v  -0.339061 20.836491 -1.836329
v  -0.880430 21.008110 -1.556440
v  -0.623841 20.945786 -1.706060
v  -1.251601 21.448080 -0.828620
v  -1.399224 21.362022 -0.633790
v  -1.537320 21.232517 -0.407825
v  -1.665142 21.048666 -0.141587
v  -1.780127 20.793354 0.178119
v  0.876215 20.520451 -1.702935
v  0.557999 20.797573 -1.695639
v  0.220368 21.052065 -1.652618
v  -0.067726 21.235168 -1.585536
v  -0.318631 21.363972 -1.499763
v  -0.741614 21.498055 -1.281079
v  -0.924746 21.513693 -1.148565
v  -1.093938 21.497425 -0.998734
v  -0.541136 21.449364 -1.397984
v  -1.855965 20.515522 0.486610
v  -2.184783 20.136623 0.320346
v  -2.191061 20.119051 0.305417
v  0.773250 20.124397 -2.070154
v  0.786410 20.141983 -2.060746
v  -1.399224 21.362022 -0.633790
v  -1.251601 21.448080 -0.828620
v  -1.093938 21.497425 -0.998734
v  -1.537320 21.232517 -0.407825
v  -1.399224 21.362022 -0.633790
v  -1.093938 21.497425 -0.998734
v  -1.537320 21.232517 -0.407825
v  -1.093938 21.497425 -0.998734
v  -0.924746 21.513693 -1.148565
v  -0.924746 21.513693 -1.148565
v  -0.741614 21.498055 -1.281079
v  -0.541136 21.449364 -1.397984
v  -0.924746 21.513693 -1.148565
v  -0.541136 21.449364 -1.397984
v  -0.318631 21.363972 -1.499763
v  -0.924746 21.513693 -1.148565
v  -0.318631 21.363972 -1.499763
v  -0.067726 21.235168 -1.585536
v  -0.924746 21.513693 -1.148565
v  -0.067726 21.235168 -1.585536
v  0.220368 21.052065 -1.652618
v  -0.924746 21.513693 -1.148565
v  0.220368 21.052065 -1.652618
v  0.384565 20.928301 -1.673539
v  -0.924746 21.513693 -1.148565
v  0.384565 20.928301 -1.673539
v  0.557999 20.797573 -1.695639
v  0.557999 20.797573 -1.695639
v  0.876215 20.520451 -1.702935
v  -1.855965 20.515522 0.486610
v  -0.924746 21.513693 -1.148565
v  0.557999 20.797573 -1.695639
v  -1.855965 20.515522 0.486610
v  -1.537320 21.232517 -0.407825
v  -0.924746 21.513693 -1.148565
v  -1.855965 20.515522 0.486610
v  -1.855965 20.515522 0.486610
v  -1.780127 20.793354 0.178119
v  -1.721064 20.924501 0.013890
v  -1.537320 21.232517 -0.407825
v  -1.855965 20.515522 0.486610
v  -1.721064 20.924501 0.013890
v  -1.537320 21.232517 -0.407825
v  -1.721064 20.924501 0.013890
v  -1.665142 21.048666 -0.141587
v  0.773250 20.124397 -2.070154
v  0.763958 20.114239 -2.074233
v  -2.192996 20.108902 0.295451
v  0.773250 20.124397 -2.070154
v  -2.192996 20.108902 0.295451
v  -2.191061 20.119051 0.305417
v  0.786410 20.141983 -2.060746
v  0.773250 20.124397 -2.070154
v  -2.191061 20.119051 0.305417
v  -2.191061 20.119051 0.305417
v  -2.184783 20.136623 0.320346
v  -1.855965 20.515522 0.486610
v  -2.191061 20.119051 0.305417
v  -1.855965 20.515522 0.486610
v  0.876215 20.520451 -1.702935
v  0.786410 20.141983 -2.060746
v  -2.191061 20.119051 0.305417
v  0.876215 20.520451 -1.702935
v  -0.623841 20.945786 -1.706060
v  -0.880430 21.008110 -1.556440
v  -1.114812 21.028118 -1.386831
v  -0.574862 20.926991 -1.728468
v  -0.623841 20.945786 -1.706060
v  -1.114812 21.028118 -1.386831
v  -0.339061 20.836491 -1.836329
v  -0.574862 20.926991 -1.728468
v  -1.114812 21.028118 -1.386831
v  -0.017932 20.671642 -1.946113
v  -0.339061 20.836491 -1.836329
v  -1.114812 21.028118 -1.386831
v  0.350793 20.437292 -2.031965
v  -0.017932 20.671642 -1.946113
v  -1.114812 21.028118 -1.386831
v  0.742643 20.141937 -2.081890
v  0.350793 20.437292 -2.031965
v  -1.114812 21.028118 -1.386831
v  -1.331361 21.007294 -1.195064
v  -1.533153 20.944147 -0.977345
v  -1.565654 20.925201 -0.934456
v  -1.114812 21.028118 -1.386831
v  -1.331361 21.007294 -1.195064
v  -1.565654 20.925201 -0.934456
v  0.742643 20.141937 -2.081890
v  -1.114812 21.028118 -1.386831
v  -1.565654 20.925201 -0.934456
v  -1.565654 20.925201 -0.934456
v  -1.722093 20.834000 -0.727979
v  -1.898837 20.668251 -0.438769
v  0.742643 20.141937 -2.081890
v  -1.565654 20.925201 -0.934456
v  -1.898837 20.668251 -0.438769
v  0.742643 20.141937 -2.081890
v  -1.898837 20.668251 -0.438769
v  -2.062443 20.432940 -0.098020
v  0.763958 20.114239 -2.074233
v  0.742643 20.141937 -2.081890
v  -2.062443 20.432940 -0.098020
v  -2.062443 20.432940 -0.098020
v  -2.195887 20.136635 0.273021
v  -2.192996 20.108902 0.295451
v  0.763958 20.114239 -2.074233
v  -2.062443 20.432940 -0.098020
v  -2.192996 20.108902 0.295451
# 737 vertices

vt  0.500000 -0.291765 0.500000
vt  0.802571 -0.289557 0.500000
vt  0.791529 -0.274097 0.500000
vt  0.853368 -0.227717 0.500000
vt  0.846743 -0.199006 0.500000
vt  0.806988 -0.194589 0.500000
vt  0.806988 -0.174712 0.500000
vt  0.796757 -0.289557 0.440971
vt  0.785927 -0.274097 0.443126
vt  0.824917 -0.260846 0.435370
vt  0.846578 -0.227717 0.431061
vt  0.840080 -0.199006 0.432354
vt  0.801090 -0.194589 0.440110
vt  0.801090 -0.174712 0.440109
vt  0.848744 -0.119498 0.430630
vt  0.822751 -0.070910 0.435801
vt  0.807588 -0.070910 0.438817
vt  0.772931 -0.022322 0.445711
vt  0.757768 -0.022322 0.448727
vt  0.727442 0.054977 0.454759
vt  0.714445 0.050560 0.457344
vt  0.701449 0.101357 0.459929
vt  0.668957 0.121234 0.466392
vt  0.688452 0.152153 0.462514
vt  0.671123 0.178656 0.465961
vt  0.651628 0.191907 0.469839
vt  0.623469 0.326629 0.475440
vt  0.601807 0.560735 0.479749
vt  0.675455 0.562944 0.465100
vt  0.666791 0.578403 0.466823
vt  0.684120 0.585029 0.463376
vt  0.675455 0.602697 0.465100
vt  0.606140 0.613740 0.478888
vt  0.608306 0.642451 0.478457
vt  0.606140 0.673371 0.478888
vt  0.593143 0.697665 0.481473
vt  0.595309 0.755087 0.481042
vt  0.608306 0.781590 0.478457
vt  0.608306 0.839012 0.478457
vt  0.666791 0.951648 0.466823
vt  0.671123 1.101830 0.465961
vt  0.536824 1.238760 0.492675
vt  0.549821 1.271888 0.490090
vt  0.779539 -0.289557 0.384211
vt  0.769337 -0.274097 0.388437
vt  0.826469 -0.227717 0.364772
vt  0.820348 -0.199006 0.367307
vt  0.783620 -0.194589 0.382521
vt  0.783620 -0.174712 0.382521
vt  0.640790 0.662328 0.441683
vt  0.624467 0.770547 0.448444
vt  0.536728 1.291765 0.484787
vt  0.751579 -0.289557 0.331900
vt  0.742397 -0.274097 0.338035
vt  0.775451 -0.260845 0.315949
vt  0.793814 -0.227717 0.303679
vt  0.788306 -0.199006 0.307360
vt  0.755252 -0.194589 0.329447
vt  0.755251 -0.174712 0.329446
vt  0.795651 -0.119498 0.302452
vt  0.773615 -0.070910 0.317176
vt  0.760760 -0.070910 0.325765
vt  0.731379 -0.022322 0.345398
vt  0.692816 0.054977 0.371164
vt  0.648744 0.562944 0.400613
vt  0.641398 0.578404 0.405521
vt  0.656090 0.585029 0.395705
vt  0.648744 0.602698 0.400613
vt  0.713950 -0.289557 0.286050
vt  0.706142 -0.274097 0.293858
vt  0.749869 -0.227717 0.250131
vt  0.745184 -0.199006 0.254816
vt  0.717074 -0.194589 0.282927
vt  0.717073 -0.174712 0.282926
vt  0.685840 -0.022322 0.314160
vt  0.654606 0.050560 0.345394
vt  0.645236 0.101357 0.354764
vt  0.621811 0.121234 0.378189
vt  0.635866 0.152153 0.364134
vt  0.623373 0.178656 0.376627
vt  0.609318 0.191907 0.390682
vt  0.576523 0.613740 0.423478
vt  0.578084 0.642451 0.421916
vt  0.576523 0.673371 0.423478
vt  0.567152 0.697665 0.432848
vt  0.623373 1.101830 0.376627
vt  0.567153 1.201214 0.432848
vt  0.668100 -0.289557 0.248421
vt  0.661964 -0.274097 0.257603
vt  0.684051 -0.260845 0.224549
vt  0.696320 -0.227717 0.206185
vt  0.692640 -0.199006 0.211694
vt  0.670554 -0.194589 0.244748
vt  0.670554 -0.174712 0.244748
vt  0.697548 -0.119498 0.204349
vt  0.682824 -0.070910 0.226385
vt  0.674234 -0.070910 0.239239
vt  0.654603 -0.022322 0.268621
vt  0.628835 0.054977 0.307184
vt  0.569939 0.326629 0.395329
vt  0.557670 0.560735 0.413692
vt  0.599388 0.562944 0.351256
vt  0.594479 0.578403 0.358602
vt  0.604296 0.585029 0.343911
vt  0.599388 0.602698 0.351256
vt  0.553988 0.755087 0.419201
vt  0.574847 0.770547 0.387983
vt  0.561351 0.781590 0.408183
vt  0.561351 0.839012 0.408183
vt  0.594480 0.951648 0.358602
vt  0.596933 1.101830 0.354929
vt  0.520859 1.238760 0.468782
vt  0.528222 1.271888 0.457764
vt  0.615789 -0.289557 0.220460
vt  0.611563 -0.274097 0.230662
vt  0.635228 -0.227717 0.173531
vt  0.632692 -0.199006 0.179652
vt  0.617479 -0.194589 0.216380
vt  0.617479 -0.174712 0.216380
vt  0.588743 0.054977 0.285755
vt  0.558318 0.662328 0.359210
vt  0.567615 1.042199 0.336765
vt  0.559028 -0.289557 0.203242
vt  0.556874 -0.274097 0.214073
vt  0.564630 -0.260845 0.175083
vt  0.568938 -0.227717 0.153422
vt  0.567646 -0.199006 0.159920
vt  0.559890 -0.194589 0.198910
vt  0.559890 -0.174712 0.198910
vt  0.569370 -0.119498 0.151256
vt  0.564199 -0.070910 0.177249
vt  0.561183 -0.070910 0.192412
vt  0.554289 -0.022322 0.227070
vt  0.551273 -0.022322 0.242233
vt  0.542656 0.050560 0.285555
vt  0.540071 0.101357 0.298551
vt  0.533608 0.121234 0.331043
vt  0.537486 0.152153 0.311548
vt  0.534038 0.178656 0.328877
vt  0.530161 0.191907 0.348372
vt  0.526283 0.253747 0.367867
vt  0.534900 0.562944 0.324545
vt  0.533177 0.578404 0.333209
vt  0.536624 0.585029 0.315881
vt  0.534901 0.602697 0.324545
vt  0.521112 0.613740 0.393860
vt  0.521544 0.642451 0.391694
vt  0.521113 0.673371 0.393860
vt  0.518528 0.697665 0.406857
vt  0.534039 1.101830 0.328877
vt  0.507756 1.291765 0.461010
vt  0.500000 -0.289557 0.197429
vt  0.500000 -0.274097 0.208472
vt  0.499999 -0.227717 0.146632
vt  0.500000 -0.199006 0.153258
vt  0.500000 -0.194589 0.193012
vt  0.500000 -0.174712 0.193011
vt  0.500000 0.054977 0.268102
vt  0.500000 0.770547 0.365278
vt  0.500000 1.271888 0.449203
vt  0.440971 -0.289557 0.203243
vt  0.443125 -0.274097 0.214073
vt  0.435370 -0.260845 0.175083
vt  0.431061 -0.227717 0.153422
vt  0.432354 -0.199006 0.159921
vt  0.440110 -0.194589 0.198911
vt  0.440110 -0.174712 0.198911
vt  0.430630 -0.119498 0.151256
vt  0.435801 -0.070910 0.177249
vt  0.438816 -0.070910 0.192412
vt  0.445711 -0.022322 0.227070
vt  0.454759 0.054977 0.272558
vt  0.475441 0.326629 0.376532
vt  0.479749 0.560735 0.398193
vt  0.465100 0.562944 0.324545
vt  0.466824 0.578403 0.333209
vt  0.463377 0.585029 0.315880
vt  0.465100 0.602698 0.324545
vt  0.481042 0.755087 0.404691
vt  0.478457 0.781590 0.391694
vt  0.478457 0.839012 0.391694
vt  0.466824 0.951648 0.333209
vt  0.481473 1.201215 0.406857
vt  0.492676 1.238760 0.463176
vt  0.384211 -0.289557 0.220461
vt  0.388437 -0.274097 0.230663
vt  0.364772 -0.227717 0.173531
vt  0.367307 -0.199006 0.179652
vt  0.382520 -0.194589 0.216380
vt  0.382520 -0.174712 0.216380
vt  0.399424 -0.022322 0.257189
vt  0.416327 0.050560 0.297997
vt  0.421399 0.101357 0.310240
vt  0.434076 0.121234 0.340846
vt  0.426470 0.152153 0.322482
vt  0.433231 0.178656 0.338806
vt  0.440838 0.191907 0.357170
vt  0.458587 0.613740 0.400019
vt  0.457742 0.642451 0.397978
vt  0.458587 0.673371 0.400019
vt  0.463658 0.697665 0.412261
vt  0.433231 1.101830 0.338806
vt  0.331900 -0.289557 0.248421
vt  0.338036 -0.274097 0.257603
vt  0.315949 -0.260845 0.224549
vt  0.303679 -0.227717 0.206186
vt  0.307360 -0.199006 0.211694
vt  0.329446 -0.194589 0.244749
vt  0.329447 -0.174712 0.244749
vt  0.302452 -0.119498 0.204349
vt  0.317176 -0.070910 0.226385
vt  0.325765 -0.070910 0.239239
vt  0.345397 -0.022322 0.268621
vt  0.371165 0.054977 0.307184
vt  0.400613 0.562944 0.351256
vt  0.405521 0.578403 0.358602
vt  0.395705 0.585029 0.343911
vt  0.400613 0.602698 0.351256
vt  0.415337 0.662328 0.373293
vt  0.425153 0.770547 0.387983
vt  0.477915 1.291765 0.466946
vt  0.286050 -0.289557 0.286050
vt  0.293858 -0.274097 0.293858
vt  0.250131 -0.227717 0.250131
vt  0.254816 -0.199006 0.254816
vt  0.282926 -0.194589 0.282927
vt  0.282926 -0.174712 0.282926
vt  0.336024 0.054977 0.336024
vt  0.464082 1.271888 0.464081
vt  0.248421 -0.289557 0.331901
vt  0.257603 -0.274097 0.338036
vt  0.224549 -0.260845 0.315950
vt  0.206185 -0.227717 0.303680
vt  0.211694 -0.199006 0.307361
vt  0.244748 -0.194589 0.329447
vt  0.244748 -0.174712 0.329446
vt  0.204349 -0.119498 0.302452
vt  0.226385 -0.070910 0.317176
vt  0.239239 -0.070910 0.325765
vt  0.268621 -0.022322 0.345398
vt  0.281475 -0.022322 0.353987
vt  0.318202 0.050560 0.378527
vt  0.329220 0.101357 0.385889
vt  0.356765 0.121234 0.404294
vt  0.340238 0.152153 0.393251
vt  0.354929 0.178656 0.403067
vt  0.371456 0.191907 0.414110
vt  0.395329 0.326629 0.430061
vt  0.413692 0.560735 0.442331
vt  0.351256 0.562944 0.400612
vt  0.358602 0.578403 0.405521
vt  0.343911 0.585029 0.395705
vt  0.351257 0.602698 0.400613
vt  0.410019 0.613740 0.439876
vt  0.408183 0.642451 0.438650
vt  0.410019 0.673371 0.439877
vt  0.421038 0.697665 0.447239
vt  0.419201 0.755087 0.446012
vt  0.408183 0.781590 0.438650
vt  0.408183 0.839012 0.438650
vt  0.358602 0.951648 0.405521
vt  0.354929 1.101830 0.403066
vt  0.468783 1.238760 0.479141
vt  0.220460 -0.289557 0.384211
vt  0.230663 -0.274097 0.388437
vt  0.173531 -0.227717 0.364773
vt  0.179652 -0.199006 0.367308
vt  0.216379 -0.194589 0.382521
vt  0.216380 -0.174712 0.382521
vt  0.285755 0.054977 0.411257
vt  0.375534 0.770547 0.448444
vt  0.203242 -0.289557 0.440972
vt  0.214073 -0.274097 0.443126
vt  0.175083 -0.260845 0.435370
vt  0.153421 -0.227717 0.431062
vt  0.159920 -0.199006 0.432354
vt  0.198910 -0.194589 0.440109
vt  0.198910 -0.174712 0.440109
vt  0.151255 -0.119498 0.430630
vt  0.177249 -0.070910 0.435801
vt  0.192412 -0.070910 0.438817
vt  0.227070 -0.022322 0.445711
vt  0.272558 0.054977 0.454759
vt  0.324545 0.562944 0.465100
vt  0.333209 0.578404 0.466823
vt  0.315880 0.585029 0.463376
vt  0.324545 0.602698 0.465100
vt  0.350539 0.662328 0.470270
vt  0.406857 1.201215 0.481472
vt  0.461011 1.291765 0.492244
vt  0.197429 -0.289557 0.500000
vt  0.208471 -0.274097 0.500000
vt  0.146632 -0.227717 0.500000
vt  0.153258 -0.199006 0.500000
vt  0.193011 -0.194589 0.500000
vt  0.193012 -0.174712 0.500000
vt  0.237182 -0.022322 0.500000
vt  0.281354 0.050560 0.500000
vt  0.294605 0.101357 0.500000
vt  0.327733 0.121234 0.500000
vt  0.307856 0.152153 0.500000
vt  0.325525 0.178656 0.500000
vt  0.345401 0.191907 0.500000
vt  0.391781 0.613740 0.500000
vt  0.389573 0.642452 0.500000
vt  0.391782 0.673371 0.500000
vt  0.405033 0.697665 0.500000
vt  0.325525 1.101830 0.500000
vt  0.449204 1.271888 0.500000
vt  0.203243 -0.289557 0.559029
vt  0.214073 -0.274097 0.556875
vt  0.175083 -0.260845 0.564630
vt  0.153422 -0.227717 0.568939
vt  0.159920 -0.199006 0.567647
vt  0.198910 -0.194589 0.559891
vt  0.198911 -0.174712 0.559891
vt  0.151256 -0.119498 0.569370
vt  0.177249 -0.070910 0.564199
vt  0.192412 -0.070910 0.561183
vt  0.227069 -0.022322 0.554289
vt  0.272558 0.054977 0.545241
vt  0.376532 0.326629 0.524560
vt  0.398192 0.560735 0.520251
vt  0.324545 0.562944 0.534900
vt  0.333210 0.578403 0.533177
vt  0.315881 0.585029 0.536624
vt  0.324545 0.602698 0.534900
vt  0.404691 0.755087 0.518958
vt  0.367868 0.770548 0.526283
vt  0.391694 0.781590 0.521543
vt  0.391694 0.839012 0.521543
vt  0.333210 0.951648 0.533177
vt  0.463176 1.238760 0.507325
vt  0.220461 -0.289557 0.615789
vt  0.230663 -0.274097 0.611564
vt  0.173530 -0.227717 0.635228
vt  0.179652 -0.199006 0.632693
vt  0.216380 -0.194589 0.617480
vt  0.216380 -0.174712 0.617479
vt  0.285754 0.054977 0.588743
vt  0.338806 1.101830 0.566769
vt  0.248421 -0.289557 0.668100
vt  0.257603 -0.274097 0.661965
vt  0.224549 -0.260845 0.684051
vt  0.206185 -0.227717 0.696321
vt  0.211694 -0.199006 0.692640
vt  0.244748 -0.194589 0.670554
vt  0.244749 -0.174712 0.670554
vt  0.204349 -0.119498 0.697548
vt  0.226385 -0.070910 0.682824
vt  0.239240 -0.070910 0.674235
vt  0.268621 -0.022322 0.654603
vt  0.281475 -0.022322 0.646014
vt  0.318202 0.050560 0.621474
vt  0.329220 0.101357 0.614112
vt  0.356766 0.121234 0.595707
vt  0.340238 0.152153 0.606750
vt  0.354929 0.178656 0.596933
vt  0.371456 0.191907 0.585890
vt  0.387983 0.253747 0.574847
vt  0.351256 0.562944 0.599387
vt  0.358602 0.578403 0.594480
vt  0.343911 0.585029 0.604295
vt  0.351256 0.602698 0.599387
vt  0.410020 0.613740 0.560123
vt  0.408183 0.642452 0.561350
vt  0.410020 0.673371 0.560123
vt  0.421037 0.697665 0.552761
vt  0.466946 1.291765 0.522086
vt  0.286050 -0.289557 0.713950
vt  0.293858 -0.274097 0.706142
vt  0.250131 -0.227717 0.749869
vt  0.254816 -0.199006 0.745184
vt  0.282926 -0.194589 0.717074
vt  0.282926 -0.174712 0.717074
vt  0.336024 0.054977 0.663976
vt  0.392244 0.662328 0.607756
vt  0.404738 0.770547 0.595263
vt  0.464082 1.271888 0.535918
vt  0.331901 -0.289557 0.751579
vt  0.338036 -0.274097 0.742398
vt  0.315950 -0.260845 0.775452
vt  0.303680 -0.227717 0.793815
vt  0.307360 -0.199006 0.788306
vt  0.329446 -0.194589 0.755252
vt  0.329446 -0.174712 0.755252
vt  0.302452 -0.119498 0.795651
vt  0.317176 -0.070910 0.773615
vt  0.325766 -0.070910 0.760761
vt  0.345397 -0.022322 0.731379
vt  0.371164 0.054977 0.692816
vt  0.430061 0.326629 0.604671
vt  0.442331 0.560735 0.586308
vt  0.400613 0.562944 0.648744
vt  0.405521 0.578403 0.641399
vt  0.395705 0.585029 0.656089
vt  0.400613 0.602698 0.648744
vt  0.446012 0.755087 0.580799
vt  0.438650 0.781590 0.591817
vt  0.438650 0.839013 0.591817
vt  0.405521 0.951648 0.641398
vt  0.403067 1.101830 0.645071
vt  0.447239 1.201215 0.578963
vt  0.479141 1.238760 0.531218
vt  0.384211 -0.289557 0.779540
vt  0.388437 -0.274097 0.769338
vt  0.364772 -0.227717 0.826470
vt  0.367308 -0.199006 0.820348
vt  0.382521 -0.194589 0.783621
vt  0.382520 -0.174712 0.783620
vt  0.399424 -0.022322 0.742812
vt  0.416328 0.050560 0.702003
vt  0.421399 0.101357 0.689761
vt  0.434077 0.121234 0.659154
vt  0.426470 0.152153 0.677518
vt  0.433231 0.178656 0.661194
vt  0.440838 0.191907 0.642830
vt  0.458587 0.613740 0.599981
vt  0.457741 0.642451 0.602022
vt  0.458587 0.673371 0.599981
vt  0.463657 0.697665 0.587739
vt  0.440971 -0.289557 0.796758
vt  0.443126 -0.274097 0.785927
vt  0.435370 -0.260845 0.824917
vt  0.431061 -0.227717 0.846578
vt  0.432354 -0.199006 0.840080
vt  0.440109 -0.194589 0.801090
vt  0.440110 -0.174712 0.801090
vt  0.430631 -0.119498 0.848744
vt  0.435801 -0.070910 0.822751
vt  0.438817 -0.070910 0.807588
vt  0.445711 -0.022322 0.772931
vt  0.454759 0.054977 0.727442
vt  0.465100 0.562944 0.675455
vt  0.466823 0.578404 0.666791
vt  0.463377 0.585029 0.684120
vt  0.465100 0.602698 0.675455
vt  0.473718 0.770547 0.632133
vt  0.492245 1.291765 0.538990
vt  0.500000 -0.289557 0.802571
vt  0.500000 -0.274097 0.791529
vt  0.500000 -0.227717 0.853368
vt  0.500000 -0.199006 0.846742
vt  0.500000 -0.194589 0.806989
vt  0.500000 -0.174712 0.806989
vt  0.500000 0.054977 0.731898
vt  0.500000 0.662328 0.652390
vt  0.500000 1.101830 0.674475
vt  0.500000 1.271888 0.550797
vt  0.559029 -0.289557 0.796758
vt  0.556875 -0.274097 0.785927
vt  0.564630 -0.260845 0.824917
vt  0.568939 -0.227717 0.846578
vt  0.567646 -0.199006 0.840080
vt  0.559890 -0.194589 0.801090
vt  0.559890 -0.174712 0.801090
vt  0.569370 -0.119498 0.848744
vt  0.564199 -0.070910 0.822751
vt  0.561183 -0.070910 0.807588
vt  0.554289 -0.022322 0.772930
vt  0.551273 -0.022322 0.757768
vt  0.542656 0.050560 0.714445
vt  0.540071 0.101357 0.701449
vt  0.533608 0.121234 0.668957
vt  0.537485 0.152153 0.688452
vt  0.534039 0.178656 0.671123
vt  0.530161 0.191907 0.651628
vt  0.524559 0.326629 0.623468
vt  0.520251 0.560735 0.601807
vt  0.534900 0.562944 0.675455
vt  0.533177 0.578403 0.666791
vt  0.536624 0.585029 0.684120
vt  0.534900 0.602698 0.675455
vt  0.521113 0.613740 0.606140
vt  0.521543 0.642451 0.608306
vt  0.521113 0.673371 0.606140
vt  0.518528 0.697665 0.593143
vt  0.518958 0.755088 0.595309
vt  0.521543 0.781590 0.608306
vt  0.521544 0.839012 0.608306
vt  0.533177 0.951648 0.666790
vt  0.534039 1.101830 0.671123
vt  0.507325 1.238760 0.536824
vt  0.615789 -0.289557 0.779539
vt  0.611563 -0.274097 0.769338
vt  0.635228 -0.227717 0.826470
vt  0.632693 -0.199006 0.820348
vt  0.617480 -0.194589 0.783620
vt  0.617480 -0.174712 0.783620
vt  0.588743 0.054977 0.714246
vt  0.551556 0.770547 0.624466
vt  0.567614 1.042199 0.663235
vt  0.536343 1.201215 0.587739
vt  0.668100 -0.289557 0.751579
vt  0.661965 -0.274097 0.742397
vt  0.684051 -0.260845 0.775451
vt  0.696321 -0.227717 0.793815
vt  0.692640 -0.199006 0.788306
vt  0.670554 -0.194589 0.755252
vt  0.670554 -0.174712 0.755252
vt  0.697548 -0.119498 0.795651
vt  0.682824 -0.070910 0.773615
vt  0.674235 -0.070910 0.760760
vt  0.654603 -0.022322 0.731379
vt  0.628835 0.054977 0.692816
vt  0.599388 0.562944 0.648744
vt  0.594480 0.578404 0.641398
vt  0.604296 0.585029 0.656089
vt  0.599388 0.602698 0.648744
vt  0.596934 1.101830 0.645071
vt  0.522087 1.291765 0.533054
vt  0.713951 -0.289557 0.713950
vt  0.706142 -0.274097 0.706142
vt  0.749869 -0.227717 0.749869
vt  0.745184 -0.199006 0.745184
vt  0.717074 -0.194589 0.717074
vt  0.717074 -0.174712 0.717074
vt  0.685840 -0.022322 0.685840
vt  0.654607 0.050560 0.654606
vt  0.645236 0.101357 0.645236
vt  0.621811 0.121234 0.621811
vt  0.635866 0.152153 0.635866
vt  0.623373 0.178656 0.623373
vt  0.609318 0.191907 0.609318
vt  0.576523 0.613740 0.576522
vt  0.578085 0.642452 0.578084
vt  0.576523 0.673371 0.576522
vt  0.567153 0.697665 0.567152
vt  0.535919 1.271888 0.535918
vt  0.751579 -0.289557 0.668100
vt  0.742397 -0.274097 0.661965
vt  0.775451 -0.260845 0.684051
vt  0.793815 -0.227717 0.696321
vt  0.788306 -0.199006 0.692640
vt  0.755251 -0.194589 0.670554
vt  0.755251 -0.174712 0.670554
vt  0.795651 -0.119498 0.697548
vt  0.773615 -0.070910 0.682824
vt  0.760761 -0.070910 0.674235
vt  0.731379 -0.022322 0.654603
vt  0.692816 0.054977 0.628835
vt  0.604671 0.326629 0.569939
vt  0.586308 0.560735 0.557669
vt  0.648744 0.562944 0.599387
vt  0.641398 0.578404 0.594480
vt  0.656089 0.585029 0.604295
vt  0.648744 0.602698 0.599387
vt  0.626707 0.662328 0.584663
vt  0.580799 0.755087 0.553988
vt  0.612017 0.770547 0.574847
vt  0.591817 0.781590 0.561350
vt  0.591817 0.839012 0.561350
vt  0.641398 0.951648 0.594480
vt  0.531218 1.238760 0.520859
vt  0.779539 -0.289557 0.615789
vt  0.769337 -0.274097 0.611563
vt  0.826469 -0.227717 0.635228
vt  0.820348 -0.199006 0.632693
vt  0.783621 -0.194589 0.617479
vt  0.783620 -0.174712 0.617479
vt  0.661194 1.101830 0.566769
vt  0.796757 -0.289557 0.559029
vt  0.785927 -0.274097 0.556874
vt  0.824917 -0.260846 0.564630
vt  0.846578 -0.227717 0.568938
vt  0.840080 -0.199006 0.567646
vt  0.801090 -0.194589 0.559890
vt  0.801090 -0.174712 0.559890
vt  0.848744 -0.119498 0.569370
vt  0.822751 -0.070910 0.564199
vt  0.807588 -0.070910 0.561183
vt  0.772930 -0.022322 0.554289
vt  0.757767 -0.022322 0.551273
vt  0.727442 0.054977 0.545241
vt  0.714445 0.050560 0.542656
vt  0.701449 0.101357 0.540071
vt  0.668957 0.121234 0.533607
vt  0.688452 0.152153 0.537485
vt  0.671123 0.178656 0.534038
vt  0.651628 0.191907 0.530160
vt  0.623469 0.326629 0.524559
vt  0.675455 0.562944 0.534900
vt  0.666791 0.578403 0.533177
vt  0.684120 0.585029 0.536624
vt  0.675455 0.602697 0.534900
vt  0.606140 0.613740 0.521112
vt  0.608306 0.642451 0.521543
vt  0.649462 0.662328 0.529730
vt  0.606140 0.673371 0.521113
vt  0.593143 0.697665 0.518527
vt  0.632133 0.770547 0.526283
vt  0.608306 0.781590 0.521543
vt  0.608306 0.839012 0.521544
vt  0.549821 1.271888 0.509910
vt  0.538990 1.291765 0.507756
vt  0.623308 1.162770 0.475473
vt  0.624577 1.164203 0.500000
vt  0.619407 1.158368 0.450540
vt  0.612585 1.150668 0.424773
vt  0.587707 1.122590 0.368738
vt  0.602307 1.139069 0.397693
vt  0.567590 1.099885 0.339163
vt  0.569313 1.101830 0.340166
vt  0.569313 1.101830 0.659834
vt  0.567590 1.099885 0.660836
vt  0.602308 1.139068 0.602307
vt  0.587707 1.122589 0.631262
vt  0.612585 1.150668 0.575227
vt  0.623308 1.162770 0.524527
vt  0.619407 1.158368 0.549460
vt  0.593295 1.193697 0.461356
vt  0.587965 1.187681 0.441224
vt  0.579935 1.178618 0.420065
vt  0.568527 1.165743 0.397442
vt  0.552678 1.147855 0.372823
vt  0.535426 1.128383 0.648610
vt  0.552679 1.147855 0.627177
vt  0.568527 1.165742 0.602558
vt  0.579935 1.178618 0.579935
vt  0.587965 1.187681 0.558776
vt  0.596343 1.197136 0.519164
vt  0.597335 1.198256 0.500000
vt  0.596343 1.197137 0.480836
vt  0.593295 1.193697 0.538644
vt  0.535426 1.128383 0.351389
vt  0.565395 1.101830 0.338389
vt  0.566787 1.100597 0.338763
vt  0.566787 1.100597 0.661237
vt  0.565395 1.101830 0.661611
vt  0.587965 1.187681 0.441224
vt  0.593295 1.193697 0.461356
vt  0.596343 1.197137 0.480836
vt  0.579935 1.178618 0.420065
vt  0.587965 1.187681 0.441224
vt  0.596343 1.197137 0.480836
vt  0.579935 1.178618 0.420065
vt  0.596343 1.197137 0.480836
vt  0.597335 1.198256 0.500000
vt  0.597335 1.198256 0.500000
vt  0.596343 1.197136 0.519164
vt  0.593295 1.193697 0.538644
vt  0.597335 1.198256 0.500000
vt  0.593295 1.193697 0.538644
vt  0.587965 1.187681 0.558776
vt  0.597335 1.198256 0.500000
vt  0.587965 1.187681 0.558776
vt  0.579935 1.178618 0.579935
vt  0.597335 1.198256 0.500000
vt  0.579935 1.178618 0.579935
vt  0.568527 1.165742 0.602558
vt  0.597335 1.198256 0.500000
vt  0.568527 1.165742 0.602558
vt  0.560820 1.157043 0.614531
vt  0.597335 1.198256 0.500000
vt  0.560820 1.157043 0.614531
vt  0.552679 1.147855 0.627177
vt  0.552679 1.147855 0.627177
vt  0.535426 1.128383 0.648610
vt  0.535426 1.128383 0.351389
vt  0.597335 1.198256 0.500000
vt  0.552679 1.147855 0.627177
vt  0.535426 1.128383 0.351389
vt  0.579935 1.178618 0.420065
vt  0.597335 1.198256 0.500000
vt  0.535426 1.128383 0.351389
vt  0.535426 1.128383 0.351389
vt  0.552678 1.147855 0.372823
vt  0.560820 1.157043 0.385469
vt  0.579935 1.178618 0.420065
vt  0.535426 1.128383 0.351389
vt  0.560820 1.157043 0.385469
vt  0.579935 1.178618 0.420065
vt  0.560820 1.157043 0.385469
vt  0.568527 1.165743 0.397442
vt  0.566787 1.100597 0.661237
vt  0.567590 1.099885 0.660836
vt  0.567590 1.099885 0.339163
vt  0.566787 1.100597 0.661237
vt  0.567590 1.099885 0.339163
vt  0.566787 1.100597 0.338763
vt  0.565395 1.101830 0.661611
vt  0.566787 1.100597 0.661237
vt  0.566787 1.100597 0.338763
vt  0.566787 1.100597 0.338763
vt  0.565395 1.101830 0.338389
vt  0.535426 1.128383 0.351389
vt  0.566787 1.100597 0.338763
vt  0.535426 1.128383 0.351389
vt  0.535426 1.128383 0.648610
vt  0.565395 1.101830 0.661611
vt  0.566787 1.100597 0.338763
vt  0.535426 1.128383 0.648610
vt  0.619407 1.158368 0.549460
vt  0.623308 1.162770 0.524527
vt  0.624577 1.164203 0.500000
vt  0.618234 1.157044 0.553892
vt  0.619407 1.158368 0.549460
vt  0.624577 1.164203 0.500000
vt  0.612585 1.150668 0.575227
vt  0.618234 1.157044 0.553892
vt  0.624577 1.164203 0.500000
vt  0.602308 1.139068 0.602307
vt  0.612585 1.150668 0.575227
vt  0.624577 1.164203 0.500000
vt  0.587707 1.122589 0.631262
vt  0.602308 1.139068 0.602307
vt  0.624577 1.164203 0.500000
vt  0.569313 1.101830 0.659834
vt  0.587707 1.122589 0.631262
vt  0.624577 1.164203 0.500000
vt  0.623308 1.162770 0.475473
vt  0.619407 1.158368 0.450540
vt  0.618234 1.157043 0.446108
vt  0.624577 1.164203 0.500000
vt  0.623308 1.162770 0.475473
vt  0.618234 1.157043 0.446108
vt  0.569313 1.101830 0.659834
vt  0.624577 1.164203 0.500000
vt  0.618234 1.157043 0.446108
vt  0.618234 1.157043 0.446108
vt  0.612585 1.150668 0.424773
vt  0.602307 1.139069 0.397693
vt  0.569313 1.101830 0.659834
vt  0.618234 1.157043 0.446108
vt  0.602307 1.139069 0.397693
vt  0.569313 1.101830 0.659834
vt  0.602307 1.139069 0.397693
vt  0.587707 1.122590 0.368738
vt  0.567590 1.099885 0.660836
vt  0.569313 1.101830 0.659834
vt  0.587707 1.122590 0.368738
vt  0.587707 1.122590 0.368738
vt  0.569313 1.101830 0.340166
vt  0.567590 1.099885 0.339163
vt  0.567590 1.099885 0.660836
vt  0.587707 1.122590 0.368738
vt  0.567590 1.099885 0.339163
# 737 texture vertices

g Wt_kBishop
usemtl 03_-_Default
f 1/1 8/8 2/2
f 2/2 8/8 9/9
f 9/9 3/3 2/2
f 3/3 9/9 10/10
f 11/11 4/4 10/10
f 4/4 11/11 12/12
f 12/12 5/5 4/4
f 5/5 12/12 13/13
f 13/13 6/6 5/5
f 6/6 13/13 14/14
f 14/14 7/7 6/6
f 7/7 14/14 15/15
f 30/30 583/583 29/29
f 583/583 30/30 31/31
f 32/32 585/585 31/31
f 585/585 32/32 33/33
f 597/597 41/41 596/596
f 622/622 623/623 42/42
f 1/1 44/44 8/8
f 8/8 44/44 45/45
f 45/45 9/9 8/8
f 9/9 45/45 55/55
f 55/55 10/10 9/9
f 10/10 55/55 46/46
f 46/46 11/11 10/10
f 11/11 46/46 47/47
f 47/47 12/12 11/11
f 12/12 47/47 48/48
f 48/48 13/13 12/12
f 13/13 48/48 49/49
f 49/49 14/14 13/13
f 14/14 49/49 60/60
f 60/60 15/15 14/14
f 15/15 60/60 16/16
f 62/62 17/17 16/16
f 17/17 62/62 63/63
f 63/63 18/18 17/17
f 18/18 63/63 19/19
f 64/64 20/20 19/19
f 20/20 64/64 21/21
f 41/41 598/598 596/596
f 623/623 611/611 42/42
f 1/1 53/53 44/44
f 44/44 53/53 54/54
f 54/54 45/45 44/44
f 45/45 54/54 55/55
f 56/56 46/46 55/55
f 46/46 56/56 57/57
f 57/57 47/47 46/46
f 47/47 57/57 58/58
f 58/58 48/48 47/47
f 48/48 58/58 59/59
f 59/59 49/49 48/48
f 49/49 59/59 60/60
f 61/61 16/16 60/60
f 16/16 61/61 62/62
f 75/75 19/19 63/63
f 19/19 75/75 64/64
f 76/76 21/21 64/64
f 21/21 76/76 77/77
f 77/77 22/22 21/21
f 22/22 77/77 78/78
f 78/78 23/23 22/22
f 23/23 78/78 79/79
f 79/79 24/24 23/23
f 24/24 79/79 80/80
f 80/80 25/25 24/24
f 25/25 80/80 81/81
f 81/81 26/26 25/25
f 26/26 81/81 100/100
f 100/100 27/27 26/26
f 27/27 100/100 101/101
f 101/101 28/28 27/27
f 28/28 101/101 65/65
f 65/65 29/29 28/28
f 29/29 65/65 66/66
f 66/66 30/30 29/29
f 30/30 66/66 67/67
f 67/67 31/31 30/30
f 31/31 67/67 68/68
f 68/68 32/32 31/31
f 32/32 68/68 82/82
f 82/82 33/33 32/32
f 33/33 82/82 83/83
f 83/83 34/34 33/33
f 34/34 83/83 50/50
f 84/84 35/35 50/50
f 35/35 84/84 85/85
f 85/85 36/36 35/35
f 36/36 85/85 106/106
f 106/106 37/37 36/36
f 37/37 106/106 51/51
f 108/108 38/38 51/51
f 38/38 108/108 109/109
f 109/109 39/39 38/38
f 39/39 109/109 110/110
f 110/110 40/40 39/39
f 40/40 110/110 86/86
f 86/86 41/41 40/40
f 86/86 599/599 41/41
f 112/112 42/42 611/611
f 42/42 112/112 113/113
f 113/113 43/43 42/42
f 43/43 113/113 52/52
f 1/1 69/69 53/53
f 53/53 69/69 70/70
f 70/70 54/54 53/53
f 54/54 70/70 90/90
f 90/90 55/55 54/54
f 55/55 90/90 71/71
f 71/71 56/56 55/55
f 56/56 71/71 72/72
f 72/72 57/57 56/56
f 57/57 72/72 73/73
f 73/73 58/58 57/57
f 58/58 73/73 74/74
f 74/74 59/59 58/58
f 59/59 74/74 95/95
f 95/95 60/60 59/59
f 60/60 95/95 61/61
f 97/97 62/62 61/61
f 62/62 97/97 98/98
f 98/98 63/63 62/62
f 63/63 98/98 75/75
f 99/99 64/64 75/75
f 64/64 99/99 76/76
f 107/107 51/51 106/106
f 51/51 107/107 108/108
f 612/612 613/613 87/87
f 87/87 611/611 612/612
f 611/611 87/87 112/112
f 1/1 88/88 69/69
f 69/69 88/88 89/89
f 89/89 70/70 69/69
f 70/70 89/89 90/90
f 91/91 71/71 90/90
f 71/71 91/91 92/92
f 92/92 72/72 71/71
f 72/72 92/92 93/93
f 93/93 73/73 72/72
f 73/73 93/93 94/94
f 94/94 74/74 73/73
f 74/74 94/94 95/95
f 96/96 61/61 95/95
f 61/61 96/96 97/97
f 102/102 65/65 101/101
f 65/65 102/102 103/103
f 103/103 66/66 65/65
f 66/66 103/103 104/104
f 104/104 67/67 66/66
f 67/67 104/104 105/105
f 105/105 68/68 67/67
f 68/68 105/105 82/82
f 121/121 50/50 83/83
f 50/50 121/121 84/84
f 111/111 86/86 110/110
f 86/86 111/111 600/600
f 600/600 601/601 86/86
f 613/613 614/614 87/87
f 151/151 52/52 113/113
f 1/1 114/114 88/88
f 88/88 114/114 115/115
f 115/115 89/89 88/88
f 89/89 115/115 125/125
f 125/125 90/90 89/89
f 90/90 125/125 116/116
f 116/116 91/91 90/90
f 91/91 116/116 117/117
f 117/117 92/92 91/91
f 92/92 117/117 118/118
f 118/118 93/93 92/92
f 93/93 118/118 119/119
f 119/119 94/94 93/93
f 94/94 119/119 130/130
f 130/130 95/95 94/94
f 95/95 130/130 96/96
f 132/132 97/97 96/96
f 97/97 132/132 133/133
f 133/133 98/98 97/97
f 98/98 133/133 134/134
f 134/134 75/75 98/98
f 75/75 134/134 120/120
f 120/120 99/99 75/75
f 99/99 120/120 135/135
f 135/135 76/76 99/99
f 76/76 135/135 136/136
f 136/136 77/77 76/76
f 77/77 136/136 137/137
f 137/137 78/78 77/77
f 78/78 137/137 138/138
f 138/138 79/79 78/78
f 79/79 138/138 139/139
f 139/139 80/80 79/79
f 80/80 139/139 140/140
f 140/140 81/81 80/80
f 81/81 140/140 141/141
f 81/81 141/141 100/100
f 146/146 82/82 105/105
f 82/82 146/146 147/147
f 147/147 83/83 82/82
f 83/83 147/147 121/121
f 148/148 84/84 121/121
f 84/84 148/148 149/149
f 149/149 85/85 84/84
f 85/85 149/149 106/106
f 122/122 627/627 602/602
f 602/602 603/603 111/111
f 122/122 602/602 111/111
f 110/110 122/122 111/111
f 615/615 87/87 614/614
f 1/1 123/123 114/114
f 114/114 123/123 124/124
f 124/124 115/115 114/114
f 115/115 124/124 125/125
f 126/126 116/116 125/125
f 116/116 126/126 127/127
f 127/127 117/117 116/116
f 117/117 127/127 128/128
f 128/128 118/118 117/117
f 118/118 128/128 129/129
f 129/129 119/119 118/118
f 119/119 129/129 130/130
f 131/131 96/96 130/130
f 96/96 131/131 132/132
f 158/158 120/120 134/134
f 120/120 158/158 135/135
f 173/173 100/100 141/141
f 100/100 173/173 174/174
f 174/174 101/101 100/100
f 101/101 174/174 142/142
f 142/142 102/102 101/101
f 102/102 142/142 143/143
f 143/143 103/103 102/102
f 103/103 143/143 144/144
f 144/144 104/104 103/103
f 104/104 144/144 145/145
f 145/145 105/105 104/104
f 105/105 145/145 146/146
f 179/179 106/106 149/149
f 106/106 179/179 159/159
f 159/159 107/107 106/106
f 107/107 159/159 180/180
f 180/180 108/108 107/107
f 108/108 180/180 181/181
f 181/181 109/109 108/108
f 109/109 181/181 182/182
f 182/182 110/110 109/109
f 110/110 182/182 122/122
f 150/150 626/626 627/627
f 122/122 150/150 627/627
f 183/183 615/615 625/625
f 625/625 626/626 150/150
f 183/183 625/625 150/150
f 183/183 87/87 615/615
f 87/87 183/183 184/184
f 184/184 112/112 87/87
f 112/112 184/184 160/160
f 160/160 113/113 112/112
f 113/113 160/160 151/151
f 1/1 152/152 123/123
f 123/123 152/152 153/153
f 153/153 124/124 123/123
f 124/124 153/153 163/163
f 163/163 125/125 124/124
f 125/125 163/163 154/154
f 154/154 126/126 125/125
f 126/126 154/154 155/155
f 155/155 127/127 126/126
f 127/127 155/155 156/156
f 156/156 128/128 127/127
f 128/128 156/156 157/157
f 157/157 129/129 128/128
f 129/129 157/157 168/168
f 168/168 130/130 129/129
f 130/130 168/168 131/131
f 170/170 132/132 131/131
f 132/132 170/170 171/171
f 171/171 133/133 132/132
f 133/133 171/171 134/134
f 122/122 182/182 150/150
f 1/1 161/161 152/152
f 152/152 161/161 162/162
f 162/162 153/153 152/152
f 153/153 162/162 163/163
f 164/164 154/154 163/163
f 154/154 164/164 165/165
f 165/165 155/155 154/154
f 155/155 165/165 166/166
f 166/166 156/156 155/155
f 156/156 166/166 167/167
f 167/167 157/157 156/156
f 157/157 167/167 168/168
f 169/169 131/131 168/168
f 131/131 169/169 170/170
f 191/191 134/134 171/171
f 134/134 191/191 172/172
f 172/172 158/158 134/134
f 158/158 172/172 192/192
f 192/192 135/135 158/158
f 135/135 192/192 193/193
f 193/193 136/136 135/135
f 136/136 193/193 194/194
f 194/194 137/137 136/136
f 137/137 194/194 195/195
f 195/195 138/138 137/137
f 138/138 195/195 196/196
f 196/196 139/139 138/138
f 139/139 196/196 197/197
f 197/197 140/140 139/139
f 197/197 141/141 140/140
f 141/141 197/197 173/173
f 175/175 142/142 174/174
f 142/142 175/175 176/176
f 176/176 143/143 142/142
f 143/143 176/176 177/177
f 177/177 144/144 143/143
f 144/144 177/177 178/178
f 178/178 145/145 144/144
f 145/145 178/178 198/198
f 198/198 146/146 145/145
f 146/146 198/198 199/199
f 199/199 147/147 146/146
f 147/147 199/199 219/219
f 219/219 121/121 147/147
f 121/121 219/219 200/200
f 200/200 148/148 121/121
f 148/148 200/200 201/201
f 201/201 149/149 148/148
f 149/149 201/201 179/179
f 202/202 150/150 182/182
f 221/221 151/151 160/160
f 151/151 221/221 52/52
f 1/1 185/185 161/161
f 161/161 185/185 186/186
f 186/186 162/162 161/161
f 162/162 186/186 205/205
f 205/205 163/163 162/162
f 163/163 205/205 187/187
f 187/187 164/164 163/163
f 164/164 187/187 188/188
f 188/188 165/165 164/164
f 165/165 188/188 189/189
f 189/189 166/166 165/165
f 166/166 189/189 190/190
f 190/190 167/167 166/166
f 167/167 190/190 210/210
f 210/210 168/168 167/167
f 168/168 210/210 169/169
f 212/212 170/170 169/169
f 170/170 212/212 213/213
f 213/213 171/171 170/170
f 171/171 213/213 191/191
f 214/214 172/172 191/191
f 172/172 214/214 192/192
f 220/220 159/159 179/179
f 159/159 220/220 180/180
f 150/150 202/202 183/183
f 229/229 160/160 184/184
f 160/160 229/229 221/221
f 1/1 203/203 185/185
f 185/185 203/203 204/204
f 204/204 186/186 185/185
f 186/186 204/204 205/205
f 206/206 187/187 205/205
f 187/187 206/206 207/207
f 207/207 188/188 187/187
f 188/188 207/207 208/208
f 208/208 189/189 188/188
f 189/189 208/208 209/209
f 209/209 190/190 189/189
f 190/190 209/209 210/210
f 211/211 169/169 210/210
f 169/169 211/211 212/212
f 248/248 173/173 197/197
f 173/173 248/248 249/249
f 249/249 174/174 173/173
f 174/174 249/249 215/215
f 215/215 175/175 174/174
f 175/175 215/215 216/216
f 216/216 176/176 175/175
f 176/176 216/216 217/217
f 217/217 177/177 176/176
f 177/177 217/217 218/218
f 218/218 178/178 177/177
f 178/178 218/218 198/198
f 258/258 179/179 201/201
f 179/179 258/258 220/220
f 259/259 180/180 220/220
f 180/180 259/259 260/260
f 260/260 181/181 180/180
f 181/181 260/260 261/261
f 261/261 182/182 181/181
f 182/182 261/261 202/202
f 263/263 184/184 183/183
f 184/184 263/263 229/229
f 1/1 222/222 203/203
f 203/203 222/222 223/223
f 223/223 204/204 203/203
f 204/204 223/223 232/232
f 232/232 205/205 204/204
f 205/205 232/232 224/224
f 224/224 206/206 205/205
f 206/206 224/224 225/225
f 225/225 207/207 206/206
f 207/207 225/225 226/226
f 226/226 208/208 207/207
f 208/208 226/226 227/227
f 227/227 209/209 208/208
f 209/209 227/227 237/237
f 237/237 210/210 209/209
f 210/210 237/237 211/211
f 239/239 212/212 211/211
f 212/212 239/239 240/240
f 240/240 213/213 212/212
f 213/213 240/240 241/241
f 241/241 191/191 213/213
f 191/191 241/241 228/228
f 228/228 214/214 191/191
f 214/214 228/228 242/242
f 242/242 192/192 214/214
f 192/192 242/242 243/243
f 243/243 193/193 192/192
f 193/193 243/243 244/244
f 244/244 194/194 193/193
f 194/194 244/244 245/245
f 245/245 195/195 194/194
f 195/195 245/245 246/246
f 246/246 196/196 195/195
f 196/196 246/246 247/247
f 247/247 197/197 196/196
f 197/197 247/247 248/248
f 254/254 198/198 218/218
f 198/198 254/254 255/255
f 255/255 199/199 198/198
f 199/199 255/255 219/219
f 256/256 200/200 219/219
f 200/200 256/256 257/257
f 257/257 201/201 200/200
f 201/201 257/257 258/258
f 262/262 202/202 261/261
f 289/289 183/183 202/202
f 183/183 289/289 263/263
f 1/1 230/230 222/222
f 222/222 230/230 231/231
f 231/231 223/223 222/222
f 223/223 231/231 232/232
f 233/233 224/224 232/232
f 224/224 233/233 234/234
f 234/234 225/225 224/224
f 225/225 234/234 235/235
f 235/235 226/226 225/225
f 226/226 235/235 236/236
f 236/236 227/227 226/226
f 227/227 236/236 237/237
f 238/238 211/211 237/237
f 211/211 238/238 239/239
f 270/270 228/228 241/241
f 228/228 270/270 242/242
f 250/250 215/215 249/249
f 215/215 250/250 251/251
f 251/251 216/216 215/215
f 216/216 251/251 252/252
f 252/252 217/217 216/216
f 217/217 252/252 253/253
f 253/253 218/218 217/217
f 218/218 253/253 254/254
f 271/271 220/220 258/258
f 220/220 271/271 259/259
f 202/202 262/262 289/289
f 290/290 221/221 229/229
f 221/221 290/290 52/52
f 1/1 264/264 230/230
f 230/230 264/264 265/265
f 265/265 231/231 230/230
f 231/231 265/265 274/274
f 274/274 232/232 231/231
f 232/232 274/274 266/266
f 266/266 233/233 232/232
f 233/233 266/266 267/267
f 267/267 234/234 233/233
f 234/234 267/267 268/268
f 268/268 235/235 234/234
f 235/235 268/268 269/269
f 269/269 236/236 235/235
f 236/236 269/269 279/279
f 279/279 237/237 236/236
f 237/237 279/279 238/238
f 281/281 239/239 238/238
f 239/239 281/281 282/282
f 282/282 240/240 239/239
f 240/240 282/282 241/241
f 288/288 219/219 255/255
f 219/219 288/288 256/256
f 309/309 229/229 263/263
f 229/229 309/309 290/290
f 1/1 272/272 264/264
f 264/264 272/272 273/273
f 273/273 265/265 264/264
f 265/265 273/273 274/274
f 275/275 266/266 274/274
f 266/266 275/275 276/276
f 276/276 267/267 266/266
f 267/267 276/276 277/277
f 277/277 268/268 267/267
f 268/268 277/277 278/278
f 278/278 269/269 268/268
f 269/269 278/278 279/279
f 280/280 238/238 279/279
f 238/238 280/280 281/281
f 297/297 241/241 282/282
f 241/241 297/297 283/283
f 283/283 270/270 241/241
f 270/270 283/283 298/298
f 298/298 242/242 270/270
f 242/242 298/298 299/299
f 299/299 243/243 242/242
f 243/243 299/299 300/300
f 300/300 244/244 243/243
f 244/244 300/300 301/301
f 301/301 245/245 244/244
f 245/245 301/301 302/302
f 302/302 246/246 245/245
f 246/246 302/302 303/303
f 303/303 247/247 246/246
f 247/247 303/303 322/322
f 322/322 248/248 247/247
f 248/248 322/322 323/323
f 323/323 249/249 248/248
f 249/249 323/323 284/284
f 284/284 250/250 249/249
f 250/250 284/284 285/285
f 285/285 251/251 250/250
f 251/251 285/285 286/286
f 286/286 252/252 251/251
f 252/252 286/286 287/287
f 287/287 253/253 252/252
f 253/253 287/287 304/304
f 304/304 254/254 253/253
f 254/254 304/304 305/305
f 305/305 255/255 254/254
f 255/255 305/305 288/288
f 306/306 256/256 288/288
f 256/256 306/306 307/307
f 307/307 257/257 256/256
f 257/257 307/307 328/328
f 328/328 258/258 257/257
f 258/258 328/328 271/271
f 330/330 259/259 271/271
f 259/259 330/330 331/331
f 331/331 260/260 259/259
f 260/260 331/331 332/332
f 332/332 261/261 260/260
f 332/332 262/262 261/261
f 262/262 332/332 308/308
f 333/333 263/263 289/289
f 263/263 333/333 309/309
f 1/1 291/291 272/272
f 272/272 291/291 292/292
f 292/292 273/273 272/272
f 273/273 292/292 312/312
f 312/312 274/274 273/273
f 274/274 312/312 293/293
f 293/293 275/275 274/274
f 275/275 293/293 294/294
f 294/294 276/276 275/275
f 276/276 294/294 295/295
f 295/295 277/277 276/276
f 277/277 295/295 296/296
f 296/296 278/278 277/277
f 278/278 296/296 317/317
f 317/317 279/279 278/278
f 279/279 317/317 280/280
f 319/319 281/281 280/280
f 281/281 319/319 320/320
f 320/320 282/282 281/281
f 282/282 320/320 297/297
f 321/321 283/283 297/297
f 283/283 321/321 298/298
f 329/329 271/271 328/328
f 271/271 329/329 330/330
f 262/262 308/308 289/289
f 1/1 310/310 291/291
f 291/291 310/310 311/311
f 311/311 292/292 291/291
f 292/292 311/311 312/312
f 313/313 293/293 312/312
f 293/293 313/313 314/314
f 314/314 294/294 293/293
f 294/294 314/314 315/315
f 315/315 295/295 294/294
f 295/295 315/315 316/316
f 316/316 296/296 295/295
f 296/296 316/316 317/317
f 318/318 280/280 317/317
f 280/280 318/318 319/319
f 324/324 284/284 323/323
f 284/284 324/324 325/325
f 325/325 285/285 284/284
f 285/285 325/325 326/326
f 326/326 286/286 285/285
f 286/286 326/326 327/327
f 327/327 287/287 286/286
f 287/287 327/327 304/304
f 369/369 290/290 309/309
f 290/290 369/369 52/52
f 1/1 334/334 310/310
f 310/310 334/334 335/335
f 335/335 311/311 310/310
f 311/311 335/335 344/344
f 344/344 312/312 311/311
f 312/312 344/344 336/336
f 336/336 313/313 312/312
f 313/313 336/336 337/337
f 337/337 314/314 313/313
f 314/314 337/337 338/338
f 338/338 315/315 314/314
f 315/315 338/338 339/339
f 339/339 316/316 315/315
f 316/316 339/339 349/349
f 349/349 317/317 316/316
f 317/317 349/349 318/318
f 351/351 319/319 318/318
f 319/319 351/351 352/352
f 352/352 320/320 319/319
f 320/320 352/352 353/353
f 353/353 297/297 320/320
f 297/297 353/353 340/340
f 340/340 321/321 297/297
f 321/321 340/340 354/354
f 354/354 298/298 321/321
f 298/298 354/354 355/355
f 355/355 299/299 298/298
f 299/299 355/355 356/356
f 356/356 300/300 299/299
f 300/300 356/356 357/357
f 357/357 301/301 300/300
f 301/301 357/357 358/358
f 358/358 302/302 301/301
f 302/302 358/358 359/359
f 359/359 303/303 302/302
f 303/303 359/359 360/360
f 303/303 360/360 322/322
f 365/365 304/304 327/327
f 304/304 365/365 366/366
f 366/366 305/305 304/304
f 305/305 366/366 377/377
f 377/377 288/288 305/305
f 288/288 377/377 367/367
f 367/367 306/306 288/288
f 306/306 367/367 368/368
f 368/368 307/307 306/306
f 307/307 368/368 328/328
f 341/341 308/308 332/332
f 308/308 341/341 403/403
f 403/403 289/289 308/308
f 289/289 403/403 333/333
f 379/379 309/309 333/333
f 309/309 379/379 369/369
f 1/1 342/342 334/334
f 334/334 342/342 343/343
f 343/343 335/335 334/334
f 335/335 343/343 344/344
f 345/345 336/336 344/344
f 336/336 345/345 346/346
f 346/346 337/337 336/336
f 337/337 346/346 347/347
f 347/347 338/338 337/337
f 338/338 347/347 348/348
f 348/348 339/339 338/338
f 339/339 348/348 349/349
f 350/350 318/318 349/349
f 318/318 350/350 351/351
f 376/376 340/340 353/353
f 340/340 376/376 354/354
f 392/392 322/322 360/360
f 322/322 392/392 393/393
f 393/393 323/323 322/322
f 323/323 393/393 361/361
f 361/361 324/324 323/323
f 324/324 361/361 362/362
f 362/362 325/325 324/324
f 325/325 362/362 363/363
f 363/363 326/326 325/325
f 326/326 363/363 364/364
f 364/364 327/327 326/326
f 327/327 364/364 365/365
f 398/398 328/328 368/368
f 328/328 398/398 378/378
f 378/378 329/329 328/328
f 329/329 378/378 399/399
f 399/399 330/330 329/329
f 330/330 399/399 400/400
f 400/400 331/331 330/330
f 331/331 400/400 401/401
f 401/401 332/332 331/331
f 401/401 341/341 332/332
f 404/404 333/333 403/403
f 333/333 404/404 379/379
f 1/1 370/370 342/342
f 342/342 370/370 371/371
f 371/371 343/343 342/342
f 343/343 371/371 382/382
f 382/382 344/344 343/343
f 344/344 382/382 372/372
f 372/372 345/345 344/344
f 345/345 372/372 373/373
f 373/373 346/346 345/345
f 346/346 373/373 374/374
f 374/374 347/347 346/346
f 347/347 374/374 375/375
f 375/375 348/348 347/347
f 348/348 375/375 387/387
f 387/387 349/349 348/348
f 349/349 387/387 350/350
f 389/389 351/351 350/350
f 351/351 389/389 390/390
f 390/390 352/352 351/351
f 352/352 390/390 353/353
f 402/402 341/341 401/401
f 1/1 380/380 370/370
f 370/370 380/380 381/381
f 381/381 371/371 370/370
f 371/371 381/381 382/382
f 383/383 372/372 382/382
f 372/372 383/383 384/384
f 384/384 373/373 372/372
f 373/373 384/384 385/385
f 385/385 374/374 373/373
f 374/374 385/385 386/386
f 386/386 375/375 374/374
f 375/375 386/386 387/387
f 388/388 350/350 387/387
f 350/350 388/388 389/389
f 411/411 353/353 390/390
f 353/353 411/411 391/391
f 391/391 376/376 353/353
f 376/376 391/391 412/412
f 412/412 354/354 376/376
f 354/354 412/412 413/413
f 413/413 355/355 354/354
f 355/355 413/413 414/414
f 414/414 356/356 355/355
f 356/356 414/414 415/415
f 415/415 357/357 356/356
f 357/357 415/415 416/416
f 416/416 358/358 357/357
f 358/358 416/416 417/417
f 417/417 359/359 358/358
f 417/417 360/360 359/359
f 360/360 417/417 392/392
f 394/394 361/361 393/393
f 361/361 394/394 395/395
f 395/395 362/362 361/361
f 362/362 395/395 396/396
f 396/396 363/363 362/362
f 363/363 396/396 397/397
f 397/397 364/364 363/363
f 364/364 397/397 418/418
f 418/418 365/365 364/364
f 365/365 418/418 419/419
f 419/419 366/366 365/365
f 366/366 419/419 377/377
f 420/420 367/367 377/377
f 367/367 420/420 421/421
f 421/421 368/368 367/367
f 368/368 421/421 398/398
f 341/341 402/402 403/403
f 439/439 369/369 379/379
f 369/369 439/439 52/52
f 1/1 405/405 380/380
f 380/380 405/405 406/406
f 406/406 381/381 380/380
f 381/381 406/406 424/424
f 424/424 382/382 381/381
f 382/382 424/424 407/407
f 407/407 383/383 382/382
f 383/383 407/407 408/408
f 408/408 384/384 383/383
f 384/384 408/408 409/409
f 409/409 385/385 384/384
f 385/385 409/409 410/410
f 410/410 386/386 385/385
f 386/386 410/410 429/429
f 429/429 387/387 386/386
f 387/387 429/429 388/388
f 431/431 389/389 388/388
f 389/389 431/431 432/432
f 432/432 390/390 389/389
f 390/390 432/432 411/411
f 433/433 391/391 411/411
f 391/391 433/433 412/412
f 438/438 378/378 398/398
f 378/378 438/438 399/399
f 449/449 379/379 404/404
f 379/379 449/449 439/439
f 1/1 422/422 405/405
f 405/405 422/422 423/423
f 423/423 406/406 405/405
f 406/406 423/423 424/424
f 425/425 407/407 424/424
f 407/407 425/425 426/426
f 426/426 408/408 407/407
f 408/408 426/426 427/427
f 427/427 409/409 408/408
f 409/409 427/427 428/428
f 428/428 410/410 409/409
f 410/410 428/428 429/429
f 430/430 388/388 429/429
f 388/388 430/430 431/431
f 468/468 392/392 417/417
f 392/392 468/468 469/469
f 469/469 393/393 392/392
f 393/393 469/469 434/434
f 434/434 394/394 393/393
f 394/394 434/434 435/435
f 435/435 395/395 394/394
f 395/395 435/435 436/436
f 436/436 396/396 395/395
f 396/396 436/436 437/437
f 437/437 397/397 396/396
f 397/397 437/437 418/418
f 447/447 377/377 419/419
f 377/377 447/447 420/420
f 478/478 398/398 421/421
f 398/398 478/478 438/438
f 479/479 399/399 438/438
f 399/399 479/479 480/480
f 480/480 400/400 399/399
f 400/400 480/480 481/481
f 481/481 401/401 400/400
f 481/481 402/402 401/401
f 402/402 481/481 448/448
f 483/483 404/404 403/403
f 404/404 483/483 449/449
f 1/1 440/440 422/422
f 422/422 440/440 441/441
f 441/441 423/423 422/422
f 423/423 441/441 452/452
f 452/452 424/424 423/423
f 424/424 452/452 442/442
f 442/442 425/425 424/424
f 425/425 442/442 443/443
f 443/443 426/426 425/425
f 426/426 443/443 444/444
f 444/444 427/427 426/426
f 427/427 444/444 445/445
f 445/445 428/428 427/427
f 428/428 445/445 457/457
f 457/457 429/429 428/428
f 429/429 457/457 430/430
f 459/459 431/431 430/430
f 431/431 459/459 460/460
f 460/460 432/432 431/431
f 432/432 460/460 461/461
f 461/461 411/411 432/432
f 411/411 461/461 446/446
f 446/446 433/433 411/411
f 433/433 446/446 462/462
f 462/462 412/412 433/433
f 412/412 462/462 463/463
f 463/463 413/413 412/412
f 413/413 463/463 464/464
f 464/464 414/414 413/413
f 414/414 464/464 465/465
f 465/465 415/415 414/414
f 415/415 465/465 466/466
f 466/466 416/416 415/415
f 416/416 466/466 467/467
f 467/467 417/417 416/416
f 417/417 467/467 468/468
f 474/474 418/418 437/437
f 418/418 474/474 475/475
f 475/475 419/419 418/418
f 419/419 475/475 447/447
f 476/476 420/420 447/447
f 420/420 476/476 477/477
f 477/477 421/421 420/420
f 421/421 477/477 478/478
f 402/402 448/448 493/493
f 493/493 403/403 402/402
f 403/403 493/493 483/483
f 1/1 450/450 440/440
f 440/440 450/450 451/451
f 451/451 441/441 440/440
f 441/441 451/451 452/452
f 453/453 442/442 452/452
f 442/442 453/453 454/454
f 454/454 443/443 442/442
f 443/443 454/454 455/455
f 455/455 444/444 443/443
f 444/444 455/455 456/456
f 456/456 445/445 444/444
f 445/445 456/456 457/457
f 458/458 430/430 457/457
f 430/430 458/458 459/459
f 490/490 446/446 461/461
f 446/446 490/490 462/462
f 470/470 434/434 469/469
f 434/434 470/470 471/471
f 471/471 435/435 434/434
f 435/435 471/471 472/472
f 472/472 436/436 435/435
f 436/436 472/472 473/473
f 473/473 437/437 436/436
f 437/437 473/473 474/474
f 491/491 438/438 478/478
f 438/438 491/491 479/479
f 482/482 448/448 481/481
f 448/448 482/482 616/616
f 448/448 616/616 493/493
f 511/511 439/439 449/449
f 439/439 511/511 52/52
f 1/1 484/484 450/450
f 450/450 484/484 485/485
f 485/485 451/451 450/450
f 451/451 485/485 496/496
f 496/496 452/452 451/451
f 452/452 496/496 486/486
f 486/486 453/453 452/452
f 453/453 486/486 487/487
f 487/487 454/454 453/453
f 454/454 487/487 488/488
f 488/488 455/455 454/454
f 455/455 488/488 489/489
f 489/489 456/456 455/455
f 456/456 489/489 501/501
f 501/501 457/457 456/456
f 457/457 501/501 458/458
f 503/503 459/459 458/458
f 459/459 503/503 504/504
f 504/504 460/460 459/459
f 460/460 504/504 461/461
f 628/628 629/629 482/482
f 492/492 628/628 482/482
f 481/481 492/492 482/482
f 529/529 449/449 483/483
f 449/449 529/529 511/511
f 1/1 494/494 484/484
f 484/484 494/494 495/495
f 495/495 485/485 484/484
f 485/485 495/495 496/496
f 497/497 486/486 496/496
f 486/486 497/497 498/498
f 498/498 487/487 486/486
f 487/487 498/498 499/499
f 499/499 488/488 487/487
f 488/488 499/499 500/500
f 500/500 489/489 488/488
f 489/489 500/500 501/501
f 502/502 458/458 501/501
f 458/458 502/502 503/503
f 518/518 461/461 504/504
f 461/461 518/518 505/505
f 505/505 490/490 461/461
f 490/490 505/505 519/519
f 519/519 462/462 490/490
f 462/462 519/519 520/520
f 520/520 463/463 462/462
f 463/463 520/520 521/521
f 521/521 464/464 463/463
f 464/464 521/521 522/522
f 522/522 465/465 464/464
f 465/465 522/522 523/523
f 523/523 466/466 465/465
f 466/466 523/523 524/524
f 524/524 467/467 466/466
f 467/467 524/524 542/542
f 542/542 468/468 467/467
f 468/468 542/542 543/543
f 543/543 469/469 468/468
f 469/469 543/543 506/506
f 506/506 470/470 469/469
f 470/470 506/506 507/507
f 507/507 471/471 470/470
f 471/471 507/507 508/508
f 508/508 472/472 471/471
f 472/472 508/508 509/509
f 509/509 473/473 472/472
f 473/473 509/509 525/525
f 525/525 474/474 473/473
f 474/474 525/525 526/526
f 526/526 475/475 474/474
f 475/475 526/526 548/548
f 548/548 447/447 475/475
f 447/447 548/548 527/527
f 527/527 476/476 447/447
f 476/476 527/527 528/528
f 528/528 477/477 476/476
f 477/477 528/528 549/549
f 549/549 478/478 477/477
f 478/478 549/549 491/491
f 551/551 479/479 491/491
f 479/479 551/551 552/552
f 552/552 480/480 479/479
f 480/480 552/552 553/553
f 553/553 481/481 480/480
f 481/481 553/553 492/492
f 510/510 604/604 605/605
f 492/492 510/510 605/605
f 492/492 605/605 628/628
f 617/617 618/618 493/493
f 554/554 483/483 493/493
f 483/483 554/554 529/529
f 1/1 512/512 494/494
f 494/494 512/512 513/513
f 513/513 495/495 494/494
f 495/495 513/513 532/532
f 532/532 496/496 495/495
f 496/496 532/532 514/514
f 514/514 497/497 496/496
f 497/497 514/514 515/515
f 515/515 498/498 497/497
f 498/498 515/515 516/516
f 516/516 499/499 498/498
f 499/499 516/516 517/517
f 517/517 500/500 499/499
f 500/500 517/517 537/537
f 537/537 501/501 500/500
f 501/501 537/537 502/502
f 539/539 503/503 502/502
f 503/503 539/539 540/540
f 540/540 504/504 503/503
f 504/504 540/540 518/518
f 541/541 505/505 518/518
f 505/505 541/541 519/519
f 550/550 491/491 549/549
f 491/491 550/550 551/551
f 492/492 553/553 510/510
f 510/510 606/606 607/607
f 619/619 620/620 493/493
f 493/493 618/618 619/619
f 493/493 620/620 554/554
f 1/1 530/530 512/512
f 512/512 530/530 531/531
f 531/531 513/513 512/512
f 513/513 531/531 532/532
f 533/533 514/514 532/532
f 514/514 533/533 534/534
f 534/534 515/515 514/514
f 515/515 534/534 535/535
f 535/535 516/516 515/515
f 516/516 535/535 536/536
f 536/536 517/517 516/516
f 517/517 536/536 537/537
f 538/538 502/502 537/537
f 502/502 538/538 539/539
f 544/544 506/506 543/543
f 506/506 544/544 545/545
f 545/545 507/507 506/506
f 507/507 545/545 546/546
f 546/546 508/508 507/507
f 508/508 546/546 547/547
f 547/547 509/509 508/508
f 509/509 547/547 525/525
f 561/561 510/510 553/553
f 595/595 511/511 529/529
f 511/511 595/595 52/52
f 1/1 555/555 530/530
f 530/530 555/555 556/556
f 556/556 531/531 530/530
f 531/531 556/556 564/564
f 564/564 532/532 531/531
f 532/532 564/564 557/557
f 557/557 533/533 532/532
f 533/533 557/557 558/558
f 558/558 534/534 533/533
f 534/534 558/558 559/559
f 559/559 535/535 534/534
f 535/535 559/559 560/560
f 560/560 536/536 535/535
f 536/536 560/560 569/569
f 569/569 537/537 536/536
f 537/537 569/569 538/538
f 571/571 539/539 538/538
f 539/539 571/571 572/572
f 572/572 540/540 539/539
f 540/540 572/572 573/573
f 573/573 518/518 540/540
f 518/518 573/573 541/541
f 575/575 519/519 541/541
f 519/519 575/575 576/576
f 576/576 520/520 519/519
f 520/520 576/576 577/577
f 577/577 521/521 520/520
f 521/521 577/577 578/578
f 578/578 522/522 521/521
f 522/522 578/578 579/579
f 579/579 523/523 522/522
f 523/523 579/579 580/580
f 580/580 524/524 523/523
f 524/524 580/580 542/542
f 586/586 525/525 547/547
f 525/525 586/586 587/587
f 587/587 526/526 525/525
f 526/526 587/587 548/548
f 589/589 527/527 548/548
f 527/527 589/589 590/590
f 590/590 528/528 527/527
f 528/528 590/590 549/549
f 620/620 624/624 554/554
f 594/594 529/529 554/554
f 529/529 594/594 595/595
f 1/1 562/562 555/555
f 555/555 562/562 563/563
f 563/563 556/556 555/555
f 556/556 563/563 564/564
f 565/565 557/557 564/564
f 557/557 565/565 566/566
f 566/566 558/558 557/557
f 558/558 566/566 567/567
f 567/567 559/559 558/558
f 559/559 567/567 568/568
f 568/568 560/560 559/559
f 560/560 568/568 569/569
f 570/570 538/538 569/569
f 538/538 570/570 571/571
f 574/574 541/541 573/573
f 541/541 574/574 575/575
f 581/581 542/542 580/580
f 582/582 544/544 543/543
f 544/544 582/582 583/583
f 583/583 545/545 544/544
f 545/545 583/583 584/584
f 584/584 546/546 545/545
f 546/546 584/584 585/585
f 585/585 547/547 546/546
f 547/547 585/585 586/586
f 588/588 548/548 587/587
f 548/548 588/588 589/589
f 37/37 549/549 590/590
f 549/549 37/37 591/591
f 591/591 550/550 549/549
f 550/550 591/591 592/592
f 592/592 551/551 550/550
f 551/551 592/592 593/593
f 593/593 552/552 551/551
f 552/552 593/593 40/40
f 40/40 553/553 552/552
f 553/553 40/40 561/561
f 561/561 609/609 610/610
f 624/624 621/621 554/554
f 1/1 2/2 562/562
f 562/562 2/2 3/3
f 3/3 563/563 562/562
f 563/563 3/3 10/10
f 10/10 564/564 563/563
f 564/564 10/10 4/4
f 4/4 565/565 564/564
f 565/565 4/4 5/5
f 5/5 566/566 565/565
f 566/566 5/5 6/6
f 6/6 567/567 566/566
f 567/567 6/6 7/7
f 7/7 568/568 567/567
f 568/568 7/7 15/15
f 15/15 569/569 568/568
f 15/15 570/570 569/569
f 570/570 15/15 16/16
f 570/570 16/16 17/17
f 17/17 571/571 570/570
f 571/571 17/17 18/18
f 18/18 572/572 571/571
f 572/572 18/18 19/19
f 19/19 573/573 572/572
f 573/573 19/19 20/20
f 20/20 574/574 573/573
f 574/574 20/20 21/21
f 21/21 575/575 574/574
f 575/575 21/21 22/22
f 22/22 576/576 575/575
f 576/576 22/22 23/23
f 23/23 577/577 576/576
f 577/577 23/23 24/24
f 24/24 578/578 577/577
f 578/578 24/24 25/25
f 25/25 579/579 578/578
f 579/579 25/25 26/26
f 26/26 580/580 579/579
f 580/580 26/26 27/27
f 27/27 581/581 580/580
f 27/27 542/542 581/581
f 542/542 27/27 28/28
f 28/28 543/543 542/542
f 543/543 28/28 29/29
f 29/29 582/582 543/543
f 582/582 29/29 583/583
f 31/31 584/584 583/583
f 584/584 31/31 585/585
f 33/33 586/586 585/585
f 586/586 33/33 34/34
f 34/34 587/587 586/586
f 587/587 34/34 50/50
f 50/50 588/588 587/587
f 588/588 50/50 35/35
f 35/35 589/589 588/588
f 589/589 35/35 36/36
f 36/36 590/590 589/589
f 590/590 36/36 37/37
f 51/51 591/591 37/37
f 591/591 51/51 38/38
f 38/38 592/592 591/591
f 592/592 38/38 39/39
f 39/39 593/593 592/592
f 593/593 39/39 40/40
f 561/561 40/40 41/41
f 561/561 41/41 597/597
f 597/597 609/609 561/561
f 621/621 622/622 42/42
f 42/42 554/554 621/621
f 554/554 42/42 43/43
f 43/43 594/594 554/554
f 594/594 43/43 52/52
f 52/52 595/595 594/594
f 598/598 41/41 599/599
f 601/601 599/599 86/86
f 600/600 111/111 603/603
f 604/604 510/510 607/607
f 606/606 510/510 561/561
f 561/561 608/608 606/606
f 608/608 561/561 610/610
f 617/617 493/493 616/616
f 616/616 482/482 629/629
f 630/630 631/631 632/632
f 633/633 634/634 635/635
f 636/636 637/637 638/638
f 639/639 640/640 641/641
f 642/642 643/643 644/644
f 645/645 646/646 647/647
f 648/648 649/649 650/650
f 651/651 652/652 653/653
f 654/654 655/655 656/656
f 657/657 658/658 659/659
f 660/660 661/661 662/662
f 663/663 664/664 665/665
f 666/666 667/667 668/668
f 669/669 670/670 671/671
f 672/672 673/673 674/674
f 675/675 676/676 677/677
f 678/678 679/679 680/680
f 681/681 682/682 683/683
f 684/684 685/685 686/686
f 687/687 688/688 689/689
f 690/690 691/691 692/692
f 693/693 694/694 695/695
f 696/696 697/697 698/698
f 699/699 700/700 701/701
f 702/702 703/703 704/704
f 705/705 706/706 707/707
f 708/708 709/709 710/710
f 711/711 712/712 713/713
f 714/714 715/715 716/716
f 717/717 718/718 719/719
f 720/720 721/721 722/722
f 723/723 724/724 725/725
f 726/726 727/727 728/728
f 729/729 730/730 731/731
f 732/732 733/733 734/734
f 735/735 736/736 737/737
# 1258 faces

g
