# Max2Obj Version 4.0 Mar 10th, 2001
#
mtllib ./Tower3.mtl
g
# object Wt_KRook to come ...
#
v  0.017646 17.855350 -0.125303
v  2.525067 17.853310 -0.516950
v  2.231288 17.853756 -1.309767
v  0.912126 17.855736 -2.385470
v  0.043139 17.857029 -2.540815
v  -1.595295 17.859455 -1.993830
v  -2.170494 17.860302 -1.356354
v  -2.489773 17.860752 0.266338
v  -2.195991 17.860300 1.059161
v  -0.876829 17.858322 2.134865
v  -0.007845 17.857031 2.290206
v  1.630589 17.854603 1.743224
v  2.205791 17.853758 1.105741
v  1.814206 17.983166 -0.408042
v  1.605165 17.983486 -0.972192
v  1.117824 18.028589 -1.344312
v  0.656691 17.984907 -1.745615
v  0.038351 17.985828 -1.856152
v  -0.543871 18.031063 -1.641364
v  -1.139675 17.987572 -1.462874
v  -1.548971 17.988174 -1.009267
v  -1.643792 18.032679 -0.422356
v  -1.778533 17.988497 0.157443
v  -1.569485 17.988174 0.721587
v  -1.082012 18.031818 1.093709
v  -0.621011 17.986755 1.495016
v  -0.002674 17.985836 1.605550
v  0.579683 18.029343 1.390761
v  1.175355 17.984089 1.212269
v  1.584648 17.983490 0.758662
v  2.423628 18.738693 -0.412949
v  2.036262 18.728905 -0.371970
v  1.805401 18.729229 0.801378
v  2.150859 18.739079 0.973356
v  2.083894 18.739214 -1.329782
v  0.956900 18.740902 -2.248780
v  0.800919 18.730764 -1.909413
v  1.754787 18.729336 -1.131582
v  -0.048005 18.742401 -2.428427
v  -1.447763 18.744474 -1.961120
v  -1.216394 18.733761 -1.662729
v  -0.031658 18.732002 -2.058249
v  -2.112934 18.745453 -1.223930
v  -2.385696 18.745834 0.162372
v  -1.998364 18.734894 0.121396
v  -1.767503 18.734570 -1.051955
v  -2.045965 18.745316 1.079205
v  -0.918971 18.743626 1.998206
v  -0.763021 18.733032 1.658832
v  -1.716892 18.734463 0.881008
v  0.085930 18.742126 2.177846
v  1.485689 18.740055 1.710542
v  1.254292 18.730038 1.412154
v  0.069556 18.731792 1.807674
v  4.015598 1.511302 0.252872
v  3.777956 1.922189 0.230464
v  4.088085 3.136221 0.259490
v  2.234537 18.969490 -0.289991
v  2.187696 17.908916 -0.652956
v  2.057918 17.909115 -1.003197
v  1.855419 18.970072 -1.313112
v  0.974740 18.971386 -2.031255
v  0.619878 17.911270 -2.175835
v  0.235994 17.911844 -2.244462
v  -0.146659 18.973061 -2.231723
v  -1.240490 18.974682 -1.866555
v  -1.550094 17.914488 -1.648182
v  -1.804193 17.914864 -1.366570
v  -1.982773 18.975771 -1.043903
v  -2.195922 18.976070 0.039417
v  -2.152239 17.915352 0.402348
v  -2.022457 17.915152 0.752593
v  -1.816808 18.975491 1.062536
v  -0.936126 18.974171 1.780681
v  -0.584421 17.912996 1.925231
v  -0.200537 17.912426 1.993855
v  0.185273 18.972500 1.981150
v  1.279101 18.970881 1.615976
v  1.585549 17.909779 1.397578
v  1.839654 17.909407 1.115966
v  2.021388 18.969788 0.793326
v  2.592608 18.447964 -0.313591
v  1.713678 18.430595 0.650715
v  2.346104 18.448309 0.939248
v  2.150040 18.448639 -1.507941
v  1.131551 18.450167 -2.338464
v  0.828654 18.431950 -1.737696
v  1.571523 18.430836 -1.131924
v  -0.177531 18.452116 -2.572482
v  -1.442531 18.453987 -2.150170
v  -1.046313 18.434738 -1.599903
v  -0.123650 18.433369 -1.907933
v  -2.309045 18.455261 -1.189835
v  -2.555546 18.455610 0.063004
v  -1.856466 18.435913 0.012493
v  -1.676672 18.435663 -0.901299
v  -2.112981 18.454931 1.257354
v  -1.094486 18.453407 2.087877
v  -0.791647 18.434307 1.487102
v  -1.534517 18.435417 0.881337
v  0.214593 18.451454 2.321895
v  1.479593 18.449581 1.899577
v  1.083323 18.431524 1.349319
v  0.160660 18.432888 1.657342
v  3.579939 1.071493 -0.384729
v  3.451493 0.793724 -0.666817
v  3.952318 1.284759 -0.411606
v  3.970573 1.759410 -0.412867
v  3.980472 1.511371 -0.749410
v  3.679776 2.119058 -0.391816
v  3.744908 1.922253 -0.712447
v  4.095048 2.849704 -0.421726
v  4.052348 3.136291 -0.760248
v  3.016772 4.741467 -0.343592
v  2.707316 6.717618 -0.320991
v  2.315172 7.376763 -0.292579
v  2.502024 6.918915 -0.516737
v  2.195373 9.429605 -0.283676
v  2.635456 16.993874 -0.096911
v  1.119449 17.880432 -0.113350
v  3.077660 0.524871 -0.875923
v  3.839154 1.284937 -1.060797
v  3.856907 1.759590 -1.064942
v  3.805161 1.511642 -1.398126
v  3.579988 1.922508 -1.322739
v  3.977870 2.849888 -1.093939
v  3.873987 3.136566 -1.420264
v  2.299144 15.882525 -0.887984
v  2.448854 17.684601 -0.716545
v  3.268996 1.071974 -1.535359
v  3.046815 0.794343 -1.758918
v  3.609123 1.285289 -1.681576
v  3.625862 1.759944 -1.688472
v  3.514035 1.512084 -2.008175
v  3.360317 2.119553 -1.573967
v  3.306101 1.922925 -1.896657
v  3.739686 2.850253 -1.736732
v  3.577788 3.137016 -2.040944
v  2.398340 6.269069 -1.157311
v  2.472741 6.717980 -1.189028
v  2.114672 7.377073 -1.034524
v  2.209483 6.919363 -1.306202
v  1.811832 10.683167 -0.902045
v  1.681982 15.165012 -1.017453
v  2.368303 16.254473 -1.137835
v  2.303436 17.684826 -1.108989
v  3.269219 1.285803 -2.255074
v  3.284449 1.760460 -2.264511
v  3.115935 1.512685 -2.561022
v  2.931584 1.923490 -2.416758
v  3.387725 2.850785 -2.330564
v  3.172751 3.137627 -2.603424
v  1.435897 14.545304 -1.050406
v  1.886087 15.883150 -1.584910
v  2.562881 1.073040 -2.515948
v  2.273718 0.795506 -2.654016
v  2.829773 1.286466 -2.763870
v  2.843052 1.761124 -2.775560
v  2.622954 1.513425 -3.039871
v  2.634856 2.120646 -2.581418
v  2.467804 1.924185 -2.867237
v  2.932696 2.851470 -2.857402
v  2.671180 3.138381 -3.090617
v  2.160935 4.742768 -2.136981
v  1.881536 6.269849 -1.874999
v  1.940045 6.718783 -1.928787
v  1.659362 7.377759 -1.666822
v  1.650616 6.920205 -1.953262
v  1.574390 9.430550 -1.584924
v  1.861172 16.255238 -1.842092
v  0.734584 17.881018 -0.919824
v  1.846104 0.526729 -2.586196
v  2.304135 1.287253 -3.192503
v  2.315084 1.761916 -3.206092
v  2.050074 1.514283 -3.430171
v  1.928859 1.924992 -3.234420
v  2.388414 2.852286 -3.301233
v  2.088324 3.139253 -3.487712
v  1.546767 1.074562 -3.208220
v  1.225444 0.797074 -3.244142
v  1.708272 1.288144 -3.527941
v  1.716578 1.762811 -3.543016
v  1.414705 1.515232 -3.720060
v  1.590902 2.122210 -3.292658
v  1.331121 1.925885 -3.507138
v  1.771421 2.853209 -3.648571
v  1.441883 3.140218 -3.782655
v  1.305881 4.744048 -2.719521
v  1.137846 6.270963 -2.381674
v  1.173484 6.719931 -2.451038
v  1.004155 7.378742 -2.113208
v  0.892830 6.921338 -2.379860
v  0.863091 10.684591 -1.823587
v  0.687179 15.166504 -1.828662
v  0.866533 15.884677 -2.279525
v  1.060287 1.289111 -3.760007
v  1.065726 1.763783 -3.776109
v  0.736147 1.516243 -3.900732
v  0.692759 1.926837 -3.677112
v  1.100462 2.854210 -3.888859
v  0.751502 3.141248 -3.966474
v  0.476347 14.546740 -1.704146
v  0.709753 16.256960 -2.490288
v  0.692108 17.687243 -2.422937
v  0.343208 1.076354 -3.528676
v  0.028433 0.798857 -3.458124
v  0.379877 1.290124 -3.881637
v  0.382301 1.764800 -3.898284
v  0.035020 1.517287 -3.966698
v  0.354368 2.124053 -3.621901
v  0.033163 1.927819 -3.739171
v  0.395927 2.855260 -4.014808
v  0.038158 3.142310 -4.033590
v  0.293107 4.745559 -2.989185
v  0.256961 6.272275 -2.616219
v  0.265517 6.721284 -2.692795
v  0.228084 7.379898 -2.319843
v  0.027520 6.922626 -2.534551
v  0.261965 17.687881 -2.499832
v  -0.253057 0.529858 -3.145114
v  -0.312284 1.291153 -3.889150
v  -0.312932 1.765834 -3.905824
v  -0.667375 1.518330 -3.915957
v  -0.627624 1.928800 -3.691426
v  -0.320782 2.856325 -4.022584
v  -0.676470 3.143371 -3.981962
v  -0.181363 17.823452 -2.585526
v  -0.902623 1.078205 -3.438673
v  -1.172931 0.800640 -3.270154
v  -0.995165 1.292166 -3.782297
v  -0.998843 1.766851 -3.798501
v  -1.349692 1.519341 -3.750042
v  -0.925600 2.125954 -3.529427
v  -1.269525 1.929752 -3.535347
v  -1.027886 2.857374 -3.911945
v  -1.370668 3.144399 -3.813156
v  -0.755248 4.747116 -2.913445
v  -0.654859 6.273630 -2.550344
v  -0.674342 6.722681 -2.624893
v  -0.575247 7.381091 -2.261805
v  -0.840935 6.923915 -2.398667
v  -0.486230 10.686600 -1.950541
v  -0.622776 15.168452 -1.842872
v  -0.627753 16.258949 -2.504797
v  -0.348470 17.882631 -1.113437
v  -1.648031 1.293134 -3.564340
v  -1.654600 1.767822 -3.579579
v  -1.991199 1.520291 -3.473999
v  -1.873038 1.930644 -3.275651
v  -1.703899 2.858376 -3.686260
v  -2.023361 3.145366 -3.532304
v  -0.700139 14.548488 -1.619151
v  -2.040467 1.079889 -2.949058
v  -2.233757 0.802207 -2.702900
v  -2.251026 1.294025 -3.241901
v  -2.260267 1.768718 -3.255708
v  -2.572410 1.521149 -3.096219
v  -2.094615 2.127684 -3.026402
v  -2.419817 1.931451 -2.920250
v  -2.328280 2.859299 -3.352389
v  -2.614693 3.146239 -3.147941
v  -1.712728 4.748532 -2.501440
v  -1.487647 6.274862 -2.191994
v  -1.532732 6.723951 -2.255529
v  -1.308941 7.382177 -1.946094
v  -1.607802 6.925048 -1.988605
v  -1.522955 15.888225 -1.905654
v  -2.237603 0.532795 -2.291164
v  -2.785841 1.294813 -2.824770
v  -2.797455 1.769509 -2.836736
v  -3.075661 1.521890 -2.628175
v  -2.893259 1.932149 -2.479929
v  -2.882058 2.860115 -2.920461
v  -3.126709 3.146992 -2.671744
v  -1.440655 15.169661 -1.311252
v  -1.792957 16.260670 -1.881730
v  -1.739352 17.690845 -1.831698
v  -1.972607 17.000750 -1.747214
v  -2.933083 1.081203 -2.118890
v  -3.026086 0.803371 -1.824783
v  -3.236222 1.295475 -2.325627
v  -3.249832 1.770175 -2.335377
v  -3.485658 1.522490 -2.084092
v  -3.011686 2.129034 -2.173486
v  -3.278971 1.932714 -1.968073
v  -3.348406 2.860800 -2.403622
v  -3.543850 3.147604 -2.118183
v  -2.463855 4.749637 -1.802863
v  -2.140947 6.275823 -1.584397
v  -2.206124 6.724942 -1.629249
v  -1.884510 7.383024 -1.410791
v  -2.180565 6.925890 -1.353819
v  -1.604771 10.688251 -1.223497
v  -2.070266 15.889029 -1.299088
v  -2.024074 17.691263 -1.516148
v  -3.588484 1.295990 -1.759642
v  -3.603652 1.770692 -1.766875
v  -3.789950 1.522933 -1.480495
v  -3.565241 1.933130 -1.400231
v  -3.713161 2.861333 -1.817561
v  -3.853442 3.148054 -1.504071
v  -1.543067 14.549728 -0.835193
v  -2.315246 16.261436 -1.188635
v  -2.323293 17.826614 -1.193991
v  -3.472798 1.081987 -1.048295
v  -3.454356 0.803990 -0.741719
v  -3.831922 1.296341 -1.143993
v  -3.848169 1.771045 -1.148506
v  -3.979282 1.523204 -0.835736
v  -3.566191 2.129840 -1.073563
v  -3.743359 1.933385 -0.793660
v  -3.965230 2.861697 -1.180088
v  -4.046080 3.148330 -0.848078
v  -2.918020 4.750298 -0.901975
v  -2.535969 6.276399 -0.800831
v  -2.613292 6.725534 -0.821588
v  -2.232534 7.383530 -0.720458
v  -2.490160 6.926337 -0.570881
v  -1.868862 15.170283 -0.461876
v  -1.065371 17.883684 -0.318916
v  -3.178948 0.534164 -0.423912
v  -3.959140 1.296520 -0.497412
v  -3.975952 1.771224 -0.499056
v  -4.047916 1.523295 -0.169397
v  -3.807927 1.933471 -0.166794
v  -4.096960 2.861883 -0.510572
v  -4.115905 3.148423 -0.170131
v  -2.556435 16.261780 -0.367293
v  -2.407230 15.889509 -0.151603
v  -2.602714 17.001659 -0.153726
v  -3.594532 1.082150 0.133592
v  -3.466912 0.803990 0.415668
v  -3.966272 1.296520 0.160477
v  -3.983119 1.771224 0.161746
v  -3.993754 1.523204 0.498278
v  -3.691254 2.130007 0.140707
v  -3.756970 1.933386 0.461335
v  -4.104348 2.861882 0.170643
v  -4.060797 3.148330 0.509174
v  -3.020456 4.750434 0.092567
v  -2.625060 6.276517 0.064193
v  -2.705127 6.725657 0.070027
v  -2.311025 7.383635 0.041639
v  -2.499235 6.926337 0.265782
v  -1.969152 10.688772 0.017347
v  -3.853111 1.296342 0.809668
v  -3.869452 1.771045 0.813818
v  -3.818444 1.522933 1.146998
v  -3.592047 1.933130 1.071620
v  -3.987170 2.861698 0.842856
v  -3.882435 3.148055 1.169191
v  -1.658019 14.549883 0.280906
v  -1.792641 15.170155 0.477674
v  -2.487442 16.261665 0.483235
v  -2.269706 15.889294 0.637311
v  -2.414060 17.691813 0.465931
v  -2.454000 17.001427 0.699403
v  -3.283585 1.081669 1.284219
v  -3.062231 0.803372 1.507769
v  -3.623079 1.295989 1.430443
v  -3.638401 1.770691 1.437348
v  -3.527314 1.522490 1.757040
v  -3.371791 2.129513 1.322861
v  -3.318167 1.932714 1.645535
v  -3.748983 2.861333 1.485644
v  -3.586233 3.147604 1.789870
v  -2.758799 4.750030 1.060805
v  -2.397483 6.276165 0.906332
v  -2.470548 6.725294 0.938067
v  -2.110525 7.383325 0.783581
v  -2.206693 6.925890 1.055254
v  -1.973263 15.615163 0.729914
v  -2.268641 17.691589 0.858375
v  -2.636620 0.533326 1.582934
v  -3.283173 1.295475 2.003941
v  -3.296994 1.770175 2.013384
v  -3.129214 1.521890 2.309890
v  -2.943643 1.932149 2.165639
v  -3.397026 2.860799 2.079478
v  -3.181196 3.146993 2.352348
v  -2.116584 16.261101 1.260362
v  -1.856650 15.888669 1.334237
v  -2.124335 17.826283 1.266229
v  -2.577473 1.080604 2.264805
v  -2.289133 0.802207 2.402861
v  -2.843727 1.294815 2.512738
v  -2.855597 1.769510 2.524436
v  -2.636233 1.521150 2.788743
v  -2.646328 2.128418 2.330312
v  -2.479863 1.931453 2.616122
v  -2.941997 2.860116 2.606319
v  -2.679632 3.146240 2.839541
v  -2.164613 4.749134 1.885960
v  -1.880678 6.275386 1.624023
v  -1.937850 6.724491 1.677826
v  -1.655212 7.382638 1.415876
v  -1.647826 6.925049 1.702307
v  -1.408874 10.687921 1.191397
v  -0.699216 17.883121 0.669222
v  -2.318089 1.294026 2.941367
v  -2.327627 1.768718 2.954968
v  -2.063356 1.520292 3.179040
v  -1.940918 1.930647 2.983301
v  -2.397714 2.859299 3.050144
v  -2.096772 3.145367 3.236639
v  -0.991209 14.548876 1.206909
v  -1.255979 15.614084 1.560384
v  -1.488591 16.260159 1.870351
v  -1.217881 15.887711 1.855127
v  -1.316555 16.999714 2.016340
v  -1.561359 1.079082 2.957074
v  -1.240856 0.800641 2.992993
v  -1.722226 1.293135 3.276811
v  -1.729123 1.767823 3.291893
v  -1.427981 1.519343 3.468931
v  -1.602373 2.126855 3.041552
v  -1.343183 1.929753 3.256017
v  -1.780725 2.858377 3.397482
v  -1.450331 3.144401 3.531578
v  -1.309565 4.747853 2.468499
v  -1.136991 6.274272 2.130698
v  -1.171295 6.723342 2.200080
v  -1.000005 7.381657 1.862262
v  -0.890044 6.923916 2.128905
v  -0.864382 0.530672 2.790348
v  -1.074244 1.292168 3.508874
v  -1.078272 1.766853 3.524988
v  -0.749427 1.518331 3.649600
v  -0.704818 1.928802 3.425990
v  -1.109762 2.857377 3.637779
v  -0.759950 3.143372 3.715395
v  -0.679213 16.258949 2.239634
v  -0.430441 15.886536 2.137134
v  -0.657313 17.689171 2.172323
v  -0.465018 16.998446 2.321301
v  -0.357804 1.077288 3.277539
v  -0.043852 0.798859 3.206972
v  -0.393837 1.291155 3.630504
v  -0.394846 1.765835 3.647160
v  -0.048303 1.517288 3.715566
v  -0.365846 2.125012 3.370788
v  -0.045222 1.927821 3.488052
v  -0.405231 2.856327 3.763722
v  -0.046610 3.142311 3.782514
v  -0.296788 4.746344 2.738160
v  -0.256107 6.272959 2.365243
v  -0.263325 6.721989 2.441834
v  -0.223937 7.380501 2.068894
v  -0.024733 6.922627 2.283593
v  -0.186098 10.686094 1.749290
v  -0.006094 15.167480 1.694841
v  -0.227170 17.688534 2.249217
v  0.298331 1.290126 3.638017
v  0.300389 1.764801 3.654704
v  0.654096 1.516244 3.664819
v  0.615568 1.926839 3.440314
v  0.311479 2.855261 3.771495
v  0.668018 3.141249 3.730886
v  0.213937 16.257622 2.323665
v  0.410699 15.885285 2.146257
v  0.216559 17.822786 2.334917
v  0.888038 1.075438 3.187530
v  1.157519 0.797074 3.019002
v  0.981212 1.289113 3.531164
v  0.986301 1.763784 3.547380
v  1.336413 1.515233 3.498910
v  0.914122 2.123111 3.278318
v  1.257466 1.925887 3.284229
v  1.018586 2.854212 3.660860
v  1.362226 3.140220 3.562080
v  0.751567 4.744786 2.662417
v  0.655717 6.271605 2.299368
v  0.676535 6.720593 2.373935
v  0.579397 7.379307 2.010862
v  0.843729 6.921339 2.147709
v  0.383838 17.881512 0.862832
v  1.308516 0.527444 2.633362
v  1.634075 1.288146 3.313207
v  1.642058 1.762812 3.328459
v  1.977920 1.514284 3.222864
v  1.860976 1.924995 3.024539
v  1.694595 2.853210 3.435181
v  2.014909 3.139254 3.281230
v  1.083118 16.256330 2.112315
v  1.204067 15.884110 1.881392
v  1.302530 16.995819 2.044743
v  2.025878 1.073754 2.697918
v  2.218338 0.795506 2.451748
v  2.237073 1.287254 2.990765
v  2.247728 1.761917 3.004591
v  2.559127 1.513426 2.845084
v  2.083137 2.121381 2.775289
v  2.407761 1.924188 2.669132
v  2.318977 2.852287 3.101300
v  2.606244 3.138381 2.896868
v  1.709047 4.743370 2.250418
v  1.488505 6.270372 1.941018
v  1.534925 6.719323 2.004565
v  1.313092 7.378221 1.695154
v  1.610585 6.920206 1.737647
v  1.127024 10.684148 1.429988
v  1.229485 15.165649 1.282345
v  2.771883 1.286467 2.573640
v  2.784909 1.761125 2.585609
v  3.062378 1.512686 2.377043
v  2.881199 1.923489 2.228811
v  2.872754 2.851471 2.669382
v  3.118261 3.137628 2.420671
v  1.823503 16.255238 1.631070
v  1.853987 15.883150 1.374485
v  1.774147 17.685570 1.581086
v  2.005350 16.994785 1.496578
v  2.918490 1.072440 1.867744
v  3.010671 0.794343 1.573628
v  3.222265 1.285804 2.074494
v  3.237287 1.760460 2.084256
v  3.472375 1.512084 1.832960
v  3.000208 2.120031 1.922374
v  3.266912 1.922925 1.716955
v  3.339106 2.850786 2.152531
v  3.535402 3.137017 1.867104
v  2.460174 4.742265 1.551838
v  2.141804 6.269411 1.333415
v  2.208320 6.718332 1.378285
v  1.888660 7.377375 1.159842
v  2.183355 6.919364 1.102864
v  2.058869 17.685150 1.265537
v  2.865349 0.525153 1.185441
v  3.574527 1.285289 1.508507
v  3.591106 1.759943 1.515754
v  3.776667 1.511642 1.229366
v  3.553179 1.922508 1.149116
v  3.703857 2.850253 1.566472
v  3.844996 3.136566 1.253001
v  2.345786 16.254473 0.937977
v  2.282065 15.882525 0.686679
v  2.358489 17.819622 0.943384
v  3.458209 1.071655 0.797152
v  3.438941 0.793725 0.490561
v  3.817965 1.284938 0.892863
v  3.835627 1.759591 0.897385
v  3.554716 2.119225 0.822453
v  3.955926 2.849889 0.929002
v  2.914340 4.741603 0.650950
v  2.536824 6.268836 0.549852
v  2.615484 6.717739 0.570626
v  2.236681 7.376868 0.469511
v  2.492947 6.918916 0.319926
v  1.916067 10.682991 0.382895
v  1.896157 15.164676 0.211178
v  3.945183 1.284759 0.246279
v  3.963410 1.759410 0.247932
v  3.673138 2.119059 0.220576
v  4.087656 2.849704 0.259486
v  1.729538 14.544849 0.036170
v  2.586978 16.254128 0.116635
v  1.780475 17.898378 -0.553939
v  2.222156 18.041443 -0.517998
v  1.995826 18.041792 -1.128790
v  0.760138 18.043644 -2.136427
v  0.090666 18.044641 -2.256104
v  -1.444091 18.046913 -1.743735
v  -1.887232 18.047565 -1.252611
v  -2.186301 18.047985 0.267392
v  -1.959970 18.047642 0.878193
v  -0.724286 18.045786 1.885824
v  -0.054811 18.044788 2.005504
v  1.479943 18.042515 1.493132
v  1.923084 18.041866 1.002008
v  2.498838 18.843512 -0.308516
v  2.225355 18.836926 -0.428901
v  1.974483 18.830299 -0.270634
v  1.907582 18.830387 0.378963
v  1.786352 18.830563 0.685539
v  1.960010 18.837297 0.919704
v  2.260672 18.843845 0.901942
v  2.494340 18.843512 0.106222
v  2.492736 18.445782 -0.461141
v  1.866888 18.430374 0.205134
v  2.196928 18.446201 1.042280
v  2.556160 18.448008 0.328349
v  2.073710 18.844166 -1.455816
v  1.465305 18.845078 -2.046782
v  1.089666 18.845638 -2.258250
v  0.843490 18.839005 -2.093453
v  0.862495 18.831978 -1.807668
v  1.159219 18.831533 -1.640627
v  1.639818 18.830811 -1.173805
v  1.939838 18.837364 -1.199445
v  2.169469 18.446276 -1.333535
v  1.698254 18.449318 -1.986881
v  0.947268 18.448109 -2.330175
v  1.241994 18.431332 -1.481257
v  -0.167847 18.847511 -2.483048
v  -1.009915 18.848759 -2.278288
v  -1.390052 18.849321 -2.075019
v  -1.362761 18.842279 -1.789836
v  -1.092895 18.834881 -1.662322
v  -0.792611 18.834438 -1.822891
v  -0.127438 18.833450 -1.984637
v  -0.001066 18.840263 -2.244430
v  -0.008929 18.449535 -2.501112
v  -0.839376 18.453098 -2.440521
v  -1.526939 18.451778 -1.994324
v  -0.606386 18.434084 -1.811685
v  -2.222431 18.850546 -1.152516
v  -2.456103 18.850880 -0.356796
v  -2.460604 18.850878 0.057942
v  -2.187142 18.843473 0.178333
v  -1.936284 18.836105 0.020062
v  -1.932734 18.836109 -0.307551
v  -1.748153 18.835844 -0.936116
v  -1.921797 18.843102 -1.170272
v  -2.159870 18.452711 -1.292870
v  -2.519095 18.455563 -0.578936
v  -2.455681 18.453125 0.210554
v  -1.829878 18.435881 -0.455722
v  -2.035467 18.850229 1.205245
v  -1.427064 18.849314 1.796211
v  -1.051425 18.848755 2.007673
v  -0.805270 18.841394 1.842878
v  -0.824296 18.834431 1.557090
v  -1.121024 18.834873 1.390052
v  -1.601622 18.835594 0.923233
v  -1.901618 18.843037 0.948868
v  -2.132414 18.452633 1.082945
v  -1.661186 18.454254 1.736292
v  -0.910210 18.450802 2.079585
v  -1.204988 18.434925 1.230666
v  0.206088 18.846878 2.232477
v  1.048156 18.845633 2.027717
v  1.428289 18.845074 1.824445
v  1.400978 18.838120 1.539261
v  1.131091 18.831526 1.411750
v  0.830810 18.831968 1.572316
v  0.165637 18.832956 1.734062
v  0.039286 18.840137 1.993859
v  0.045985 18.449375 2.250521
v  0.876438 18.450474 2.189937
v  1.563997 18.447128 1.743741
v  0.643396 18.432171 1.561094
# 641 vertices

vt  0.999814 0.500000 1.267409
vt  0.942923 0.458305 1.353800
vt  0.949313 0.379700 1.334792
vt  0.979263 0.274041 1.278507
vt  0.999830 0.259515 1.267671
vt  0.037884 0.315735 1.304450
vt  0.050366 0.379815 1.333907
vt  0.056750 0.541694 1.352762
vt  0.050351 0.620300 1.333866
vt  0.020371 0.725959 1.278125
vt  0.999797 0.740484 1.267672
vt  0.961765 0.684265 1.305153
vt  0.949298 0.620184 1.334834
vt  0.958822 0.469914 1.332154
vt  0.963560 0.413980 1.322322
vt  0.974754 0.377463 1.311215
vt  0.985329 0.338012 1.293305
vt  0.999776 0.327676 1.287815
vt  0.013237 0.349687 1.299244
vt  0.026965 0.368098 1.306521
vt  0.036054 0.413695 1.321578
vt  0.037818 0.472223 1.332184
vt  0.040836 0.530086 1.331398
vt  0.036092 0.586019 1.321652
vt  0.024891 0.622536 1.310750
vt  0.014308 0.661988 1.293035
vt  0.999857 0.672323 1.287814
vt  0.986401 0.650313 1.299494
vt  0.972679 0.631901 1.307024
vt  0.963598 0.586304 1.322248
vt  0.950096 0.468768 1.478184
vt  0.957658 0.473265 1.455702
vt  0.962044 0.590318 1.445398
vt  0.955141 0.607065 1.463876
vt  0.956964 0.377866 1.459132
vt  0.980336 0.287600 1.416911
vt  0.983537 0.321551 1.412037
vt  0.963497 0.397952 1.442258
vt  0.001801 0.270801 1.406201
vt  0.031266 0.318832 1.433687
vt  0.026434 0.348286 1.424087
vt  0.001367 0.307634 1.404541
vt  0.044549 0.392935 1.463053
vt  0.049600 0.531232 1.477271
vt  0.042028 0.526735 1.454924
vt  0.037638 0.409682 1.444700
vt  0.042724 0.622133 1.458342
vt  0.019333 0.712400 1.416549
vt  0.016130 0.678448 1.411734
vt  0.036184 0.602048 1.441586
vt  0.997863 0.729198 1.406238
vt  0.968411 0.681168 1.434269
vt  0.973239 0.651714 1.424581
vt  0.998297 0.692366 1.404570
vt  0.585172 0.533330 1.496961
vt  0.584490 0.531356 1.418732
vt  0.602567 0.533910 1.292840
vt  0.954862 0.481212 1.502170
vt  0.950413 0.445131 1.340843
vt  0.953285 0.410405 1.333311
vt  0.962472 0.379773 1.483203
vt  0.980414 0.309234 1.453149
vt  0.986165 0.295225 1.281125
vt  0.995208 0.288808 1.276867
vt  0.003779 0.290489 1.442567
vt  0.026298 0.328021 1.462074
vt  0.036546 0.350094 1.310691
vt  0.042115 0.378402 1.322313
vt  0.040928 0.410716 1.491197
vt  0.044836 0.518787 1.501343
vt  0.049252 0.554869 1.339936
vt  0.046376 0.589595 1.332455
vt  0.037218 0.620226 1.482513
vt  0.019263 0.690765 1.452789
vt  0.013467 0.704775 1.280871
vt  0.004422 0.711192 1.276781
vt  0.995894 0.709510 1.442641
vt  0.973384 0.671977 1.462565
vt  0.963104 0.649906 1.311370
vt  0.957541 0.621597 1.323093
vt  0.958765 0.589283 1.491954
vt  0.945174 0.478476 1.445614
vt  0.962734 0.575419 1.395856
vt  0.949787 0.603459 1.431330
vt  0.954280 0.360060 1.418824
vt  0.975908 0.278483 1.376423
vt  0.982317 0.338615 1.366190
vt  0.966140 0.398116 1.389084
vt  0.004752 0.256601 1.361290
vt  0.032205 0.300007 1.389023
vt  0.023625 0.354356 1.372864
vt  0.003408 0.322697 1.358077
vt  0.049899 0.396541 1.430413
vt  0.054519 0.521523 1.444615
vt  0.040486 0.515740 1.402913
vt  0.036937 0.424581 1.395171
vt  0.045401 0.639940 1.417987
vt  0.023753 0.721516 1.375979
vt  0.017340 0.661384 1.365864
vt  0.033528 0.601884 1.388460
vt  0.994901 0.743399 1.361382
vt  0.967462 0.699992 1.389623
vt  0.976035 0.645644 1.373306
vt  0.996245 0.677303 1.358143
vt  0.573933 0.470329 1.517349
vt  0.569643 0.442386 1.545661
vt  0.582085 0.467251 1.520967
vt  0.586396 0.467106 1.458561
vt  0.584373 0.433593 1.492541
vt  0.584306 0.469515 1.382123
vt  0.583695 0.437527 1.414604
vt  0.599343 0.466089 1.328933
vt  0.601691 0.432437 1.287539
vt  0.600473 0.475032 0.969628
vt  0.631353 0.477616 0.698447
vt  0.638350 0.480867 0.574523
vt  0.630477 0.458351 0.648255
vt  0.731032 0.481883 0.418598
vt  0.934204 0.500000 1.237546
vt  0.973951 0.500000 1.288810
vt  0.561226 0.421974 1.555873
vt  0.579999 0.402748 1.509878
vt  0.584244 0.402316 1.446891
vt  0.581162 0.369205 1.475394
vt  0.580500 0.376952 1.398591
vt  0.597030 0.399299 1.315307
vt  0.598151 0.366927 1.266917
vt  0.932635 0.421614 1.052271
vt  0.943473 0.438518 1.323897
vt  0.568090 0.356122 1.490935
vt  0.562135 0.334108 1.513945
vt  0.575802 0.341200 1.488812
vt  0.579904 0.340495 1.424697
vt  0.575759 0.308790 1.448725
vt  0.577914 0.352180 1.351441
vt  0.575127 0.320116 1.373692
vt  0.592334 0.335568 1.289305
vt  0.592121 0.305459 1.234649
vt  0.610537 0.394696 0.707998
vt  0.623857 0.391458 0.665260
vt  0.630910 0.407225 0.544973
vt  0.620290 0.380078 0.607847
vt  0.814383 0.420740 0.371405
vt  0.943277 0.409392 0.903856
vt  0.934431 0.396667 1.110512
vt  0.946689 0.399609 1.314316
vt  0.569454 0.284477 1.459943
vt  0.573319 0.283521 1.394231
vt  0.568112 0.254186 1.415317
vt  0.567528 0.268746 1.342511
vt  0.585129 0.276834 1.253412
vt  0.583435 0.249903 1.193867
vt  0.945216 0.406377 0.796826
vt  0.943944 0.352683 1.022157
vt  0.554433 0.259270 1.439959
vt  0.547221 0.245838 1.463994
vt  0.560936 0.234302 1.426396
vt  0.564440 0.233124 1.358746
vt  0.558206 0.207050 1.378863
vt  0.562739 0.252675 1.291782
vt  0.557691 0.224403 1.308499
vt  0.575267 0.224880 1.211294
vt  0.571922 0.201946 1.148862
vt  0.576253 0.297429 0.882066
vt  0.591788 0.323810 0.648961
vt  0.604411 0.318392 0.597886
vt  0.611315 0.344773 0.484545
vt  0.597244 0.316269 0.540052
vt  0.723438 0.353018 0.299610
vt  0.947658 0.327108 1.075217
vt  0.983102 0.420133 1.278787
vt  0.537613 0.253051 1.483393
vt  0.550285 0.192200 1.392023
vt  0.553280 0.190836 1.322291
vt  0.546115 0.168815 1.343683
vt  0.545695 0.188433 1.275690
vt  0.562645 0.181285 1.167635
vt  0.557503 0.163046 1.104873
vt  0.533434 0.191453 1.387050
vt  0.525742 0.188224 1.418542
vt  0.537663 0.159452 1.361051
vt  0.539980 0.157942 1.289352
vt  0.532074 0.140644 1.314273
vt  0.538857 0.183000 1.229160
vt  0.531777 0.161930 1.248270
vt  0.547312 0.147375 1.127813
vt  0.540327 0.134383 1.067629
vt  0.548023 0.240362 0.819786
vt  0.559166 0.274175 0.583879
vt  0.568793 0.267232 0.521760
vt  0.574354 0.301044 0.415284
vt  0.556996 0.274620 0.472305
vt  0.867820 0.330028 0.216724
vt  0.976600 0.329712 0.856294
vt  0.973982 0.284637 0.972375
vt  0.523405 0.137050 1.337556
vt  0.524881 0.135441 1.264304
vt  0.516539 0.123391 1.294658
vt  0.516388 0.145698 1.229987
vt  0.529598 0.124179 1.097267
vt  0.520915 0.116830 1.042529
vt  0.981837 0.342335 0.754995
vt  0.980077 0.263825 1.025619
vt  0.984097 0.270549 1.247491
vt  0.507132 0.160852 1.357921
vt  0.500169 0.168215 1.400029
vt  0.508050 0.125676 1.324813
vt  0.508565 0.124017 1.250695
vt  0.500183 0.117581 1.287675
vt  0.508326 0.151560 1.194342
vt  0.500193 0.140233 1.223472
vt  0.510215 0.112402 1.080572
vt  0.500228 0.110919 1.033540
vt  0.510440 0.214611 0.784436
vt  0.513111 0.251778 0.545847
vt  0.515488 0.244146 0.476027
vt  0.516997 0.281312 0.372908
vt  0.500534 0.260155 0.442345
vt  0.994503 0.263358 1.242009
vt  0.494367 0.199678 1.443065
vt  0.492306 0.125676 1.324667
vt  0.491812 0.124017 1.250539
vt  0.483824 0.123390 1.294354
vt  0.483994 0.145699 1.229685
vt  0.490221 0.112402 1.080386
vt  0.479534 0.116830 1.042144
vt  0.005195 0.255306 1.263040
vt  0.479611 0.171157 1.367766
vt  0.474587 0.188224 1.418067
vt  0.476945 0.137050 1.337124
vt  0.475488 0.135441 1.263845
vt  0.468278 0.140644 1.313682
vt  0.476217 0.162147 1.206150
vt  0.468594 0.161929 1.247685
vt  0.470825 0.124179 1.096723
vt  0.460102 0.134383 1.066888
vt  0.470492 0.223283 0.796397
vt  0.463360 0.259320 0.558737
vt  0.456922 0.251920 0.491675
vt  0.453253 0.287957 0.387373
vt  0.443943 0.274620 0.471273
vt  0.092175 0.318847 0.174663
vt  0.022854 0.329712 0.855865
vt  0.019466 0.263825 1.025253
vt  0.008732 0.402029 1.273503
vt  0.462675 0.159452 1.360358
vt  0.460375 0.157942 1.288618
vt  0.454222 0.168815 1.342839
vt  0.454660 0.188433 1.274853
vt  0.453089 0.147375 1.126948
vt  0.442897 0.163046 1.103828
vt  0.028646 0.352066 0.762399
vt  0.455548 0.221125 1.411245
vt  0.453088 0.245838 1.463129
vt  0.450037 0.192201 1.391103
vt  0.447057 0.190836 1.321319
vt  0.442114 0.207050 1.377805
vt  0.448529 0.213484 1.257918
vt  0.442647 0.224402 1.307450
vt  0.437729 0.181285 1.166501
vt  0.428449 0.201947 1.147569
vt  0.436993 0.265330 0.848365
vt  0.423343 0.295892 0.613831
vt  0.411815 0.289616 0.557130
vt  0.405483 0.320177 0.447383
vt  0.403474 0.316268 0.538356
vt  0.047196 0.324434 1.003198
vt  0.454403 0.286829 1.503440
vt  0.439372 0.234302 1.425290
vt  0.435879 0.233124 1.357580
vt  0.432191 0.254186 1.414089
vt  0.432793 0.268746 1.341292
vt  0.425081 0.224880 1.209945
vt  0.416908 0.249904 1.192384
vt  0.050158 0.383516 0.890935
vt  0.051925 0.327107 1.074262
vt  0.041889 0.332030 1.285538
vt  0.051267 0.340692 1.194741
vt  0.438065 0.304730 1.466179
vt  0.438154 0.334108 1.512818
vt  0.430839 0.284477 1.458692
vt  0.426985 0.283521 1.392915
vt  0.424531 0.308790 1.447368
vt  0.428878 0.299380 1.322581
vt  0.425180 0.320116 1.372346
vt  0.415196 0.276834 1.251902
vt  0.408199 0.305459 1.233028
vt  0.414258 0.335683 0.911913
vt  0.397821 0.357082 0.679237
vt  0.384699 0.352687 0.632662
vt  0.377756 0.374087 0.515519
vt  0.380277 0.380078 0.605815
vt  0.179025 0.392429 0.338916
vt  0.062227 0.385407 1.037723
vt  0.048181 0.363750 1.300403
vt  0.424480 0.341199 1.487454
vt  0.420387 0.340496 1.423271
vt  0.419118 0.369205 1.473948
vt  0.419796 0.376953 1.397156
vt  0.407973 0.335568 1.287680
vt  0.402154 0.366927 1.265203
vt  0.059523 0.431017 0.805783
vt  0.065179 0.396667 1.109327
vt  0.053792 0.396142 1.338069
vt  0.428294 0.411887 1.506934
vt  0.430634 0.442386 1.544406
vt  0.420275 0.402748 1.508451
vt  0.416038 0.402317 1.445395
vt  0.415900 0.433594 1.491043
vt  0.418114 0.409473 1.370083
vt  0.416594 0.437527 1.413117
vt  0.403265 0.399299 1.313610
vt  0.398603 0.432437 1.285772
vt  0.402252 0.425854 0.957782
vt  0.384954 0.435510 0.725405
vt  0.371565 0.433527 0.684958
vt  0.364620 0.443183 0.562204
vt  0.370022 0.458351 0.646089
vt  0.063233 0.468532 0.918610
vt  0.025301 0.481896 1.287825
vt  0.437331 0.473725 1.561672
vt  0.418185 0.467251 1.519506
vt  0.413882 0.467106 1.457031
vt  0.414833 0.500000 1.496935
vt  0.415532 0.500000 1.418619
vt  0.400946 0.466090 1.327201
vt  0.397433 0.500000 1.292839
vt  0.070872 0.478690 1.127551
vt  0.070735 0.500000 1.062644
vt  0.065446 0.500000 1.236357
vt  0.426346 0.529672 1.516022
vt  0.430634 0.557614 1.544406
vt  0.418185 0.532750 1.519506
vt  0.413882 0.532894 1.457031
vt  0.415900 0.566406 1.491043
vt  0.415989 0.530485 1.380626
vt  0.416594 0.562473 1.413117
vt  0.400946 0.533911 1.327201
vt  0.398603 0.567564 1.285772
vt  0.399921 0.524968 0.967880
vt  0.382506 0.521717 0.735470
vt  0.369107 0.522384 0.696270
vt  0.362182 0.519133 0.572260
vt  0.370022 0.541649 0.646089
vt  0.190435 0.516345 0.399855
vt  0.420275 0.597253 1.508451
vt  0.416038 0.597683 1.445395
vt  0.419118 0.630795 1.473947
vt  0.419796 0.623047 1.397156
vt  0.403265 0.600701 1.313610
vt  0.402154 0.633074 1.265203
vt  0.063070 0.542246 0.813096
vt  0.060603 0.561979 0.912407
vt  0.068975 0.563283 1.121255
vt  0.066955 0.578385 1.051056
vt  0.056192 0.561481 1.322868
vt  0.061885 0.584766 1.224715
vt  0.432198 0.643878 1.489706
vt  0.438154 0.665893 1.512818
vt  0.424480 0.658801 1.487454
vt  0.420387 0.659505 1.423271
vt  0.424531 0.691209 1.447368
vt  0.422395 0.647820 1.350048
vt  0.425180 0.679883 1.372346
vt  0.407973 0.664432 1.287680
vt  0.408200 0.694541 1.233028
vt  0.406986 0.621071 0.938512
vt  0.389977 0.605304 0.706103
vt  0.376650 0.608542 0.663180
vt  0.369682 0.592774 0.542803
vt  0.380277 0.619922 0.605815
vt  0.061491 0.587284 0.989550
vt  0.052972 0.600391 1.313343
vt  0.447633 0.672916 1.523909
vt  0.430839 0.715524 1.458691
vt  0.426985 0.716479 1.392914
vt  0.432191 0.745814 1.414088
vt  0.432793 0.731254 1.341292
vt  0.415196 0.723166 1.251902
vt  0.416908 0.750097 1.192384
vt  0.059485 0.640243 1.093056
vt  0.055622 0.647317 1.021138
vt  0.048951 0.640836 1.324524
vt  0.445876 0.740730 1.438967
vt  0.453088 0.754162 1.463129
vt  0.439372 0.765699 1.425289
vt  0.435879 0.766876 1.357580
vt  0.442114 0.792950 1.377804
vt  0.437599 0.747325 1.290645
vt  0.442647 0.775597 1.307450
vt  0.425081 0.775120 1.209945
vt  0.428448 0.798054 1.147569
vt  0.424222 0.702571 0.880702
vt  0.408824 0.676190 0.647348
vt  0.396217 0.681608 0.596080
vt  0.389433 0.655226 0.482640
vt  0.403474 0.683731 0.538355
vt  0.169452 0.632614 0.301545
vt  0.016530 0.579867 1.278476
vt  0.450037 0.807800 1.391103
vt  0.447057 0.809164 1.321319
vt  0.454222 0.831185 1.342839
vt  0.454660 0.811567 1.274852
vt  0.437729 0.818714 1.166500
vt  0.442897 0.836954 1.103828
vt  0.038638 0.633707 0.772744
vt  0.040015 0.669180 0.946363
vt  0.042590 0.700288 1.055149
vt  0.037087 0.698480 0.986061
vt  0.034067 0.714635 1.159759
vt  0.466899 0.808547 1.386434
vt  0.474587 0.811776 1.418067
vt  0.462675 0.840549 1.360358
vt  0.460375 0.842058 1.288618
vt  0.468278 0.859356 1.313681
vt  0.461516 0.817000 1.228446
vt  0.468594 0.838070 1.247685
vt  0.453089 0.852625 1.126947
vt  0.460102 0.865617 1.066888
vt  0.452527 0.759638 0.818909
vt  0.441589 0.725825 0.582808
vt  0.432031 0.732769 0.520524
vt  0.426665 0.698955 0.413956
vt  0.443943 0.725380 0.471274
vt  0.483007 0.791197 1.450420
vt  0.476945 0.862951 1.337124
vt  0.475488 0.864559 1.263845
vt  0.483824 0.876609 1.294354
vt  0.483994 0.854301 1.229685
vt  0.470825 0.875821 1.096722
vt  0.479534 0.883170 1.042144
vt  0.019466 0.736175 1.025252
vt  0.012929 0.725703 0.962585
vt  0.015527 0.729451 1.247199
vt  0.011857 0.744073 1.136445
vt  0.493216 0.839148 1.357791
vt  0.500169 0.831785 1.400028
vt  0.492306 0.874324 1.324667
vt  0.491812 0.875983 1.250539
vt  0.500183 0.882419 1.287675
vt  0.492069 0.848440 1.194190
vt  0.500193 0.859767 1.223472
vt  0.490221 0.887598 1.080386
vt  0.500228 0.889081 1.033540
vt  0.490161 0.785389 0.784247
vt  0.487751 0.748222 0.545611
vt  0.485500 0.755854 0.475748
vt  0.484263 0.718687 0.372603
vt  0.500534 0.739844 0.442344
vt  0.033475 0.686830 0.149474
vt  0.999721 0.681216 0.847058
vt  0.005117 0.736641 1.241911
vt  0.508050 0.874325 1.324813
vt  0.508565 0.875983 1.250695
vt  0.516539 0.876609 1.294658
vt  0.516388 0.854301 1.229986
vt  0.510215 0.887598 1.080572
vt  0.520915 0.883170 1.042529
vt  0.993106 0.743576 1.018549
vt  0.986582 0.725703 0.962830
vt  0.994432 0.744693 1.263140
vt  0.520731 0.828843 1.368148
vt  0.525742 0.811776 1.418542
vt  0.523405 0.862950 1.337555
vt  0.524881 0.864559 1.264304
vt  0.532074 0.859356 1.314272
vt  0.524170 0.837853 1.206595
vt  0.531777 0.838071 1.248270
vt  0.529598 0.875821 1.097267
vt  0.540327 0.865617 1.067628
vt  0.530090 0.776717 0.796949
vt  0.537462 0.740680 0.559421
vt  0.544002 0.748080 0.492477
vt  0.547911 0.712043 0.388242
vt  0.556996 0.725380 0.472306
vt  0.990898 0.597971 1.273669
vt  0.527992 0.773223 1.464758
vt  0.537663 0.840549 1.361050
vt  0.539980 0.842058 1.289352
vt  0.546115 0.831184 1.343684
vt  0.545695 0.811567 1.275689
vt  0.547312 0.852625 1.127813
vt  0.557503 0.836954 1.104873
vt  0.967888 0.721598 1.038664
vt  0.962448 0.698480 0.986750
vt  0.965535 0.714635 1.160393
vt  0.544774 0.778875 1.412066
vt  0.547221 0.754162 1.463994
vt  0.550285 0.807799 1.392022
vt  0.553280 0.809164 1.322291
vt  0.558206 0.792949 1.378863
vt  0.551826 0.786516 1.258864
vt  0.557691 0.775597 1.308499
vt  0.562645 0.818714 1.167635
vt  0.571922 0.798054 1.148862
vt  0.563520 0.734670 0.849514
vt  0.577337 0.704108 0.615211
vt  0.588904 0.710384 0.558697
vt  0.595389 0.679823 0.449050
vt  0.597244 0.683731 0.540052
vt  0.844477 0.653627 0.261333
vt  0.957025 0.638819 0.878903
vt  0.560936 0.765698 1.426395
vt  0.564440 0.766876 1.358746
vt  0.568113 0.745814 1.415317
vt  0.567528 0.731254 1.342511
vt  0.575267 0.775120 1.211293
vt  0.583435 0.750097 1.193867
vt  0.947658 0.672892 1.075217
vt  0.943944 0.647317 1.022157
vt  0.957756 0.667970 1.286314
vt  0.948358 0.659307 1.195684
vt  0.562232 0.695270 1.467307
vt  0.562135 0.665892 1.513945
vt  0.569454 0.715523 1.459943
vt  0.573319 0.716479 1.394231
vt  0.575759 0.691209 1.448725
vt  0.571443 0.700620 1.323865
vt  0.575127 0.679883 1.373692
vt  0.585129 0.723166 1.253412
vt  0.592121 0.694540 1.234649
vt  0.586186 0.664317 0.913439
vt  0.602735 0.642918 0.681018
vt  0.615859 0.647313 0.634633
vt  0.622901 0.625912 0.517585
vt  0.620290 0.619922 0.607847
vt  0.951472 0.636250 1.301291
vt  0.557788 0.627406 1.542743
vt  0.575802 0.658801 1.488812
vt  0.579904 0.659504 1.424697
vt  0.581162 0.630795 1.475394
vt  0.580500 0.623047 1.398591
vt  0.592334 0.664431 1.289304
vt  0.598151 0.633074 1.266917
vt  0.934431 0.603333 1.110512
vt  0.932635 0.578385 1.052271
vt  0.945875 0.603857 1.339056
vt  0.571988 0.588113 1.508229
vt  0.569643 0.557613 1.545661
vt  0.579999 0.597252 1.509878
vt  0.584244 0.597683 1.446891
vt  0.582186 0.590527 1.371546
vt  0.597030 0.600701 1.315306
vt  0.598151 0.574146 0.959495
vt  0.615533 0.564490 0.727371
vt  0.628910 0.566473 0.687104
vt  0.635932 0.556816 0.564437
vt  0.630477 0.541649 0.648254
vt  0.810810 0.548540 0.392061
vt  0.936293 0.531467 0.919762
vt  0.582085 0.532749 1.520967
vt  0.586396 0.532894 1.458561
vt  0.584306 0.530484 1.382123
vt  0.599342 0.533910 1.328933
vt  0.934624 0.514226 0.818141
vt  0.928751 0.521310 1.128832
vt  0.959189 0.455427 1.317627
vt  0.950404 0.458528 1.362651
vt  0.955352 0.397970 1.349787
vt  0.983153 0.298997 1.304323
vt  0.998666 0.287806 1.297068
vt  0.033663 0.340468 1.326586
vt  0.043244 0.389836 1.346418
vt  0.049266 0.541471 1.361744
vt  0.044311 0.602030 1.348969
vt  0.016487 0.701003 1.304013
vt  0.000970 0.712194 1.297046
vt  0.965989 0.659532 1.327212
vt  0.956418 0.610163 1.347218
vt  0.949177 0.479083 1.498266
vt  0.954443 0.467394 1.481714
vt  0.959314 0.483420 1.468040
vt  0.960504 0.548158 1.465217
vt  0.962862 0.578807 1.459897
vt  0.959375 0.601930 1.469023
vt  0.953509 0.599837 1.485447
vt  0.949177 0.520374 1.498266
vt  0.947159 0.463896 1.438898
vt  0.959635 0.530897 1.402636
vt  0.952755 0.613877 1.422538
vt  0.945753 0.542419 1.443739
vt  0.957667 0.365331 1.474368
vt  0.970016 0.307159 1.448143
vt  0.977803 0.286514 1.436468
vt  0.982885 0.303185 1.429685
vt  0.982409 0.331613 1.429053
vt  0.976186 0.347921 1.436382
vt  0.966224 0.393873 1.452927
vt  0.960233 0.390997 1.466983
vt  0.953834 0.377401 1.419624
vt  0.963735 0.312871 1.396787
vt  0.979901 0.279507 1.371238
vt  0.973267 0.363697 1.377146
vt  0.004333 0.265493 1.423048
vt  0.021974 0.286786 1.436188
vt  0.029765 0.307431 1.447765
vt  0.029165 0.335791 1.445631
vt  0.023592 0.348193 1.436082
vt  0.017367 0.331885 1.428831
vt  0.003368 0.315065 1.420650
vt  0.000748 0.289067 1.421442
vt  0.001005 0.263524 1.360346
vt  0.019277 0.270452 1.370725
vt  0.033967 0.315612 1.391897
vt  0.014056 0.332799 1.363078
vt  0.046186 0.400162 1.484595
vt  0.050524 0.479626 1.497337
vt  0.050524 0.520917 1.497337
vt  0.045251 0.532606 1.480879
vt  0.040374 0.516580 1.467292
vt  0.040374 0.483963 1.467293
vt  0.036823 0.421192 1.459214
vt  0.040314 0.398070 1.468278
vt  0.046928 0.386123 1.421672
vt  0.053939 0.457581 1.442749
vt  0.052530 0.536104 1.437934
vt  0.040039 0.469102 1.401895
vt  0.042023 0.634669 1.473591
vt  0.029663 0.692841 1.447590
vt  0.021871 0.713486 1.436059
vt  0.016786 0.696815 1.429370
vt  0.017263 0.668386 1.428729
vt  0.023489 0.652079 1.435943
vt  0.033458 0.606127 1.452305
vt  0.039455 0.609003 1.466252
vt  0.045847 0.622599 1.418778
vt  0.035935 0.687129 1.396120
vt  0.019757 0.720492 1.370868
vt  0.026394 0.636303 1.376653
vt  0.995335 0.734507 1.423132
vt  0.977700 0.713214 1.436600
vt  0.969915 0.692569 1.448320
vt  0.970514 0.664209 1.446175
vt  0.976083 0.651807 1.436523
vt  0.982305 0.668115 1.429157
vt  0.996300 0.684935 1.420717
vt  0.998919 0.710933 1.421460
vt  0.998648 0.736476 1.360368
vt  0.980382 0.729548 1.371087
vt  0.965702 0.684388 1.392529
vt  0.985599 0.667200 1.363343
vt  -0.132180 0.330028 0.216724
vt  -0.018163 0.342335 0.754995
vt  -0.132180 0.330028 0.216724
vt  -0.018163 0.342335 0.754995
vt  -0.018163 0.342335 0.754995
vt  -0.023400 0.329712 0.856294
vt  -0.023400 0.329712 0.856294
vt  -0.026018 0.284637 0.972375
vt  -0.026018 0.284637 0.972375
vt  -0.019923 0.263825 1.025619
vt  -0.018163 0.342335 0.754995
vt  -0.026018 0.284637 0.972375
vt  -0.019923 0.263825 1.025619
vt  -0.019923 0.263825 1.025619
vt  -0.000170 0.259515 1.267671
vt  -0.016898 0.420133 1.278787
vt  -0.000224 0.327676 1.287815
vt  -0.000224 0.327676 1.287815
vt  -0.000186 0.500000 1.267409
vt  -0.016898 0.420133 1.278787
vt  -0.000186 0.500000 1.267409
vt  -0.000186 0.500000 1.267409
vt  -0.000279 0.681216 0.847058
vt  -0.000279 0.681216 0.847058
vt  -0.000279 0.681216 0.847058
vt  -0.000203 0.740484 1.267672
vt  -0.000143 0.672323 1.287814
vt  -0.452089 0.712043 0.388242
vt  -0.155523 0.653627 0.261333
vt  -0.000279 0.681216 0.847058
vt  -0.000279 0.681216 0.847058
vt  -0.013418 0.725703 0.962830
vt  -0.013418 0.725703 0.962830
vt  -0.006894 0.743576 1.018549
vt  -0.006894 0.743576 1.018549
vt  -0.006894 0.743576 1.018549
vt  -0.006894 0.743576 1.018549
vt  -0.005568 0.744693 1.263140
vt  -0.005568 0.744693 1.263140
vt  -0.000203 0.740484 1.267672
vt  -0.009102 0.597971 1.273669
vt  -0.000143 0.672323 1.287814
vt  -0.000186 0.500000 1.267409
vt  -0.009102 0.597971 1.273669
vt  -0.452089 0.712043 0.388242
vt  -0.155523 0.653627 0.261333
vt  -0.000203 0.740484 1.267672
vt  -0.000203 0.740484 1.267672
vt  -0.000143 0.672323 1.287814
vt  -0.000143 0.672323 1.287814
vt  -0.000170 0.259515 1.267671
vt  -0.000170 0.259515 1.267671
vt  -0.000224 0.327676 1.287815
vt  -0.000224 0.327676 1.287815
vt  -0.000170 0.259515 1.267671
vt  -0.001334 0.287806 1.297068
vt  -0.001334 0.287806 1.297068
vt  -0.001334 0.287806 1.297068
vt  -0.000224 0.327676 1.287815
vt  -0.001334 0.287806 1.297068
vt  -0.001334 0.287806 1.297068
vt  -0.000203 0.740484 1.267672
vt  -0.001352 0.736476 1.360368
vt  -0.002137 0.729198 1.406238
vt  -0.001081 0.710933 1.421460
vt  -0.001352 0.736476 1.360368
vt  -0.002137 0.729198 1.406238
vt  -0.001703 0.692366 1.404570
vt  -0.000143 0.672323 1.287814
vt  -0.001081 0.710933 1.421460
vt  -0.001703 0.692366 1.404570
# 712 texture vertices

g Wt_KRook
usemtl 03_-_Default
f 107/107 109/109 55/55
f 55/55 109/109 108/108
f 108/108 111/111 56/56
f 56/56 111/111 110/110
f 115/115 117/117 548/548
f 548/548 117/117 116/116
f 555/555 144/144 550/550
f 550/550 128/128 556/556
f 556/556 145/145 119/119
f 119/119 145/145 2/2
f 528/528 121/121 106/106
f 121/121 131/131 106/106
f 106/106 131/131 130/130
f 106/106 130/130 105/105
f 130/130 122/122 105/105
f 105/105 122/122 107/107
f 107/107 122/122 109/109
f 122/122 124/124 109/109
f 109/109 124/124 123/123
f 109/109 123/123 108/108
f 108/108 123/123 111/111
f 123/123 125/125 111/111
f 111/111 125/125 135/135
f 111/111 135/135 110/110
f 135/135 126/126 110/110
f 110/110 126/126 112/112
f 112/112 126/126 113/113
f 126/126 127/127 113/113
f 113/113 164/164 114/114
f 114/114 164/164 115/115
f 116/116 141/141 118/118
f 118/118 143/143 555/555
f 555/555 153/153 144/144
f 144/144 128/128 550/550
f 128/128 145/145 556/556
f 145/145 129/129 2/2
f 14/14 557/557 120/120
f 557/557 1/1 120/120
f 122/122 130/130 132/132
f 122/122 132/132 124/124
f 132/132 134/134 124/124
f 124/124 134/134 133/133
f 124/124 133/133 123/123
f 123/123 133/133 125/125
f 133/133 136/136 125/125
f 125/125 136/136 135/135
f 126/126 135/135 137/137
f 126/126 137/137 127/127
f 137/137 138/138 127/127
f 127/127 164/164 113/113
f 164/164 139/139 115/115
f 139/139 140/140 115/115
f 115/115 140/140 117/117
f 140/140 142/142 117/117
f 117/117 142/142 141/141
f 117/117 141/141 116/116
f 141/141 169/169 118/118
f 169/169 143/143 118/118
f 555/555 143/143 153/153
f 3/3 146/146 145/145
f 145/145 146/146 129/129
f 121/121 156/156 131/131
f 131/131 156/156 155/155
f 131/131 155/155 130/130
f 155/155 147/147 130/130
f 130/130 147/147 132/132
f 132/132 147/147 134/134
f 147/147 149/149 134/134
f 134/134 149/149 148/148
f 134/134 148/148 133/133
f 133/133 148/148 136/136
f 148/148 150/150 136/136
f 136/136 150/150 160/160
f 136/136 160/160 135/135
f 160/160 151/151 135/135
f 135/135 151/151 137/137
f 137/137 151/151 138/138
f 151/151 152/152 138/138
f 127/127 138/138 164/164
f 138/138 152/152 164/164
f 139/139 165/165 140/140
f 141/141 167/167 169/169
f 143/143 193/193 153/153
f 144/144 154/154 128/128
f 128/128 154/154 145/145
f 145/145 170/170 85/85
f 145/145 85/85 3/3
f 171/171 1/1 15/15
f 171/171 15/15 16/16
f 147/147 155/155 157/157
f 147/147 157/157 149/149
f 157/157 159/159 149/149
f 149/149 159/159 158/158
f 149/149 158/158 148/148
f 148/148 158/158 150/150
f 158/158 161/161 150/150
f 150/150 161/161 160/160
f 151/151 160/160 162/162
f 151/151 162/162 152/152
f 162/162 163/163 152/152
f 164/164 165/165 139/139
f 165/165 166/166 140/140
f 140/140 166/166 142/142
f 166/166 168/168 142/142
f 142/142 168/168 167/167
f 142/142 167/167 141/141
f 169/169 193/193 143/143
f 193/193 202/202 153/153
f 153/153 194/194 144/144
f 144/144 194/194 154/154
f 154/154 170/170 145/145
f 170/170 591/591 85/85
f 121/121 172/172 156/156
f 172/172 180/180 156/156
f 156/156 180/180 179/179
f 156/156 179/179 155/155
f 179/179 173/173 155/155
f 155/155 173/173 157/157
f 157/157 173/173 159/159
f 173/173 175/175 159/159
f 159/159 175/175 174/174
f 159/159 174/174 158/158
f 158/158 174/174 161/161
f 174/174 176/176 161/161
f 161/161 176/176 184/184
f 161/161 184/184 160/160
f 184/184 177/177 160/160
f 160/160 177/177 162/162
f 162/162 177/177 163/163
f 177/177 178/178 163/163
f 152/152 163/163 164/164
f 163/163 178/178 164/164
f 164/164 188/188 165/165
f 165/165 189/189 166/166
f 167/167 191/191 169/169
f 153/153 202/202 194/194
f 154/154 195/195 170/170
f 170/170 203/203 591/591
f 173/173 179/179 181/181
f 173/173 181/181 175/175
f 181/181 183/183 175/175
f 175/175 183/183 182/182
f 175/175 182/182 174/174
f 174/174 182/182 176/176
f 182/182 185/185 176/176
f 176/176 185/185 184/184
f 177/177 184/184 186/186
f 177/177 186/186 178/178
f 186/186 187/187 178/178
f 178/178 188/188 164/164
f 188/188 189/189 165/165
f 189/189 190/190 166/166
f 166/166 190/190 168/168
f 190/190 192/192 168/168
f 168/168 192/192 191/191
f 168/168 191/191 167/167
f 191/191 193/193 169/169
f 154/154 194/194 195/195
f 195/195 203/203 170/170
f 16/16 17/17 171/171
f 172/172 206/206 180/180
f 180/180 206/206 205/205
f 180/180 205/205 179/179
f 205/205 196/196 179/179
f 179/179 196/196 181/181
f 181/181 196/196 183/183
f 196/196 198/198 183/183
f 183/183 198/198 197/197
f 183/183 197/197 182/182
f 182/182 197/197 185/185
f 197/197 199/199 185/185
f 185/185 199/199 210/210
f 185/185 210/210 184/184
f 210/210 200/200 184/184
f 184/184 200/200 186/186
f 186/186 200/200 187/187
f 200/200 201/201 187/187
f 178/178 187/187 188/188
f 187/187 201/201 188/188
f 188/188 214/214 189/189
f 189/189 215/215 190/190
f 191/191 217/217 193/193
f 193/642 242/242 202/643
f 203/203 204/204 4/4
f 196/196 205/205 207/207
f 196/196 207/207 198/198
f 207/207 209/209 198/198
f 198/198 209/209 208/208
f 198/198 208/208 197/197
f 197/197 208/208 199/199
f 208/208 211/211 199/199
f 199/199 211/211 210/210
f 200/200 210/210 212/212
f 200/200 212/212 201/201
f 212/212 213/213 201/201
f 201/201 214/214 188/188
f 214/214 215/215 189/189
f 215/215 216/216 190/190
f 190/190 216/216 192/192
f 216/216 218/218 192/192
f 192/192 218/218 217/217
f 192/192 217/217 191/191
f 217/217 242/242 193/644
f 242/242 252/252 202/645
f 202/646 243/243 194/647
f 194/648 243/243 195/649
f 195/650 244/244 203/651
f 5/5 219/219 203/203
f 203/203 219/219 204/204
f 17/17 18/18 171/171
f 121/121 220/220 172/172
f 172/172 220/220 206/206
f 220/220 229/229 206/206
f 206/206 229/229 228/228
f 206/206 228/228 205/205
f 228/228 221/221 205/205
f 205/205 221/221 207/207
f 207/207 221/221 209/209
f 221/221 223/223 209/209
f 209/209 223/223 222/222
f 209/209 222/222 208/208
f 208/208 222/222 211/211
f 222/222 224/224 211/211
f 211/211 224/224 233/233
f 211/211 233/233 210/210
f 233/233 225/225 210/210
f 210/210 225/225 212/212
f 212/212 225/225 213/213
f 225/225 226/226 213/213
f 201/201 213/213 214/214
f 213/213 226/226 214/214
f 214/214 237/237 215/215
f 215/215 238/238 216/216
f 217/217 240/240 242/242
f 202/652 252/252 243/243
f 243/243 244/244 195/653
f 244/244 227/227 203/654
f 203/655 227/227 5/656
f 245/245 171/657 18/658
f 245/245 18/659 19/19
f 1/660 171/661 245/245
f 221/221 228/228 230/230
f 221/221 230/230 223/223
f 230/230 232/232 223/223
f 223/223 232/232 231/231
f 223/223 231/231 222/222
f 222/222 231/231 224/224
f 231/231 234/234 224/224
f 224/224 234/234 233/233
f 225/225 233/233 235/235
f 225/225 235/235 226/226
f 235/235 236/236 226/226
f 226/226 237/237 214/214
f 237/237 238/238 215/215
f 238/238 239/239 216/216
f 216/216 239/239 218/218
f 239/239 241/241 218/218
f 218/218 241/241 240/240
f 218/218 240/240 217/217
f 220/220 254/254 229/229
f 229/229 254/254 253/253
f 229/229 253/253 228/228
f 253/253 246/246 228/228
f 228/228 246/246 230/230
f 230/230 246/246 232/232
f 246/246 248/248 232/232
f 232/232 248/248 247/247
f 232/232 247/247 231/231
f 231/231 247/247 234/234
f 247/247 249/249 234/234
f 234/234 249/249 258/258
f 234/234 258/258 233/233
f 258/258 250/250 233/233
f 233/233 250/250 235/235
f 235/235 250/250 236/236
f 250/250 251/251 236/236
f 226/226 236/236 237/237
f 236/236 251/251 237/237
f 237/237 262/262 238/238
f 238/238 263/263 239/239
f 240/240 265/265 242/242
f 242/242 293/293 252/252
f 244/244 276/276 227/227
f 246/246 253/253 255/255
f 246/246 255/255 248/248
f 255/255 257/257 248/248
f 248/248 257/257 256/256
f 248/248 256/256 247/247
f 247/247 256/256 249/249
f 256/256 259/259 249/249
f 249/249 259/259 258/258
f 250/250 258/258 260/260
f 250/250 260/260 251/251
f 260/260 261/261 251/251
f 251/251 262/262 237/237
f 262/262 263/263 238/238
f 263/263 264/264 239/239
f 239/239 264/264 241/241
f 264/264 266/266 241/241
f 241/241 266/266 265/265
f 241/241 265/265 240/240
f 265/265 293/293 242/242
f 293/293 302/302 252/252
f 252/252 275/275 243/243
f 243/243 275/275 267/267
f 243/243 267/267 244/244
f 267/267 276/276 244/244
f 276/276 278/278 6/6
f 19/19 20/20 245/245
f 121/121 268/268 220/220
f 220/220 268/268 254/254
f 268/268 280/280 254/254
f 254/254 280/280 279/279
f 254/254 279/279 253/253
f 279/279 269/269 253/253
f 253/253 269/269 255/255
f 255/255 269/269 257/257
f 269/269 271/271 257/257
f 257/257 271/271 270/270
f 257/257 270/270 256/256
f 256/256 270/270 259/259
f 270/270 272/272 259/259
f 259/259 272/272 284/284
f 259/259 284/284 258/258
f 284/284 273/273 258/258
f 258/258 273/273 260/260
f 260/260 273/273 261/261
f 273/273 274/274 261/261
f 251/251 261/261 262/262
f 261/261 274/274 262/262
f 262/262 288/288 263/263
f 263/263 289/289 264/264
f 265/265 291/291 293/293
f 252/252 302/302 275/275
f 278/278 277/277 6/6
f 269/269 279/279 281/281
f 269/269 281/281 271/271
f 281/281 283/283 271/271
f 271/271 283/283 282/282
f 271/271 282/282 270/270
f 270/270 282/282 272/272
f 282/282 285/285 272/272
f 272/272 285/285 284/284
f 273/273 284/284 286/286
f 273/273 286/286 274/274
f 286/286 287/287 274/274
f 274/274 288/288 262/262
f 288/288 289/289 263/263
f 289/289 290/290 264/264
f 264/264 290/290 266/266
f 290/290 292/292 266/266
f 266/266 292/292 291/291
f 266/266 291/291 265/265
f 275/275 294/294 267/267
f 267/267 294/294 276/276
f 7/7 295/295 278/278
f 278/278 295/295 277/277
f 20/20 21/21 245/245
f 268/268 306/306 280/280
f 280/280 306/306 305/305
f 280/280 305/305 279/279
f 305/305 296/296 279/279
f 279/279 296/296 281/281
f 281/281 296/296 283/283
f 296/296 298/298 283/283
f 283/283 298/298 297/297
f 283/283 297/297 282/282
f 282/282 297/297 285/285
f 297/297 299/299 285/285
f 285/285 299/299 310/310
f 285/285 310/310 284/284
f 310/310 300/300 284/284
f 284/284 300/300 286/286
f 286/286 300/300 287/287
f 300/300 301/301 287/287
f 274/274 287/287 288/288
f 287/287 301/301 288/288
f 288/288 314/314 289/289
f 289/289 315/315 290/290
f 291/291 317/317 293/293
f 293/293 345/345 302/302
f 302/302 319/319 275/275
f 275/275 319/319 294/294
f 294/294 303/303 276/276
f 276/276 303/303 278/278
f 278/278 303/303 304/304
f 278/278 304/304 7/7
f 320/320 245/245 21/21
f 320/320 21/21 22/22
f 1/662 245/245 320/320
f 296/296 305/305 307/307
f 296/296 307/307 298/298
f 307/307 309/309 298/298
f 298/298 309/309 308/308
f 298/298 308/308 297/297
f 297/297 308/308 299/299
f 308/308 311/311 299/299
f 299/299 311/311 310/310
f 300/300 310/310 312/312
f 300/300 312/312 301/301
f 312/312 313/313 301/301
f 301/301 314/314 288/288
f 314/314 315/315 289/289
f 315/315 316/316 290/290
f 290/290 316/316 292/292
f 316/316 318/318 292/292
f 292/292 318/318 317/317
f 292/292 317/317 291/291
f 317/317 345/345 293/293
f 345/345 352/352 302/302
f 294/294 329/329 303/303
f 303/303 328/328 304/304
f 121/121 321/321 268/268
f 268/268 321/321 306/306
f 321/321 332/332 306/306
f 306/306 332/332 331/331
f 306/306 331/331 305/305
f 331/331 322/322 305/305
f 305/305 322/322 307/307
f 307/307 322/322 309/309
f 322/322 324/324 309/309
f 309/309 324/324 323/323
f 309/309 323/323 308/308
f 308/308 323/323 311/311
f 323/323 325/325 311/311
f 311/311 325/325 336/336
f 311/311 336/336 310/310
f 336/336 326/326 310/310
f 310/310 326/326 312/312
f 312/312 326/326 313/313
f 326/326 327/327 313/313
f 301/301 313/313 314/314
f 313/313 327/327 314/314
f 314/314 340/340 315/315
f 315/315 341/341 316/316
f 317/317 343/343 345/345
f 302/302 352/352 319/319
f 319/319 329/329 294/294
f 329/329 328/328 303/303
f 328/328 330/330 304/304
f 322/322 331/331 333/333
f 322/322 333/333 324/324
f 333/333 335/335 324/324
f 324/324 335/335 334/334
f 324/324 334/334 323/323
f 323/323 334/334 325/325
f 334/334 337/337 325/325
f 325/325 337/337 336/336
f 326/326 336/336 338/338
f 326/326 338/338 327/327
f 338/338 339/339 327/327
f 327/327 340/340 314/314
f 340/340 341/341 315/315
f 341/341 342/342 316/316
f 316/316 342/342 318/318
f 342/342 344/344 318/318
f 318/318 344/344 343/343
f 318/318 343/343 317/317
f 352/352 353/353 319/319
f 319/319 353/353 329/329
f 328/328 357/357 330/330
f 330/330 357/357 8/8
f 22/22 23/23 320/320
f 321/321 359/359 332/332
f 332/332 359/359 358/358
f 332/332 358/358 331/331
f 358/358 346/346 331/331
f 331/331 346/346 333/333
f 333/333 346/346 335/335
f 346/346 348/348 335/335
f 335/335 348/348 347/347
f 335/335 347/347 334/334
f 334/334 347/347 337/337
f 347/347 349/349 337/337
f 337/337 349/349 363/363
f 337/337 363/363 336/336
f 363/363 350/350 336/336
f 336/336 350/350 338/338
f 338/338 350/350 339/339
f 350/350 351/351 339/339
f 327/327 339/339 340/340
f 339/339 351/351 340/340
f 340/340 367/367 341/341
f 341/341 368/368 342/342
f 343/343 370/370 345/345
f 345/345 398/398 352/352
f 329/329 355/355 354/354
f 329/329 354/354 328/328
f 328/328 354/354 357/357
f 357/357 356/356 8/8
f 346/346 358/358 360/360
f 346/346 360/360 348/348
f 360/360 362/362 348/348
f 348/348 362/362 361/361
f 348/348 361/361 347/347
f 347/347 361/361 349/349
f 361/361 364/364 349/349
f 349/349 364/364 363/363
f 350/350 363/363 365/365
f 350/350 365/365 351/351
f 365/365 366/366 351/351
f 351/351 367/367 340/340
f 367/367 368/368 341/341
f 368/368 369/369 342/342
f 342/342 369/369 344/344
f 369/369 371/371 344/344
f 344/344 371/371 370/370
f 344/344 370/370 343/343
f 370/370 398/398 345/345
f 398/398 406/406 352/352
f 353/353 372/372 329/329
f 329/329 372/372 355/355
f 9/9 373/373 357/357
f 357/357 373/373 356/356
f 23/23 24/24 320/320
f 121/121 374/374 321/321
f 321/321 374/374 359/359
f 374/374 385/385 359/359
f 359/359 385/385 384/384
f 359/359 384/384 358/358
f 384/384 375/375 358/358
f 358/358 375/375 360/360
f 360/360 375/375 362/362
f 375/375 377/377 362/362
f 362/362 377/377 376/376
f 362/362 376/376 361/361
f 361/361 376/376 364/364
f 376/376 378/378 364/364
f 364/364 378/378 389/389
f 364/364 389/389 363/363
f 389/389 379/379 363/363
f 363/363 379/379 365/365
f 365/365 379/379 366/366
f 379/379 380/380 366/366
f 351/351 366/366 367/367
f 366/366 380/380 367/367
f 367/367 393/393 368/368
f 368/368 394/394 369/369
f 370/370 396/396 398/398
f 352/352 406/406 353/353
f 406/406 407/407 353/353
f 353/353 407/407 372/372
f 372/372 382/382 355/355
f 355/355 382/382 381/381
f 355/355 381/381 354/354
f 354/354 381/381 357/357
f 357/357 381/381 383/383
f 357/357 383/383 9/9
f 399/399 320/320 24/24
f 399/399 24/24 25/25
f 1/663 320/320 399/399
f 375/375 384/384 386/386
f 375/375 386/386 377/377
f 386/386 388/388 377/377
f 377/377 388/388 387/387
f 377/377 387/387 376/376
f 376/376 387/387 378/378
f 387/387 390/390 378/378
f 378/378 390/390 389/389
f 379/379 389/389 391/391
f 379/379 391/391 380/380
f 391/391 392/392 380/380
f 380/380 393/393 367/367
f 393/393 394/394 368/368
f 394/394 395/395 369/369
f 369/369 395/395 371/371
f 395/395 397/397 371/371
f 371/371 397/397 396/396
f 371/371 396/396 370/370
f 372/372 407/407 382/382
f 381/381 408/408 383/383
f 374/374 412/412 385/385
f 385/385 412/412 411/411
f 385/385 411/411 384/384
f 411/411 400/400 384/384
f 384/384 400/400 386/386
f 386/386 400/400 388/388
f 400/400 402/402 388/388
f 388/388 402/402 401/401
f 388/388 401/401 387/387
f 387/387 401/401 390/390
f 401/401 403/403 390/390
f 390/390 403/403 416/416
f 390/390 416/416 389/389
f 416/416 404/404 389/389
f 389/389 404/404 391/391
f 391/391 404/404 392/392
f 404/404 405/405 392/392
f 380/380 392/392 393/393
f 392/392 405/405 393/393
f 393/393 420/420 394/394
f 394/394 421/421 395/395
f 396/396 423/423 398/398
f 398/398 450/450 406/406
f 407/407 409/409 382/382
f 382/382 409/409 408/408
f 382/382 408/408 381/381
f 408/408 410/410 383/383
f 400/400 411/411 413/413
f 400/400 413/413 402/402
f 413/413 415/415 402/402
f 402/402 415/415 414/414
f 402/402 414/414 401/401
f 401/401 414/414 403/403
f 414/414 417/417 403/403
f 403/403 417/417 416/416
f 404/404 416/416 418/418
f 404/404 418/418 405/405
f 418/418 419/419 405/405
f 405/405 420/420 393/393
f 420/420 421/421 394/394
f 421/421 422/422 395/395
f 395/395 422/422 397/397
f 422/422 424/424 397/397
f 397/397 424/424 423/423
f 397/397 423/423 396/396
f 423/423 450/450 398/398
f 450/450 451/664 406/406
f 406/406 451/665 407/407
f 408/408 435/435 410/410
f 410/410 435/435 10/10
f 25/25 26/26 399/399
f 121/121 425/425 374/374
f 374/374 425/425 412/412
f 425/425 437/437 412/412
f 412/412 437/437 436/436
f 412/412 436/436 411/411
f 436/436 426/426 411/411
f 411/411 426/426 413/413
f 413/413 426/426 415/415
f 426/426 428/428 415/415
f 415/415 428/428 427/427
f 415/415 427/427 414/414
f 414/414 427/427 417/417
f 427/427 429/429 417/417
f 417/417 429/429 441/441
f 417/417 441/441 416/416
f 441/441 430/430 416/416
f 416/416 430/430 418/418
f 418/418 430/430 419/419
f 430/430 431/431 419/419
f 405/405 419/419 420/420
f 419/419 431/431 420/420
f 420/420 445/445 421/421
f 421/421 446/446 422/422
f 423/423 448/448 450/450
f 451/666 433/433 407/407
f 407/407 433/433 409/409
f 409/409 433/433 432/432
f 409/409 432/432 408/408
f 408/408 432/432 435/435
f 435/435 434/434 10/10
f 426/426 436/436 438/438
f 426/426 438/438 428/428
f 438/438 440/440 428/428
f 428/428 440/440 439/439
f 428/428 439/439 427/427
f 427/427 439/439 429/429
f 439/439 442/442 429/429
f 429/429 442/442 441/441
f 430/430 441/441 443/443
f 430/430 443/443 431/431
f 443/443 444/444 431/431
f 431/431 445/445 420/420
f 445/445 446/446 421/421
f 446/446 447/447 422/422
f 422/422 447/447 424/424
f 447/447 449/449 424/424
f 424/424 449/449 448/448
f 424/424 448/448 423/423
f 11/667 452/452 435/435
f 435/435 452/452 434/434
f 26/26 27/668 399/399
f 425/425 463/463 437/437
f 437/437 463/463 462/462
f 437/437 462/462 436/436
f 462/462 453/453 436/436
f 436/436 453/453 438/438
f 438/438 453/453 440/440
f 453/453 455/455 440/440
f 440/440 455/455 454/454
f 440/440 454/454 439/439
f 439/439 454/454 442/442
f 454/454 456/456 442/442
f 442/442 456/456 467/467
f 442/442 467/467 441/441
f 467/467 457/457 441/441
f 441/441 457/457 443/443
f 443/443 457/457 444/444
f 457/457 458/458 444/444
f 431/431 444/444 445/445
f 444/444 458/458 445/445
f 445/445 471/471 446/446
f 446/446 472/472 447/447
f 448/448 474/669 450/450
f 450/450 501/670 451/671
f 451/672 460/673 433/433
f 433/433 460/674 459/675
f 433/433 459/676 432/432
f 432/432 459/677 435/435
f 435/435 459/678 461/679
f 435/435 461/680 11/681
f 476/682 399/399 27/683
f 476/476 27/27 28/28
f 1/684 399/399 476/685
f 453/453 462/462 464/464
f 453/453 464/464 455/455
f 464/464 466/466 455/455
f 455/455 466/466 465/465
f 455/455 465/465 454/454
f 454/454 465/465 456/456
f 465/465 468/468 456/456
f 456/456 468/468 467/467
f 457/457 467/467 469/469
f 457/457 469/469 458/458
f 469/469 470/470 458/458
f 458/458 471/471 445/445
f 471/471 472/472 446/446
f 472/472 473/473 447/447
f 447/447 473/473 449/449
f 473/473 475/475 449/449
f 449/449 475/475 474/474
f 449/449 474/474 448/448
f 474/686 501/687 450/450
f 501/501 502/502 451/451
f 451/451 502/502 460/460
f 459/459 484/484 461/461
f 121/121 477/477 425/425
f 425/425 477/477 463/463
f 477/477 488/488 463/463
f 463/463 488/488 487/487
f 463/463 487/487 462/462
f 487/487 478/478 462/462
f 462/462 478/478 464/464
f 464/464 478/478 466/466
f 478/478 480/480 466/466
f 466/466 480/480 479/479
f 466/466 479/479 465/465
f 465/465 479/479 468/468
f 479/479 481/481 468/468
f 468/468 481/481 492/492
f 468/468 492/492 467/467
f 492/492 482/482 467/467
f 467/467 482/482 469/469
f 469/469 482/482 470/470
f 482/482 483/483 470/470
f 458/458 470/470 471/471
f 470/470 483/483 471/471
f 471/471 496/496 472/472
f 472/472 497/497 473/473
f 474/474 499/499 501/501
f 460/460 485/485 484/484
f 460/460 484/484 459/459
f 484/484 486/486 461/461
f 478/478 487/487 489/489
f 478/478 489/489 480/480
f 489/489 491/491 480/480
f 480/480 491/491 490/490
f 480/480 490/490 479/479
f 479/479 490/490 481/481
f 490/490 493/493 481/481
f 481/481 493/493 492/492
f 482/482 492/492 494/494
f 482/482 494/494 483/483
f 494/494 495/495 483/483
f 483/483 496/496 471/471
f 496/496 497/497 472/472
f 497/497 498/498 473/473
f 473/473 498/498 475/475
f 498/498 500/500 475/475
f 475/475 500/500 499/499
f 475/475 499/499 474/474
f 460/460 502/502 485/485
f 484/484 512/512 486/486
f 486/486 512/512 12/12
f 28/28 29/29 476/476
f 477/477 514/514 488/488
f 488/488 514/514 513/513
f 488/488 513/513 487/487
f 513/513 503/503 487/487
f 487/487 503/503 489/489
f 489/489 503/503 491/491
f 503/503 505/505 491/491
f 491/491 505/505 504/504
f 491/491 504/504 490/490
f 490/490 504/504 493/493
f 504/504 506/506 493/493
f 493/493 506/506 518/518
f 493/493 518/518 492/492
f 518/518 507/507 492/492
f 492/492 507/507 494/494
f 494/494 507/507 495/495
f 507/507 508/508 495/495
f 483/483 495/495 496/496
f 495/495 508/508 496/496
f 496/496 522/522 497/497
f 497/497 523/523 498/498
f 499/499 525/525 501/501
f 501/501 549/549 502/502
f 502/502 510/510 485/485
f 485/485 510/510 509/509
f 485/485 509/509 484/484
f 484/484 509/509 512/512
f 512/512 511/511 12/12
f 503/503 513/513 515/515
f 503/503 515/515 505/505
f 515/515 517/517 505/505
f 505/505 517/517 516/516
f 505/505 516/516 504/504
f 504/504 516/516 506/506
f 516/516 519/519 506/506
f 506/506 519/519 518/518
f 507/507 518/518 520/520
f 507/507 520/520 508/508
f 520/520 521/521 508/508
f 508/508 522/522 496/496
f 522/522 523/523 497/497
f 523/523 524/524 498/498
f 498/498 524/524 500/500
f 524/524 526/526 500/500
f 500/500 526/526 525/525
f 500/500 525/525 499/499
f 525/525 549/549 501/501
f 502/502 550/550 536/536
f 502/502 536/536 510/510
f 13/13 527/527 512/512
f 512/512 527/527 511/511
f 29/29 30/30 476/476
f 121/121 528/528 477/477
f 477/477 528/528 514/514
f 528/528 539/539 514/514
f 514/514 539/539 538/538
f 514/514 538/538 513/513
f 538/538 529/529 513/513
f 513/513 529/529 515/515
f 515/515 529/529 517/517
f 529/529 531/531 517/517
f 517/517 531/531 530/530
f 517/517 530/530 516/516
f 516/516 530/530 519/519
f 530/530 532/532 519/519
f 519/519 532/532 542/542
f 519/519 542/542 518/518
f 542/542 533/533 518/518
f 518/518 533/533 520/520
f 520/520 533/533 521/521
f 533/533 534/534 521/521
f 508/508 521/521 522/522
f 521/521 544/544 522/522
f 522/522 544/544 523/523
f 523/523 545/545 524/524
f 525/525 547/547 549/549
f 502/502 555/555 550/550
f 510/510 536/536 535/535
f 510/510 535/535 509/509
f 509/509 535/535 512/512
f 512/512 535/535 537/537
f 512/512 537/537 13/13
f 120/120 476/476 30/30
f 120/120 30/30 14/14
f 1/1 476/476 120/120
f 529/529 538/538 540/540
f 529/529 540/540 531/531
f 531/531 541/541 530/530
f 530/530 541/541 532/532
f 542/542 553/553 533/533
f 533/533 553/553 543/543
f 533/533 543/543 534/534
f 534/534 544/544 521/521
f 544/544 114/114 545/545
f 544/544 545/545 523/523
f 545/545 115/115 546/546
f 545/545 546/546 524/524
f 524/524 546/546 526/526
f 546/546 548/548 526/526
f 526/526 548/548 547/547
f 526/526 547/547 525/525
f 547/547 118/118 549/549
f 549/549 555/555 502/502
f 536/536 556/556 535/535
f 535/535 556/556 581/581
f 535/535 581/581 537/537
f 528/528 106/106 539/539
f 105/105 538/538 539/539
f 539/539 106/106 105/105
f 107/107 551/551 538/538
f 538/538 105/105 107/107
f 538/538 551/551 540/540
f 540/540 551/551 55/55
f 55/55 531/531 540/540
f 55/55 551/551 107/107
f 108/108 552/552 55/55
f 541/541 531/531 55/55
f 55/55 552/552 541/541
f 541/541 552/552 56/56
f 56/56 532/532 541/541
f 56/56 552/552 108/108
f 110/110 553/553 56/56
f 542/542 532/532 56/56
f 56/56 553/553 542/542
f 112/112 554/554 553/553
f 553/553 110/110 112/112
f 553/553 554/554 543/543
f 543/543 554/554 57/57
f 57/57 534/534 543/543
f 112/112 113/113 57/57
f 57/57 554/554 112/112
f 544/544 534/534 57/57
f 544/544 57/57 114/114
f 114/114 57/57 113/113
f 114/114 115/115 545/545
f 546/546 115/115 548/548
f 548/548 116/116 547/547
f 116/116 118/118 547/547
f 549/549 118/118 555/555
f 536/536 550/550 556/556
f 556/556 119/119 581/581
f 31/31 571/571 58/58
f 58/58 570/570 31/31
f 32/32 572/572 58/58
f 58/58 571/571 32/32
f 2/2 129/129 59/59
f 59/59 558/558 2/2
f 14/14 558/558 59/59
f 59/59 557/557 14/14
f 129/129 146/146 60/60
f 60/60 59/59 129/129
f 3/3 559/559 60/60
f 60/60 146/146 3/3
f 15/15 1/1 60/60
f 60/60 559/559 15/15
f 557/557 59/59 60/60
f 60/60 1/1 557/557
f 35/35 582/582 61/61
f 61/61 589/589 35/35
f 38/38 589/589 61/61
f 61/61 588/588 38/38
f 61/61 587/587 588/588
f 582/582 583/583 61/61
f 583/583 584/584 62/62
f 62/62 61/61 583/583
f 36/36 585/585 62/62
f 62/62 584/584 36/36
f 37/37 586/586 62/62
f 62/62 585/585 37/37
f 587/587 61/61 62/62
f 62/62 586/586 587/587
f 4/4 204/204 63/63
f 63/63 560/560 4/4
f 17/17 560/560 63/63
f 204/204 219/219 64/64
f 64/64 63/63 204/204
f 5/5 561/561 64/64
f 64/64 219/219 5/5
f 64/64 561/561 18/18
f 17/17 63/63 64/64
f 64/64 18/18 17/17
f 39/39 594/594 65/65
f 65/65 601/601 39/39
f 42/42 601/601 65/65
f 65/65 600/600 42/42
f 65/65 599/599 600/600
f 594/594 595/595 65/65
f 595/595 596/596 66/66
f 66/66 65/65 595/595
f 40/40 597/597 66/66
f 66/66 596/596 40/40
f 41/41 598/598 66/66
f 66/66 597/597 41/41
f 599/599 65/65 66/66
f 66/66 598/598 599/599
f 6/6 277/277 67/67
f 67/67 562/562 6/6
f 20/20 562/562 67/67
f 277/277 295/295 68/68
f 68/68 67/67 277/277
f 7/7 563/563 68/68
f 68/68 295/295 7/7
f 68/68 563/563 21/21
f 20/20 67/67 68/68
f 68/68 21/21 20/20
f 43/43 606/606 69/69
f 69/69 613/613 43/43
f 46/46 613/613 69/69
f 69/69 612/612 46/46
f 69/69 611/611 612/612
f 606/606 607/607 69/69
f 607/607 608/608 70/70
f 70/70 69/69 607/607
f 44/44 609/609 70/70
f 70/70 608/608 44/44
f 45/45 610/610 70/70
f 70/70 609/609 45/45
f 611/611 69/69 70/70
f 70/70 610/610 611/611
f 8/8 356/356 71/71
f 71/71 564/564 8/8
f 23/23 564/564 71/71
f 356/356 373/373 72/72
f 72/72 71/71 356/356
f 9/9 565/565 72/72
f 72/72 373/373 9/9
f 72/72 565/565 24/24
f 23/23 71/71 72/72
f 72/72 24/24 23/23
f 47/47 618/618 73/73
f 73/73 625/625 47/47
f 50/50 625/625 73/73
f 73/73 624/624 50/50
f 73/73 623/623 624/624
f 618/618 619/619 73/73
f 619/619 620/620 74/74
f 74/74 73/73 619/619
f 48/48 621/621 74/74
f 74/74 620/620 48/48
f 49/49 622/622 74/74
f 74/74 621/621 49/49
f 623/623 73/73 74/74
f 74/74 622/622 623/623
f 10/10 434/434 75/75
f 75/75 566/566 10/10
f 26/26 566/566 75/75
f 434/434 452/452 76/76
f 76/76 75/75 434/434
f 11/688 567/567 76/76
f 76/76 452/452 11/689
f 76/76 567/567 27/690
f 26/26 75/75 76/76
f 76/76 27/691 26/26
f 51/51 630/630 77/77
f 77/77 637/637 51/51
f 54/54 637/637 77/77
f 77/77 636/636 54/54
f 77/77 635/635 636/636
f 630/630 631/631 77/77
f 631/631 632/632 78/78
f 78/78 77/77 631/631
f 52/52 633/633 78/78
f 78/78 632/632 52/52
f 53/53 634/634 78/78
f 78/78 633/633 53/53
f 635/635 77/77 78/78
f 78/78 634/634 635/635
f 12/12 511/511 79/79
f 79/79 568/568 12/12
f 29/29 568/568 79/79
f 511/511 527/527 80/80
f 80/80 79/79 511/511
f 13/13 569/569 80/80
f 80/80 527/527 13/13
f 80/80 569/569 30/30
f 29/29 79/79 80/80
f 80/80 30/30 29/29
f 34/34 576/576 81/81
f 81/81 575/575 34/34
f 33/33 575/575 81/81
f 81/81 574/574 33/33
f 576/576 577/577 81/81
f 577/577 58/58 81/81
f 81/81 58/58 573/573
f 81/81 573/573 574/574
f 58/58 577/577 570/570
f 58/58 572/572 573/573
f 2/2 578/578 82/82
f 82/82 119/119 2/2
f 31/31 570/570 82/82
f 82/82 578/578 31/31
f 558/558 578/578 2/2
f 32/32 571/571 558/558
f 558/558 14/14 32/32
f 31/31 578/578 558/558
f 558/558 571/571 31/31
f 14/14 579/579 572/572
f 14/14 572/572 32/32
f 573/573 572/572 579/579
f 574/574 573/573 579/579
f 14/14 30/30 83/83
f 83/83 579/579 14/14
f 33/33 574/574 83/83
f 83/83 30/30 33/33
f 574/574 579/579 83/83
f 13/13 580/580 569/569
f 34/34 575/575 569/569
f 569/569 580/580 34/34
f 33/33 30/30 569/569
f 569/569 575/575 33/33
f 13/13 537/537 84/84
f 84/84 580/580 13/13
f 34/34 580/580 84/84
f 84/84 576/576 34/34
f 537/537 581/581 84/84
f 84/84 581/581 577/577
f 84/84 577/577 576/576
f 581/581 119/119 82/82
f 570/570 577/577 82/82
f 577/577 581/581 82/82
f 85/85 590/590 3/3
f 85/85 591/591 582/582
f 35/35 590/590 85/85
f 85/85 582/582 35/35
f 591/591 583/583 582/582
f 86/86 591/591 203/203
f 4/4 592/592 86/86
f 86/86 203/203 4/4
f 36/36 584/584 86/86
f 86/86 592/592 36/36
f 583/583 591/591 86/86
f 86/86 584/584 583/583
f 560/560 592/592 4/4
f 37/37 585/585 560/560
f 560/560 17/17 37/37
f 36/36 592/592 560/560
f 560/560 585/585 36/36
f 16/16 593/593 87/87
f 87/87 17/17 16/16
f 587/587 586/586 87/87
f 87/87 593/593 587/587
f 37/37 17/17 87/87
f 87/87 586/586 37/37
f 588/588 587/587 593/593
f 16/16 15/15 88/88
f 88/88 593/593 16/16
f 38/38 588/588 88/88
f 88/88 15/15 38/38
f 588/588 593/593 88/88
f 3/3 590/590 559/559
f 35/35 589/589 559/559
f 559/559 590/590 35/35
f 38/38 15/15 559/559
f 559/559 589/589 38/38
f 5/692 227/227 89/89
f 89/89 602/602 5/693
f 39/39 602/602 89/89
f 89/89 594/594 39/39
f 227/227 603/603 89/89
f 89/89 603/603 594/594
f 227/227 276/276 603/603
f 603/603 595/595 594/594
f 90/90 603/603 276/276
f 6/6 604/604 90/90
f 90/90 276/276 6/6
f 40/40 596/596 90/90
f 90/90 604/604 40/40
f 595/595 603/603 90/90
f 90/90 596/596 595/595
f 562/562 604/604 6/6
f 41/41 597/597 562/562
f 562/562 20/20 41/41
f 40/40 604/604 562/562
f 562/562 597/597 40/40
f 19/19 605/605 91/91
f 91/91 20/20 19/19
f 599/599 598/598 91/91
f 91/91 605/605 599/599
f 41/41 20/20 91/91
f 91/91 598/598 41/41
f 600/600 599/599 605/605
f 19/19 18/694 92/92
f 92/92 605/605 19/19
f 42/42 600/600 92/92
f 92/92 18/695 42/42
f 600/600 605/605 92/92
f 5/696 602/602 561/697
f 39/39 601/601 561/698
f 561/699 602/602 39/39
f 42/42 18/700 561/701
f 561/702 601/601 42/42
f 7/7 304/304 93/93
f 93/93 614/614 7/7
f 43/43 614/614 93/93
f 93/93 606/606 43/43
f 304/304 615/615 93/93
f 93/93 615/615 606/606
f 304/304 330/330 615/615
f 615/615 607/607 606/606
f 94/94 615/615 330/330
f 8/8 616/616 94/94
f 94/94 330/330 8/8
f 44/44 608/608 94/94
f 94/94 616/616 44/44
f 607/607 615/615 94/94
f 94/94 608/608 607/607
f 564/564 616/616 8/8
f 45/45 609/609 564/564
f 564/564 23/23 45/45
f 44/44 616/616 564/564
f 564/564 609/609 44/44
f 22/22 617/617 95/95
f 95/95 23/23 22/22
f 611/611 610/610 95/95
f 95/95 617/617 611/611
f 45/45 23/23 95/95
f 95/95 610/610 45/45
f 612/612 611/611 617/617
f 22/22 21/21 96/96
f 96/96 617/617 22/22
f 46/46 612/612 96/96
f 96/96 21/21 46/46
f 612/612 617/617 96/96
f 7/7 614/614 563/563
f 43/43 613/613 563/563
f 563/563 614/614 43/43
f 46/46 21/21 563/563
f 563/563 613/613 46/46
f 9/9 383/383 97/97
f 97/97 626/626 9/9
f 47/47 626/626 97/97
f 97/97 618/618 47/47
f 383/383 627/627 97/97
f 97/97 627/627 618/618
f 383/383 410/410 627/627
f 627/627 619/619 618/618
f 98/98 627/627 410/410
f 10/10 628/628 98/98
f 98/98 410/410 10/10
f 48/48 620/620 98/98
f 98/98 628/628 48/48
f 619/619 627/627 98/98
f 98/98 620/620 619/619
f 566/566 628/628 10/10
f 49/49 621/621 566/566
f 566/566 26/26 49/49
f 48/48 628/628 566/566
f 566/566 621/621 48/48
f 25/25 629/629 99/99
f 99/99 26/26 25/25
f 623/623 622/622 99/99
f 99/99 629/629 623/623
f 49/49 26/26 99/99
f 99/99 622/622 49/49
f 624/624 623/623 629/629
f 25/25 24/24 100/100
f 100/100 629/629 25/25
f 50/50 624/624 100/100
f 100/100 24/24 50/50
f 624/624 629/629 100/100
f 9/9 626/626 565/565
f 47/47 625/625 565/565
f 565/565 626/626 47/47
f 50/50 24/24 565/565
f 565/565 625/625 50/50
f 11/11 461/461 101/101
f 101/101 638/638 11/11
f 51/51 638/638 101/101
f 101/101 630/630 51/51
f 461/461 639/639 101/101
f 101/101 639/639 630/630
f 461/461 486/486 639/639
f 639/639 631/631 630/630
f 102/102 639/639 486/486
f 12/12 640/640 102/102
f 102/102 486/486 12/12
f 52/52 632/632 102/102
f 102/102 640/640 52/52
f 631/631 639/639 102/102
f 102/102 632/632 631/631
f 568/568 640/640 12/12
f 53/53 633/633 568/568
f 568/568 29/29 53/53
f 52/52 640/640 568/568
f 568/568 633/633 52/52
f 28/28 641/641 103/103
f 103/103 29/29 28/28
f 635/635 634/634 103/103
f 103/103 641/641 635/635
f 53/53 29/29 103/103
f 103/103 634/634 53/53
f 636/636 635/635 641/641
f 28/28 27/27 104/104
f 104/104 641/641 28/28
f 54/54 636/636 104/104
f 104/104 27/27 54/54
f 636/636 641/641 104/104
f 11/703 638/704 567/567
f 51/705 637/706 567/567
f 567/567 638/707 51/708
f 54/709 27/710 567/567
f 567/567 637/711 54/712
# 1278 faces

g
