# Max2Obj Version 4.0 Mar 10th, 2001
#
mtllib ./Tower1.mtl
g
# object Wt__kKnigh to come ...
#
v  3.090388 0.745109 1.470316
v  3.090048 1.098690 1.470728
v  3.406365 1.227383 1.629117
v  3.428415 1.805976 1.641080
v  2.953521 2.062946 1.404012
v  3.066168 2.448712 1.460968
v  2.430010 5.919984 1.148454
v  2.068249 6.048424 0.967748
v  2.068037 6.273429 0.968004
v  3.062373 0.327790 0.969197
v  3.636909 2.513879 1.165144
v  3.540107 3.253129 1.133749
v  2.674098 4.409812 0.844913
v  3.409432 0.746414 0.595132
v  3.409096 1.099995 0.595534
v  3.030729 4.346224 0.529157
v  2.278531 6.049285 0.390921
v  2.278317 6.274289 0.391180
v  2.978774 6.371233 0.522132
v  3.839205 1.229481 0.154425
v  3.864223 1.808089 0.156290
v  3.327070 2.064758 0.131327
v  3.454544 2.450595 0.137788
v  2.735375 5.921466 0.108091
v  2.326178 6.049675 0.088995
v  2.402029 6.949764 0.093634
v  3.493790 0.747547 -0.323893
v  3.493454 1.101127 -0.323487
v  3.876991 2.515849 -0.356205
v  2.333918 6.275035 -0.214541
v  3.218187 0.329882 -0.728242
v  3.721253 3.255561 -0.839699
v  2.809644 4.411632 -0.631721
v  2.302249 6.050344 -0.515040
v  3.337471 0.748427 -1.221439
v  3.337136 1.102007 -1.221034
v  3.679653 1.231052 -1.348134
v  3.703581 1.809670 -1.356556
v  3.189379 2.066113 -1.165397
v  3.311380 2.452004 -1.210403
v  2.966945 4.348008 -1.080984
v  2.622812 5.922574 -0.951931
v  2.231100 6.050611 -0.806369
v  2.230890 6.275616 -0.806104
v  3.518492 2.517191 -1.824146
v  2.771805 6.373270 -1.426920
v  2.951574 0.748991 -2.033731
v  2.951241 1.102572 -2.033328
v  3.186261 3.256611 -2.198528
v  1.976766 6.050982 -1.341742
v  1.976551 6.275988 -1.341483
v  2.505435 0.330925 -2.228555
v  2.953025 1.231843 -2.640096
v  2.971974 1.810467 -2.657370
v  2.562285 2.066796 -2.280379
v  2.659407 2.452714 -2.369626
v  2.384649 4.348642 -2.116325
v  2.110193 5.923132 -1.863389
v  1.798110 6.051082 -1.576234
v  2.363534 0.749201 -2.703048
v  2.363199 1.102782 -2.702642
v  2.618298 2.517691 -3.005718
v  1.932662 4.412587 -2.191023
v  1.588975 6.276126 -1.782623
v  1.639621 6.951260 -1.842788
v  2.162186 3.256801 -3.211443
v  1.353722 6.051098 -1.957988
v  1.615124 0.749041 -3.181825
v  1.614791 1.102621 -3.181419
v  1.774635 1.231730 -3.516437
v  1.785517 1.810354 -3.539713
v  1.545323 2.066699 -3.036673
v  1.602087 2.452614 -3.155934
v  1.440323 4.348552 -2.818595
v  1.278861 5.923052 -2.481630
v  1.095920 6.051015 -2.098437
v  1.095705 6.276020 -2.098182
v  1.415554 6.373522 -2.768399
v  1.123128 0.330629 -3.112858
v  1.319274 2.517271 -3.713411
v  0.759540 0.748521 -3.436040
v  0.759204 1.102101 -3.435634
v  0.811558 3.256101 -3.717695
v  0.632454 4.412036 -2.785186
v  0.532014 6.050672 -2.265986
v  0.531801 6.275677 -2.265728
v  0.331502 1.230732 -3.838076
v  0.332492 1.809348 -3.863556
v  0.299874 2.065837 -3.314252
v  0.307216 2.451717 -3.444526
v  0.283838 4.347752 -3.076348
v  0.260759 5.922348 -2.708537
v  0.235969 6.050420 -2.290099
v  -0.142424 0.747680 -3.447625
v  -0.142760 1.101260 -3.447219
v  -0.172427 2.515997 -3.834907
v  -0.062676 6.275124 -2.273363
v  -0.542812 0.329075 -3.134254
v  -0.651288 3.254623 -3.636933
v  -0.357969 6.049773 -2.216852
v  -1.026678 0.746577 -3.215756
v  -1.027011 1.100157 -3.215354
v  -1.147357 1.229005 -3.553970
v  -1.156494 1.807609 -3.577503
v  -0.976401 2.064347 -3.069063
v  -1.019707 2.450168 -3.189609
v  -0.901274 4.346368 -2.848676
v  -0.782544 5.921130 -2.508105
v  -0.645267 6.049391 -2.120806
v  -0.645478 6.274396 -2.120540
v  -0.886019 6.371375 -2.797959
v  -1.620072 2.514072 -3.350925
v  -1.152411 4.409952 -2.442292
v  -1.830375 0.745290 -2.756920
v  -1.830712 1.098870 -2.756512
v  -1.994188 3.252600 -2.981981
v  -1.174978 6.048543 -1.818388
v  -1.175191 6.273548 -1.818130
v  -1.219861 6.948593 -1.879521
v  -2.027255 0.326698 -2.286776
v  -2.427245 1.226825 -2.709205
v  -2.445147 1.805415 -2.726954
v  -2.080960 2.062466 -2.340022
v  -2.168096 2.448212 -2.431635
v  -1.926939 4.344621 -2.171704
v  -1.685477 5.919591 -1.912143
v  -1.407940 6.048092 -1.617418
v  -2.496415 0.743910 -2.103710
v  -2.496748 1.097491 -2.103302
v  -2.793919 2.511800 -2.338273
v  -1.614169 6.272639 -1.387603
v  -3.004030 3.250355 -1.856776
v  -2.222562 4.407736 -1.392753
v  -1.789359 6.047177 -1.133821
v  -2.398324 6.368448 -1.493331
v  -2.977458 0.742537 -1.302554
v  -2.977795 1.096117 -1.302146
v  -3.305040 1.224537 -1.437843
v  -3.328955 1.803111 -1.446889
v  -2.838510 2.060491 -1.242823
v  -2.955707 2.446159 -1.290898
v  -2.630377 4.342788 -1.152879
v  -2.304743 5.917978 -1.015228
v  -1.931011 6.046728 -0.859828
v  -1.931221 6.271734 -0.859568
v  -2.915745 0.324161 -0.807029
v  -3.507674 2.509542 -0.957664
v  -3.239326 0.741267 -0.410375
v  -3.239659 1.094847 -0.409973
v  -3.520547 3.248242 -0.439891
v  -2.103603 6.045892 -0.271802
v  -2.103817 6.270896 -0.271543
v  -3.641436 1.222505 0.058339
v  -3.667656 1.801065 0.059543
v  -3.128828 2.058737 0.048408
v  -3.257540 2.444335 0.051572
v  -2.899956 4.341159 0.046120
v  -2.542065 5.916544 0.040300
v  -2.131467 6.045518 0.031736
v  -3.263404 0.740191 0.509421
v  -3.263739 1.093771 0.509826
v  -3.648063 2.507657 0.571798
v  -2.628569 4.405283 0.413025
v  -2.119687 6.270188 0.334684
v  -2.196925 6.945116 0.347529
v  -2.960225 0.322173 0.891838
v  -3.461772 3.246598 1.043810
v  -2.067841 6.044891 0.630873
v  -2.766439 6.365427 0.839311
v  -3.047990 0.739384 1.391476
v  -3.048327 1.092965 1.391878
v  -3.383053 1.221050 1.541907
v  -3.407502 1.799600 1.553277
v  -2.905838 2.057482 1.328747
v  -3.025704 2.443030 1.382721
v  -2.692894 4.339993 1.235007
v  -2.359782 5.915517 1.086930
v  -1.977497 6.044651 0.915779
v  -1.977712 6.269656 0.916039
v  -3.192817 2.506444 2.007400
v  -2.608384 0.738906 2.173100
v  -2.608719 1.092486 2.173507
v  -2.837030 3.245684 2.358871
v  -2.097608 4.404242 1.761613
v  -1.687757 6.044335 1.430945
v  -1.687972 6.269341 1.431204
v  -2.148270 0.321289 2.335518
v  -2.570889 1.220405 2.777417
v  -2.589775 1.798950 2.797250
v  -2.204927 2.056924 2.395010
v  -2.296983 2.442451 2.491291
v  -2.042053 4.339476 2.225106
v  -1.786819 5.915062 1.958555
v  -1.493535 6.044265 1.652005
v  -2.007293 6.364601 2.189088
v  -1.975832 0.738788 2.798765
v  -1.976168 1.092369 2.799170
v  -2.214174 2.506095 3.121298
v  -1.271060 6.269263 1.843570
v  -1.745467 3.245644 3.296596
v  -1.023659 6.044311 2.001446
v  -1.195275 0.739041 3.224000
v  -1.195612 1.092621 3.224402
v  -1.333842 1.220670 3.568795
v  -1.344249 1.799217 3.594046
v  -1.137338 2.057154 3.077977
v  -1.187025 2.442689 3.201362
v  -1.050716 4.339689 2.859293
v  -0.914104 5.915249 2.516856
v  -0.756392 6.044424 2.123584
v  -0.756605 6.269429 2.123841
v  -0.786839 6.944333 2.198380
v  -0.706581 0.321755 3.120928
v  -0.867448 2.506666 3.736724
v  -0.604585 4.404562 2.716746
v  -0.322187 0.739645 3.418590
v  -0.322526 1.093225 3.418994
v  -0.360321 3.246485 3.708151
v  -0.180948 6.044823 2.251833
v  -0.181161 6.269828 2.252091
v  -0.272259 6.365335 2.981961
v  0.131776 1.221804 3.790440
v  0.131405 1.800360 3.817212
v  0.127513 2.058133 3.269263
v  0.128016 2.443707 3.400241
v  0.123784 4.340598 3.036913
v  0.119860 5.916049 2.673225
v  0.116960 6.045100 2.255661
v  0.581387 0.740558 3.368703
v  0.581053 1.094138 3.369107
v  0.633636 2.508066 3.756003
v  0.414380 6.270430 2.219208
v  0.962332 0.323442 3.028788
v  1.098597 3.248073 3.528239
v  0.847233 4.406029 2.636593
v  0.706644 6.045789 2.142375
v  1.451241 0.741715 3.077894
v  1.450908 1.095295 3.078296
v  1.593371 1.223628 3.407188
v  1.603007 1.802195 3.431333
v  1.388887 2.059707 2.938509
v  1.439443 2.445343 3.056358
v  1.295059 4.342059 2.729784
v  1.150982 5.917336 2.402843
v  0.987900 6.046186 2.027282
v  0.987692 6.271192 2.027543
v  2.050850 2.510073 3.176079
v  2.225562 0.743034 2.566811
v  2.225226 1.096615 2.567223
v  2.399744 3.250156 2.785397
v  1.498253 6.047056 1.690441
v  1.498041 6.272061 1.690698
v  2.392508 0.325877 2.084826
v  2.559327 0.743725 2.239479
v  2.558993 1.097306 2.239882
v  2.818980 1.225852 2.479856
v  2.837008 1.804434 2.497646
v  2.446604 2.061625 2.138206
v  2.539133 2.447338 2.224300
v  2.836339 2.511593 2.498459
v  2.761318 3.250905 2.430778
v  2.277229 4.343841 1.986653
v  2.091372 4.408148 1.815423
v  1.718232 6.047512 1.474696
v  1.718023 6.272516 1.474947
v  2.238148 6.368891 1.954709
v  1.773122 6.947527 1.527117
v  -0.890481 7.108519 -2.049366
v  -1.671734 7.010792 -0.853906
v  -0.284088 6.970244 1.796356
v  1.142148 7.107513 2.412781
v  1.626977 7.212024 2.759231
v  1.674773 20.795139 3.283549
v  -1.269329 15.998700 -2.746692
v  0.235340 15.298791 0.125133
v  1.540797 21.227098 3.028932
v  1.198006 21.160057 1.981132
v  1.669338 20.796860 3.300275
v  -1.145277 18.704233 -2.501761
v  -1.148901 19.087734 -2.114665
v  -1.387201 18.201035 -2.330665
v  -1.102931 15.689046 -2.429784
v  -1.214262 16.845310 -2.246130
v  -1.255170 17.241333 -2.323092
v  -1.389079 17.139967 -2.972030
v  -1.377705 17.998405 -2.947772
v  -0.919074 7.096225 -1.904912
v  -1.068141 7.078698 -1.691914
v  -1.488211 7.038844 -1.200163
v  -1.639478 7.021979 -0.991364
v  -1.344238 8.746618 -2.911198
v  -1.106641 7.513298 -2.461032
v  -1.138270 6.949945 0.164829
v  -0.903315 6.940012 0.613555
v  -0.479681 6.951989 1.422728
v  -0.145023 6.983220 1.960726
v  0.060391 7.000054 2.083447
v  0.311986 7.020823 2.177272
v  0.589589 7.045603 2.254940
v  0.873036 7.074475 2.329193
v  1.247998 7.122952 2.454572
v  1.345936 7.139174 2.501411
v  1.434388 7.156185 2.554293
v  1.511765 7.173994 2.614227
v  1.576490 7.192605 2.682205
v  1.663790 7.975039 2.831800
v  1.583271 8.619660 2.679914
v  1.481359 9.325573 2.487350
v  0.938240 10.580559 2.307318
v  1.522443 13.302252 2.577570
v  1.652585 14.289548 2.829060
v  1.815994 15.357846 3.144317
v  1.936510 19.307570 3.832441
v  1.734596 20.603373 3.397243
v  1.031539 21.090687 1.662972
v  0.854156 20.640455 1.322848
v  0.669086 20.111769 0.967805
v  0.185008 19.565857 0.041609
v  0.195020 20.056519 0.455053
v  -0.000174 19.931875 0.081874
v  -0.204045 19.333275 -0.702160
v  -0.040115 15.394041 0.233955
v  -0.290302 15.511871 0.316439
v  0.240381 15.190280 0.134436
v  -0.093092 14.555189 -0.504364
v  -0.343200 14.363844 -0.659085
v  -0.420900 15.322926 0.962412
v  -0.321258 15.314145 0.742047
v  -0.178669 15.307196 0.529043
v  0.006865 15.302076 0.323409
v  -0.468069 15.790551 1.471025
v  -0.265956 14.176373 -0.835648
v  -0.350305 13.981780 -0.997331
v  -1.349547 11.142041 -2.914260
v  1.593133 21.025173 3.170399
v  1.299226 20.860971 2.289228
v  1.547675 21.011795 3.161693
v  1.361905 20.414600 2.531903
v  -1.377827 18.264187 -1.211263
v  -1.261510 7.558152 -2.022957
v  -1.717927 7.692294 -1.143827
v  -1.776470 8.342722 -1.265249
v  0.019689 8.935770 1.985529
v  1.504964 8.070513 2.678058
v  1.427968 9.337513 2.493829
v  1.266015 11.670268 2.259783
v  1.015700 12.258931 2.410081
v  1.803180 18.252111 3.276250
v  1.909250 19.662058 3.778827
v  1.873158 19.952116 3.706994
v  1.829675 20.194183 3.620085
v  1.780250 20.404703 3.521239
v  1.726322 20.600109 3.413588
v  1.868552 19.605389 3.782102
v  1.788396 20.147686 3.620274
v  1.688241 20.572361 3.413022
v  0.801913 20.563061 1.788328
v  0.271556 19.899418 1.314601
v  -0.057162 19.340113 1.793866
v  -0.149289 19.373772 0.038900
v  -0.434606 19.185787 -0.500934
v  -1.028705 18.526564 -0.064567
v  -1.315301 16.324198 -2.185051
v  -1.391398 17.045662 -0.239025
v  -1.168118 15.841784 -1.970813
v  -1.052960 15.708685 -1.856803
v  -0.847447 15.790896 -0.319170
v  -0.350124 15.555950 0.097685
v  0.014611 15.189755 0.314825
v  -0.171477 15.186673 0.512926
v  -0.316509 15.183287 0.725848
v  -0.480451 15.044324 1.167711
v  -0.232500 15.402678 0.433426
v  -0.363411 15.418089 0.624510
v  -0.443497 15.437833 0.813818
v  -0.483421 15.459475 1.007940
v  -0.493840 15.480565 1.213485
v  -0.425345 15.525224 0.532109
v  -0.501925 15.544708 0.719824
v  -0.532654 15.568287 0.892797
v  -0.530174 15.593913 1.064225
v  -0.507107 15.619544 1.247317
v  -0.583460 15.669715 0.612510
v  -0.608736 15.689383 0.803836
v  -0.600448 15.711287 0.965960
v  -0.567975 15.735446 1.118271
v  -0.842603 16.024553 0.690687
v  -0.718777 16.058094 1.042739
v  -0.562190 16.102062 1.297019
v  -0.489078 13.980821 -0.858177
v  -0.517881 14.181109 -0.490893
v  -0.575387 14.194685 -0.057750
v  -0.639661 14.029219 0.830666
v  -0.839196 13.323912 0.488956
v  -1.677462 11.135101 -1.860629
v  0.163638 15.271709 2.802657
v  0.647008 15.284127 3.157193
v  0.224322 14.101068 2.649348
v  0.379119 13.368376 2.483865
v  -0.506308 13.842970 1.640808
v  -0.219183 13.355873 2.050304
v  -1.288668 17.718227 0.287097
v  -0.336894 18.342365 -2.228137
v  -0.767460 18.749969 -2.021771
v  -0.461620 18.107681 -2.392389
v  -0.671320 7.559101 -2.363190
v  -0.072204 8.292948 -2.499852
v  0.212451 8.345919 -2.411830
v  -0.135749 10.125779 -2.682172
v  -0.758925 7.096483 -1.997241
v  0.362424 7.025197 -2.145425
v  0.490318 7.014268 -2.100286
v  -0.507609 7.079599 -2.015051
v  -0.196785 7.060398 -2.068533
v  0.113312 7.041419 -2.123412
v  1.877965 6.973721 0.549974
v  1.023782 6.953421 -1.081558
v  1.258738 6.943489 -0.632827
v  1.477114 6.944779 -0.215729
v  1.860591 8.936589 0.661982
v  1.935561 6.986566 0.761306
v  1.685740 7.075781 1.860682
v  1.608568 7.108264 2.143898
v  1.924074 7.003051 1.009071
v  1.864560 7.023318 1.282243
v  1.778094 7.047514 1.569792
v  1.590075 8.704297 2.499182
v  1.515176 9.337652 2.443556
v  1.447082 10.010691 2.294586
v  1.585378 7.123494 2.260075
v  1.592142 7.192630 2.673180
v  1.412899 10.578705 2.220024
v  1.570489 7.139534 2.371959
v  1.565553 7.156397 2.478679
v  1.572219 7.174091 2.579376
v  1.579578 10.580345 2.026219
v  1.632252 11.871841 2.011887
v  2.081595 15.081558 2.727053
v  2.065950 17.061062 3.817754
v  1.942823 15.966461 3.167615
v  1.910985 19.952175 3.685191
v  1.865440 19.057442 3.117733
v  1.863821 20.194239 3.600398
v  1.810320 20.404751 3.503903
v  1.752187 20.600149 3.398675
v  1.772227 20.572493 3.364607
v  1.232136 20.348852 1.284561
v  1.097485 19.726423 0.590260
v  1.452316 18.818777 -0.081740
v  0.373174 19.854332 0.160088
v  0.659727 18.889294 -0.749204
v  -0.347584 16.695599 -2.256179
v  -0.684439 16.873154 -1.882572
v  -0.303720 16.351997 -2.144380
v  0.534558 16.404942 -1.528988
v  -0.265759 16.076698 -2.024301
v  0.505069 15.949039 -1.247442
v  0.470368 15.394863 -0.060333
v  0.670614 15.513415 -0.237513
v  0.836063 15.654452 -0.406408
v  0.506558 15.190545 0.031223
v  0.765707 15.188181 -0.027341
v  0.155357 14.733028 -0.433512
v  1.014754 15.185428 -0.041604
v  1.458427 15.047441 0.049981
v  0.517351 15.302898 0.029123
v  -0.082953 14.364262 -0.809111
v  0.187873 14.372334 -0.764690
v  1.260697 15.325629 -0.007000
v  0.561251 14.387435 -0.599043
v  1.030028 15.316319 -0.036945
v  0.782240 15.308740 -0.024905
v  0.733974 15.404232 -0.123729
v  0.957847 15.420215 -0.137169
v  1.108495 15.547299 -0.208552
v  0.916484 15.527382 -0.241430
v  1.153021 15.440400 -0.106548
v  1.264054 15.571175 -0.142972
v  1.330523 15.462392 -0.037768
v  1.400549 15.597017 -0.048802
v  1.501390 15.483773 0.063273
v  1.535387 15.622830 0.069854
v  1.233011 15.692343 -0.257900
v  1.065608 15.672366 -0.338147
v  1.358914 15.714439 -0.163574
v  1.463954 15.738712 -0.053098
v  1.398915 16.045702 -0.365850
v  1.266625 16.027943 -0.525243
v  1.693986 15.794027 0.224646
v  1.696045 15.955531 0.229050
v  -0.163952 13.981343 -1.045609
v  -0.326178 11.137274 -2.639619
v  2.115954 14.476515 0.778645
v  2.473873 15.136819 1.712271
v  2.495549 15.293869 1.938366
v  2.207350 13.885344 1.535029
v  1.898222 13.051387 0.404081
v  1.937521 12.354159 1.326108
v  1.939853 11.963726 0.848520
v  0.816832 11.122113 -1.638596
v  1.980365 18.636475 0.624467
v  1.177194 17.722191 -1.134426
v  1.445240 16.510088 -0.593782
# 503 vertices

vt  0.811629 -0.254148 0.456701
vt  0.811629 -0.227573 0.456701
vt  0.845151 -0.217909 0.452193
vt  0.847545 -0.174421 0.451871
vt  0.797262 -0.155094 0.458633
vt  0.809234 -0.126102 0.457023
vt  0.742191 0.134823 0.466040
vt  0.703880 0.144487 0.471192
vt  0.703880 0.161399 0.471192
vt  0.782172 -0.285556 0.420698
vt  0.838095 -0.121270 0.405379
vt  0.828774 -0.065703 0.407932
vt  0.744890 0.021272 0.430910
vt  0.789169 -0.254148 0.374709
vt  0.789169 -0.227573 0.374709
vt  0.755805 0.016441 0.388856
vt  0.689077 0.144487 0.417152
vt  0.689077 0.161399 0.417152
vt  0.751356 0.168647 0.390743
vt  0.799057 -0.217909 0.319449
vt  0.801135 -0.174421 0.318218
vt  0.757483 -0.155094 0.344074
vt  0.767877 -0.126102 0.337918
vt  0.709673 0.134823 0.372392
vt  0.676414 0.144487 0.392091
vt  0.682650 0.212134 0.388398
vt  0.745845 -0.254148 0.301564
vt  0.745845 -0.227573 0.301564
vt  0.774285 -0.121270 0.279105
vt  0.660523 0.161399 0.368942
vt  0.702152 -0.285556 0.285598
vt  0.735743 -0.065703 0.250865
vt  0.675279 0.021272 0.313385
vt  0.641688 0.144487 0.348118
vt  0.684736 -0.254148 0.242464
vt  0.684736 -0.227573 0.242464
vt  0.704799 -0.217909 0.215233
vt  0.706233 -0.174421 0.213288
vt  0.676137 -0.155094 0.254134
vt  0.683302 -0.126102 0.244409
vt  0.663239 0.016441 0.271639
vt  0.643176 0.134823 0.298870
vt  0.620246 0.144487 0.329990
vt  0.620246 0.161399 0.329990
vt  0.666244 -0.121270 0.187761
vt  0.629089 0.168647 0.255558
vt  0.610184 -0.254148 0.201609
vt  0.610184 -0.227573 0.201608
vt  0.619736 -0.065702 0.176809
vt  0.571110 0.144487 0.303062
vt  0.571110 0.161399 0.303062
vt  0.564454 -0.285556 0.210138
vt  0.577336 -0.217909 0.156084
vt  0.577896 -0.174421 0.153734
vt  0.566135 -0.155093 0.203088
vt  0.568935 -0.126102 0.191337
vt  0.561094 0.016441 0.224239
vt  0.553254 0.134823 0.257141
vt  0.544292 0.144487 0.294744
vt  0.527487 -0.254148 0.181901
vt  0.527487 -0.227573 0.181901
vt  0.531115 -0.121270 0.145843
vt  0.521442 0.021273 0.241997
vt  0.516605 0.161399 0.290073
vt  0.517331 0.212134 0.282862
vt  0.484022 -0.065702 0.153917
vt  0.488542 0.144487 0.289136
vt  0.442522 -0.254148 0.184742
vt  0.442522 -0.227573 0.184742
vt  0.436896 -0.217909 0.151389
vt  0.436495 -0.174421 0.149007
vt  0.444933 -0.155093 0.199035
vt  0.442924 -0.126102 0.187124
vt  0.448550 0.016441 0.220476
vt  0.454176 0.134823 0.253829
vt  0.460605 0.144487 0.291946
vt  0.460605 0.161399 0.291946
vt  0.449354 0.168647 0.225240
vt  0.407524 -0.285556 0.215385
vt  0.390344 -0.121270 0.160005
vt  0.361326 -0.254148 0.209929
vt  0.361326 -0.227573 0.209929
vt  0.350140 -0.065702 0.185822
vt  0.386751 0.021273 0.264716
vt  0.407090 0.144487 0.308546
vt  0.407090 0.161399 0.308546
vt  0.305767 -0.217909 0.201892
vt  0.304467 -0.174421 0.199856
vt  0.331767 -0.155093 0.242621
vt  0.325267 -0.126102 0.232439
vt  0.343467 0.016441 0.260948
vt  0.361667 0.134823 0.289458
vt  0.382467 0.144487 0.322040
vt  0.289670 -0.254148 0.255672
vt  0.289670 -0.227573 0.255672
vt  0.266273 -0.121270 0.227998
vt  0.359862 0.161399 0.338696
vt  0.275174 -0.285556 0.299874
vt  0.239337 -0.065702 0.267462
vt  0.339679 0.144487 0.358216
vt  0.232645 -0.254148 0.318722
vt  0.232645 -0.227573 0.318722
vt  0.204759 -0.217909 0.299580
vt  0.202767 -0.174421 0.298213
vt  0.244596 -0.155093 0.326926
vt  0.234636 -0.126102 0.320090
vt  0.262522 0.016441 0.339232
vt  0.290408 0.134823 0.358374
vt  0.322277 0.144487 0.380251
vt  0.322278 0.161399 0.380251
vt  0.266506 0.168647 0.341967
vt  0.178590 -0.121270 0.339032
vt  0.264842 0.021273 0.382617
vt  0.194303 -0.254148 0.394597
vt  0.194303 -0.227572 0.394598
vt  0.169198 -0.065702 0.385880
vt  0.297007 0.144487 0.430260
vt  0.297007 0.161399 0.430260
vt  0.290160 0.212134 0.427882
vt  0.204356 -0.285556 0.440016
vt  0.149902 -0.217909 0.428948
vt  0.147535 -0.174421 0.428467
vt  0.197254 -0.155093 0.438573
vt  0.185416 -0.126102 0.436167
vt  0.218562 0.016441 0.442904
vt  0.251708 0.134823 0.449641
vt  0.289588 0.144487 0.457340
vt  0.177370 -0.254148 0.477907
vt  0.177370 -0.227572 0.477907
vt  0.141211 -0.121270 0.475486
vt  0.285846 0.161399 0.485168
vt  0.150854 -0.065702 0.522283
vt  0.237634 0.021273 0.516474
vt  0.285846 0.144487 0.513247
vt  0.218350 0.168647 0.517765
vt  0.183048 -0.254148 0.562729
vt  0.183048 -0.227572 0.562730
vt  0.149903 -0.217909 0.569467
vt  0.147535 -0.174421 0.569948
vt  0.197254 -0.155093 0.559842
vt  0.185416 -0.126102 0.562248
vt  0.218562 0.016441 0.555511
vt  0.251708 0.134823 0.548774
vt  0.289588 0.144487 0.541074
vt  0.289589 0.161399 0.541074
vt  0.214844 -0.285556 0.596685
vt  0.160069 -0.121270 0.615705
vt  0.210934 -0.254148 0.643038
vt  0.210934 -0.227572 0.643038
vt  0.187215 -0.065702 0.655024
vt  0.307968 0.144487 0.594005
vt  0.307968 0.161399 0.594005
vt  0.204759 -0.217909 0.698835
vt  0.202767 -0.174421 0.700202
vt  0.244596 -0.155093 0.671489
vt  0.234637 -0.126102 0.678325
vt  0.262522 0.016441 0.659183
vt  0.290408 0.134823 0.640040
vt  0.322277 0.144487 0.618163
vt  0.259047 -0.254148 0.713126
vt  0.259047 -0.227572 0.713126
vt  0.232170 -0.121270 0.737435
vt  0.303842 0.021273 0.672611
vt  0.339679 0.161399 0.640199
vt  0.334303 0.212134 0.645061
vt  0.303708 -0.285556 0.726138
vt  0.272512 -0.065702 0.763036
vt  0.359862 0.144487 0.659719
vt  0.316187 0.168647 0.711378
vt  0.323967 -0.254148 0.768013
vt  0.323967 -0.227572 0.768013
vt  0.305767 -0.217909 0.796522
vt  0.304467 -0.174421 0.798559
vt  0.331767 -0.155093 0.755794
vt  0.325267 -0.126102 0.765976
vt  0.343467 0.016441 0.737466
vt  0.361667 0.134823 0.708957
vt  0.382467 0.144487 0.676374
vt  0.382467 0.161399 0.676374
vt  0.346072 -0.121270 0.821359
vt  0.401081 -0.254148 0.803797
vt  0.401081 -0.227572 0.803797
vt  0.393208 -0.065702 0.829179
vt  0.418976 0.021273 0.746110
vt  0.433292 0.144487 0.699960
vt  0.433292 0.161399 0.699960
vt  0.446139 -0.285556 0.792232
vt  0.436896 -0.217909 0.847026
vt  0.436495 -0.174421 0.849408
vt  0.444933 -0.155093 0.799379
vt  0.442924 -0.126102 0.811291
vt  0.448550 0.016441 0.777938
vt  0.454176 0.134823 0.744586
vt  0.460605 0.144487 0.706468
vt  0.449354 0.168647 0.773173
vt  0.484910 -0.254148 0.817937
vt  0.484910 -0.227572 0.817937
vt  0.483699 -0.121270 0.854157
vt  0.488542 0.161399 0.709279
vt  0.530148 -0.065702 0.842956
vt  0.516605 0.144487 0.708341
vt  0.569496 -0.254148 0.809428
vt  0.569495 -0.227573 0.809428
vt  0.577336 -0.217909 0.842330
vt  0.577897 -0.174421 0.844680
vt  0.566135 -0.155093 0.795327
vt  0.568935 -0.126102 0.807078
vt  0.561094 0.016441 0.774176
vt  0.553254 0.134823 0.741274
vt  0.544292 0.144487 0.703671
vt  0.544292 0.161399 0.703671
vt  0.545972 0.212134 0.710722
vt  0.602369 -0.285556 0.776515
vt  0.623209 -0.121270 0.830624
vt  0.588476 0.021273 0.740443
vt  0.648828 -0.254148 0.778874
vt  0.648828 -0.227573 0.778874
vt  0.661599 -0.065702 0.802179
vt  0.596579 0.144487 0.683533
vt  0.596579 0.161399 0.683533
vt  0.629090 0.168647 0.742856
vt  0.704799 -0.217909 0.783181
vt  0.706233 -0.174421 0.785126
vt  0.676137 -0.155093 0.744280
vt  0.683303 -0.126102 0.754006
vt  0.663239 0.016441 0.726775
vt  0.643176 0.134823 0.699545
vt  0.620246 0.144487 0.668424
vt  0.717269 -0.254148 0.728446
vt  0.717269 -0.227573 0.728446
vt  0.742462 -0.121270 0.754496
vt  0.641688 0.161399 0.650296
vt  0.728780 -0.285556 0.683375
vt  0.766702 -0.065702 0.713321
vt  0.698444 0.021273 0.659418
vt  0.660523 0.144487 0.629472
vt  0.769955 -0.254148 0.661728
vt  0.769955 -0.227573 0.661728
vt  0.799057 -0.217909 0.678965
vt  0.801136 -0.174421 0.680196
vt  0.757483 -0.155093 0.654341
vt  0.767876 -0.126102 0.660497
vt  0.738774 0.016441 0.643260
vt  0.709673 0.134823 0.626023
vt  0.676413 0.144487 0.606323
vt  0.676414 0.161399 0.606323
vt  0.822532 -0.121270 0.637853
vt  0.803143 -0.254148 0.583461
vt  0.803143 -0.227573 0.583462
vt  0.828774 -0.065702 0.590482
vt  0.698287 0.144487 0.554739
vt  0.698287 0.161399 0.554738
vt  0.790079 -0.285556 0.538815
vt  0.811629 -0.254148 0.541713
vt  0.811629 -0.227573 0.541713
vt  0.845151 -0.217909 0.546222
vt  0.847545 -0.174421 0.546544
vt  0.797262 -0.155093 0.539781
vt  0.809234 -0.126102 0.541391
vt  0.847545 -0.121270 0.546544
vt  0.837967 -0.065702 0.545255
vt  0.775713 0.016441 0.536883
vt  0.751768 0.021272 0.533663
vt  0.703880 0.144487 0.527223
vt  0.703880 0.161399 0.527222
vt  0.770924 0.168647 0.536239
vt  0.711064 0.212134 0.528189
vt  0.306865 0.224116 0.398127
vt  0.310339 0.216930 0.527989
vt  0.563705 0.214011 0.654647
vt  0.709532 0.224280 0.627063
vt  0.766548 0.232131 0.627925
vt  0.798986 1.253101 0.662868
vt  0.239228 0.892284 0.364315
vt  0.513847 0.839818 0.501598
vt  0.774598 1.285556 0.650676
vt  0.690635 1.280451 0.589976
vt  0.799468 1.253233 0.664401
vt  0.262347 1.095648 0.375872
vt  0.283112 1.124507 0.404980
vt  0.252593 1.057859 0.401248
vt  0.269558 0.869025 0.379477
vt  0.270790 0.955956 0.398821
vt  0.263389 0.985718 0.395121
vt  0.217561 0.978052 0.353484
vt  0.219786 1.042575 0.354596
vt  0.312467 0.223207 0.410418
vt  0.312309 0.221918 0.434066
vt  0.305966 0.218995 0.492585
vt  0.305406 0.217756 0.516032
vt  0.224296 0.347197 0.356850
vt  0.267466 0.254520 0.378431
vt  0.407735 0.212406 0.576678
vt  0.450634 0.211681 0.598123
vt  0.527988 0.212621 0.636793
vt  0.583592 0.214991 0.659762
vt  0.606440 0.216252 0.658329
vt  0.631354 0.217803 0.652348
vt  0.657437 0.219653 0.643812
vt  0.683795 0.221809 0.634718
vt  0.720140 0.225437 0.624718
vt  0.730399 0.226653 0.623161
vt  0.740239 0.227930 0.622546
vt  0.749591 0.229268 0.623030
vt  0.758384 0.230668 0.624771
vt  0.773402 0.289484 0.631351
vt  0.758811 0.337927 0.624057
vt  0.740325 0.390975 0.614816
vt  0.687784 0.485325 0.629239
vt  0.748515 0.689874 0.618910
vt  0.772449 0.764093 0.630874
vt  0.802470 0.844404 0.645882
vt  0.849422 1.141322 0.690625
vt  0.809876 1.238694 0.668312
vt  0.660228 1.275222 0.574774
vt  0.627761 1.241365 0.558545
vt  0.593878 1.201610 0.541606
vt  0.505395 1.160534 0.497373
vt  0.528668 1.197447 0.527734
vt  0.493006 1.188061 0.509907
vt  0.434317 1.143016 0.461841
vt  0.498073 0.847006 0.523965
vt  0.482858 0.855887 0.543052
vt  0.514748 0.831662 0.502049
vt  0.453749 0.783897 0.471555
vt  0.425640 0.769519 0.472925
vt  0.507693 0.841751 0.598175
vt  0.503558 0.841064 0.576533
vt  0.503206 0.840514 0.553223
vt  0.506635 0.840098 0.528245
vt  0.531638 0.876945 0.638617
vt  0.422120 0.755408 0.455744
vt  0.406685 0.740774 0.448028
vt  0.223741 0.527241 0.356573
vt  0.786409 1.270387 0.658587
vt  0.715353 1.257991 0.607845
vt  0.782355 1.269384 0.660287
vt  0.733478 1.224457 0.622830
vt  0.314193 1.062701 0.484538
vt  0.279089 0.257940 0.419217
vt  0.290947 0.268131 0.508585
vt  0.279744 0.317012 0.502434
vt  0.597935 0.361738 0.652843
vt  0.752537 0.296658 0.628039
vt  0.736473 0.391877 0.618058
vt  0.711024 0.567202 0.608596
vt  0.699491 0.611478 0.632701
vt  0.808670 1.061954 0.656029
vt  0.844365 1.167963 0.687974
vt  0.837621 1.189761 0.684423
vt  0.829474 1.207951 0.680133
vt  0.820211 1.223769 0.675260
vt  0.810114 1.238450 0.669964
vt  0.841337 1.163707 0.690329
vt  0.826234 1.204459 0.682286
vt  0.807084 1.236367 0.671893
vt  0.648955 1.235591 0.596094
vt  0.581426 1.185708 0.588134
vt  0.581591 1.143734 0.641068
vt  0.478920 1.146120 0.514471
vt  0.427100 1.131965 0.488836
vt  0.404034 1.082496 0.552287
vt  0.266148 0.916800 0.408684
vt  0.365969 0.971200 0.558172
vt  0.289380 0.880549 0.417178
vt  0.304646 0.870547 0.419778
vt  0.404431 0.876844 0.524233
vt  0.466254 0.859186 0.529764
vt  0.506777 0.831654 0.527217
vt  0.502894 0.831453 0.551661
vt  0.503050 0.831227 0.575093
vt  0.514162 0.820832 0.616655
vt  0.493769 0.847686 0.548835
vt  0.493850 0.848870 0.569900
vt  0.497836 0.850376 0.588205
vt  0.505247 0.852022 0.604795
vt  0.515602 0.853626 0.620715
vt  0.483950 0.856919 0.566170
vt  0.488126 0.858405 0.584175
vt  0.495111 0.860194 0.598706
vt  0.504627 0.862135 0.611405
vt  0.516398 0.864075 0.623914
vt  0.475872 0.867797 0.580340
vt  0.484284 0.869294 0.595963
vt  0.493752 0.870953 0.607666
vt  0.504591 0.872780 0.617385
vt  0.459721 0.894493 0.599535
vt  0.488613 0.897035 0.619481
vt  0.514769 0.900350 0.630415
vt  0.403323 0.740724 0.465614
vt  0.421026 0.755811 0.494566
vt  0.440048 0.756873 0.529955
vt  0.483287 0.744518 0.599793
vt  0.448987 0.691490 0.584624
vt  0.255204 0.526833 0.452380
vt  0.653776 0.838018 0.705710
vt  0.711116 0.838947 0.707265
vt  0.650205 0.750013 0.691257
vt  0.653388 0.694917 0.670971
vt  0.537833 0.730579 0.653563
vt  0.582702 0.693983 0.669440
vt  0.402672 1.021789 0.592151
vt  0.340877 1.068416 0.354626
vt  0.318196 1.099100 0.392267
vt  0.322122 1.050771 0.348809
vt  0.307066 0.257940 0.363252
vt  0.346823 0.313043 0.321964
vt  0.374025 0.317012 0.313835
vt  0.331929 0.450790 0.311355
vt  0.320058 0.223207 0.395232
vt  0.400303 0.217756 0.326203
vt  0.412828 0.216930 0.322973
vt  0.338880 0.221918 0.380914
vt  0.360448 0.220448 0.360851
vt  0.381883 0.218995 0.340721
vt  0.666193 0.214011 0.449632
vt  0.510223 0.212406 0.371662
vt  0.553122 0.211681 0.393107
vt  0.592996 0.211799 0.413040
vt  0.670939 0.361555 0.458649
vt  0.682219 0.214991 0.462471
vt  0.722320 0.221809 0.557653
vt  0.731642 0.224280 0.582834
vt  0.694785 0.216252 0.481607
vt  0.704951 0.217803 0.505125
vt  0.713777 0.219653 0.531112
vt  0.749522 0.344273 0.610167
vt  0.740607 0.391877 0.609789
vt  0.727154 0.442456 0.602067
vt  0.736132 0.225437 0.592726
vt  0.759126 0.230668 0.623287
vt  0.720415 0.485145 0.598176
vt  0.741043 0.226653 0.601868
vt  0.746457 0.227930 0.610108
vt  0.752457 0.229268 0.617298
vt  0.723004 0.485239 0.575057
vt  0.726388 0.582305 0.571088
vt  0.800695 0.823583 0.600963
vt  0.858789 0.972460 0.683140
vt  0.813732 0.890141 0.640989
vt  0.839414 1.189761 0.680836
vt  0.804964 1.122465 0.640838
vt  0.831093 1.207951 0.676895
vt  0.821636 1.223769 0.672409
vt  0.811340 1.238450 0.667511
vt  0.811065 1.236367 0.663929
vt  0.655441 1.219417 0.536186
vt  0.607081 1.172584 0.491262
vt  0.598475 1.104281 0.422751
vt  0.526657 1.182213 0.496478
vt  0.499772 1.109580 0.413743
vt  0.338490 0.944640 0.353301
vt  0.332279 0.958042 0.398648
vt  0.348018 0.918821 0.359449
vt  0.447489 0.922794 0.362182
vt  0.357533 0.898137 0.366511
vt  0.460468 0.888554 0.384840
vt  0.522272 0.847006 0.475558
vt  0.528409 0.855887 0.451933
vt  0.532256 0.866461 0.430723
vt  0.530097 0.831654 0.480568
vt  0.547320 0.831453 0.462793
vt  0.477168 0.797252 0.463995
vt  0.566156 0.831227 0.448856
vt  0.606071 0.820832 0.432802
vt  0.530834 0.840098 0.479838
vt  0.437976 0.769519 0.448248
vt  0.461718 0.770110 0.437576
vt  0.587406 0.841751 0.438718
vt  0.500127 0.771233 0.430677
vt  0.567614 0.841064 0.448398
vt  0.548756 0.840514 0.462105
vt  0.539583 0.847686 0.457190
vt  0.556482 0.848870 0.444613
vt  0.564465 0.858405 0.431468
vt  0.547557 0.856919 0.438932
vt  0.573516 0.850376 0.436816
vt  0.580281 0.860194 0.428334
vt  0.591233 0.852022 0.432788
vt  0.596149 0.862135 0.428325
vt  0.610182 0.853626 0.431518
vt  0.613219 0.864076 0.430235
vt  0.571589 0.869294 0.421320
vt  0.554043 0.867797 0.423967
vt  0.586632 0.870954 0.421871
vt  0.600911 0.872780 0.424708
vt  0.578789 0.895832 0.404619
vt  0.559705 0.894493 0.399528
vt  0.634126 0.876945 0.433601
vt  0.634530 0.889084 0.433803
vt  0.418735 0.740724 0.434784
vt  0.319259 0.526833 0.324245
vt  0.697459 0.777936 0.453438
vt  0.776413 0.827621 0.504731
vt  0.790415 0.839443 0.520512
vt  0.745773 0.733562 0.505407
vt  0.659931 0.670805 0.436847
vt  0.713147 0.618476 0.503920
vt  0.687360 0.589090 0.468106
vt  0.463692 0.525698 0.340102
vt  0.678451 1.090602 0.448344
vt  0.519562 1.021789 0.358326
vt  0.570050 0.930713 0.385103
# 503 texture vertices

g Wt__kKnigh
usemtl 03_-_Default
f 10/10 14/14 1/1
f 1/1 14/14 2/2
f 7/7 17/17 8/8
f 8/8 17/17 9/9
f 14/14 15/15 2/2
f 2/2 20/20 3/3
f 2/2 15/15 20/20
f 3/3 21/21 4/4
f 3/3 20/20 21/21
f 4/4 22/22 5/5
f 4/4 21/21 22/22
f 5/5 22/22 6/6
f 13/13 24/24 7/7
f 17/17 18/18 9/9
f 9/9 18/18 19/19
f 10/10 27/27 14/14
f 10/10 31/31 27/27
f 14/14 27/27 15/15
f 22/22 23/23 6/6
f 6/6 29/29 11/11
f 6/6 23/23 29/29
f 11/11 29/29 12/12
f 16/16 33/33 13/13
f 13/13 33/33 24/24
f 7/7 25/25 17/17
f 7/7 24/24 25/25
f 17/17 25/25 18/18
f 27/27 28/28 15/15
f 15/15 28/28 20/20
f 29/29 32/32 12/12
f 12/12 41/41 16/16
f 12/12 32/32 41/41
f 16/16 41/41 33/33
f 24/24 34/34 25/25
f 25/25 30/30 18/18
f 25/25 34/34 30/30
f 18/18 30/30 19/19
f 31/31 35/35 27/27
f 27/27 35/35 28/28
f 28/28 37/37 20/20
f 20/20 38/38 21/21
f 20/20 37/37 38/38
f 21/21 39/39 22/22
f 21/21 38/38 39/39
f 22/22 39/39 23/23
f 33/33 42/42 24/24
f 30/30 46/46 19/19
f 19/19 46/46 26/26
f 35/35 36/36 28/28
f 28/28 36/36 37/37
f 39/39 40/40 23/23
f 23/23 45/45 29/29
f 23/23 40/40 45/45
f 29/29 45/45 32/32
f 24/24 43/43 34/34
f 24/24 42/42 43/43
f 34/34 44/44 30/30
f 34/34 43/43 44/44
f 30/30 44/44 46/46
f 10/10 52/52 31/31
f 31/31 47/47 35/35
f 31/31 52/52 47/47
f 35/35 47/47 36/36
f 41/41 63/63 33/33
f 42/42 50/50 43/43
f 43/43 50/50 44/44
f 47/47 48/48 36/36
f 36/36 53/53 37/37
f 36/36 48/48 53/53
f 37/37 54/54 38/38
f 37/37 53/53 54/54
f 38/38 55/55 39/39
f 38/38 54/54 55/55
f 39/39 55/55 40/40
f 45/45 49/49 32/32
f 32/32 57/57 41/41
f 32/32 49/49 57/57
f 41/41 57/57 63/63
f 63/63 58/58 33/33
f 33/33 58/58 42/42
f 50/50 51/51 44/44
f 44/44 51/51 46/46
f 46/46 65/65 26/26
f 52/52 60/60 47/47
f 47/47 60/60 48/48
f 55/55 56/56 40/40
f 40/40 62/62 45/45
f 40/40 56/56 62/62
f 45/45 62/62 49/49
f 42/42 59/59 50/50
f 42/42 58/58 59/59
f 50/50 59/59 51/51
f 60/60 61/61 48/48
f 48/48 61/61 53/53
f 58/58 67/67 59/59
f 59/59 64/64 51/51
f 59/59 67/67 64/64
f 51/51 78/78 46/46
f 51/51 64/64 78/78
f 46/46 78/78 65/65
f 10/10 79/79 52/52
f 52/52 68/68 60/60
f 52/52 79/79 68/68
f 60/60 68/68 61/61
f 61/61 70/70 53/53
f 53/53 71/71 54/54
f 53/53 70/70 71/71
f 54/54 72/72 55/55
f 54/54 71/71 72/72
f 55/55 72/72 56/56
f 62/62 66/66 49/49
f 49/49 74/74 57/57
f 49/49 66/66 74/74
f 57/57 74/74 63/63
f 63/63 75/75 58/58
f 68/68 69/69 61/61
f 61/61 69/69 70/70
f 72/72 73/73 56/56
f 56/56 80/80 62/62
f 56/56 73/73 80/80
f 62/62 80/80 66/66
f 74/74 84/84 63/63
f 63/63 84/84 75/75
f 58/58 76/76 67/67
f 58/58 75/75 76/76
f 67/67 77/77 64/64
f 67/67 76/76 77/77
f 64/64 77/77 78/78
f 79/79 81/81 68/68
f 68/68 81/81 69/69
f 75/75 85/85 76/76
f 76/76 85/85 77/77
f 81/81 82/82 69/69
f 69/69 87/87 70/70
f 69/69 82/82 87/87
f 70/70 88/88 71/71
f 70/70 87/87 88/88
f 71/71 89/89 72/72
f 71/71 88/88 89/89
f 72/72 89/89 73/73
f 80/80 83/83 66/66
f 66/66 91/91 74/74
f 66/66 83/83 91/91
f 74/74 91/91 84/84
f 84/84 92/92 75/75
f 85/85 86/86 77/77
f 77/77 86/86 78/78
f 10/10 98/98 79/79
f 79/79 94/94 81/81
f 79/79 98/98 94/94
f 81/81 94/94 82/82
f 89/89 90/90 73/73
f 73/73 96/96 80/80
f 73/73 90/90 96/96
f 80/80 96/96 83/83
f 75/75 93/93 85/85
f 75/75 92/92 93/93
f 85/85 93/93 86/86
f 86/86 111/111 78/78
f 78/78 119/119 65/65
f 78/78 111/111 119/119
f 65/65 119/119 26/26
f 94/94 95/95 82/82
f 82/82 95/95 87/87
f 91/91 113/113 84/84
f 92/92 100/100 93/93
f 93/93 97/97 86/86
f 93/93 100/100 97/97
f 86/86 97/97 111/111
f 98/98 101/101 94/94
f 94/94 101/101 95/95
f 95/95 103/103 87/87
f 87/87 104/104 88/88
f 87/87 103/103 104/104
f 88/88 105/105 89/89
f 88/88 104/104 105/105
f 89/89 105/105 90/90
f 96/96 99/99 83/83
f 83/83 107/107 91/91
f 83/83 99/99 107/107
f 91/91 107/107 113/113
f 113/113 108/108 84/84
f 84/84 108/108 92/92
f 101/101 102/102 95/95
f 95/95 102/102 103/103
f 105/105 106/106 90/90
f 90/90 112/112 96/96
f 90/90 106/106 112/112
f 96/96 112/112 99/99
f 92/92 109/109 100/100
f 92/92 108/108 109/109
f 100/100 110/110 97/97
f 100/100 109/109 110/110
f 97/97 110/110 111/111
f 10/10 120/120 98/98
f 98/98 114/114 101/101
f 98/98 120/120 114/114
f 101/101 114/114 102/102
f 108/108 117/117 109/109
f 109/109 117/117 110/110
f 114/114 115/115 102/102
f 102/102 121/121 103/103
f 102/102 115/115 121/121
f 103/103 122/122 104/104
f 103/103 121/121 122/122
f 104/104 123/123 105/105
f 104/104 122/122 123/123
f 105/105 123/123 106/106
f 112/112 116/116 99/99
f 99/99 125/125 107/107
f 99/99 116/116 125/125
f 107/107 125/125 113/113
f 113/113 126/126 108/108
f 117/117 118/118 110/110
f 110/110 118/118 111/111
f 120/120 128/128 114/114
f 114/114 128/128 115/115
f 123/123 124/124 106/106
f 106/106 130/130 112/112
f 106/106 124/124 130/130
f 112/112 130/130 116/116
f 125/125 133/133 113/113
f 113/113 133/133 126/126
f 108/108 127/127 117/117
f 108/108 126/126 127/127
f 117/117 127/127 118/118
f 118/118 135/135 111/111
f 111/111 135/135 119/119
f 128/128 129/129 115/115
f 115/115 129/129 121/121
f 126/126 134/134 127/127
f 127/127 131/131 118/118
f 127/127 134/134 131/131
f 118/118 131/131 135/135
f 10/10 146/146 120/120
f 120/120 136/136 128/128
f 120/120 146/146 136/136
f 128/128 136/136 129/129
f 129/129 138/138 121/121
f 121/121 139/139 122/122
f 121/121 138/138 139/139
f 122/122 140/140 123/123
f 122/122 139/139 140/140
f 123/123 140/140 124/124
f 130/130 132/132 116/116
f 116/116 142/142 125/125
f 116/116 132/132 142/142
f 125/125 142/142 133/133
f 133/133 143/143 126/126
f 136/136 137/137 129/129
f 129/129 137/137 138/138
f 140/140 141/141 124/124
f 124/124 147/147 130/130
f 124/124 141/141 147/147
f 130/130 147/147 132/132
f 126/126 144/144 134/134
f 126/126 143/143 144/144
f 134/134 145/145 131/131
f 134/134 144/144 145/145
f 131/131 145/145 135/135
f 146/146 148/148 136/136
f 136/136 148/148 137/137
f 142/142 163/163 133/133
f 143/143 151/151 144/144
f 144/144 151/151 145/145
f 135/135 165/165 119/119
f 119/119 165/165 26/26
f 148/148 149/149 137/137
f 137/137 153/153 138/138
f 137/137 149/149 153/153
f 138/138 154/154 139/139
f 138/138 153/153 154/154
f 139/139 155/155 140/140
f 139/139 154/154 155/155
f 140/140 155/155 141/141
f 147/147 150/150 132/132
f 132/132 157/157 142/142
f 132/132 150/150 157/157
f 142/142 157/157 163/163
f 163/163 158/158 133/133
f 133/133 158/158 143/143
f 151/151 152/152 145/145
f 145/145 169/169 135/135
f 145/145 152/152 169/169
f 135/135 169/169 165/165
f 10/10 166/166 146/146
f 146/146 160/160 148/148
f 146/146 166/166 160/160
f 148/148 160/160 149/149
f 155/155 156/156 141/141
f 141/141 162/162 147/147
f 141/141 156/156 162/162
f 147/147 162/162 150/150
f 143/143 159/159 151/151
f 143/143 158/158 159/159
f 151/151 159/159 152/152
f 160/160 161/161 149/149
f 149/149 161/161 153/153
f 158/158 168/168 159/159
f 159/159 164/164 152/152
f 159/159 168/168 164/164
f 152/152 164/164 169/169
f 166/166 170/170 160/160
f 160/160 170/170 161/161
f 161/161 172/172 153/153
f 153/153 173/173 154/154
f 153/153 172/172 173/173
f 154/154 174/174 155/155
f 154/154 173/173 174/174
f 155/155 174/174 156/156
f 162/162 167/167 150/150
f 150/150 176/176 157/157
f 150/150 167/167 176/176
f 157/157 176/176 163/163
f 163/163 177/177 158/158
f 170/170 171/171 161/161
f 161/161 171/171 172/172
f 174/174 175/175 156/156
f 156/156 180/180 162/162
f 156/156 175/175 180/180
f 162/162 180/180 167/167
f 176/176 184/184 163/163
f 163/163 184/184 177/177
f 158/158 178/178 168/168
f 158/158 177/177 178/178
f 168/168 179/179 164/164
f 168/168 178/178 179/179
f 164/164 179/179 169/169
f 10/10 187/187 166/166
f 166/166 181/181 170/170
f 166/166 187/187 181/181
f 170/170 181/181 171/171
f 177/177 185/185 178/178
f 178/178 185/185 179/179
f 181/181 182/182 171/171
f 171/171 188/188 172/172
f 171/171 182/182 188/188
f 172/172 189/189 173/173
f 172/172 188/188 189/189
f 173/173 190/190 174/174
f 173/173 189/189 190/190
f 174/174 190/190 175/175
f 180/180 183/183 167/167
f 167/167 192/192 176/176
f 167/167 183/183 192/192
f 176/176 192/192 184/184
f 184/184 193/193 177/177
f 185/185 186/186 179/179
f 179/179 195/195 169/169
f 179/179 186/186 195/195
f 169/169 195/195 165/165
f 187/187 196/196 181/181
f 181/181 196/196 182/182
f 190/190 191/191 175/175
f 175/175 198/198 180/180
f 175/175 191/191 198/198
f 180/180 198/198 183/183
f 177/177 194/194 185/185
f 177/177 193/193 194/194
f 185/185 194/194 186/186
f 195/195 212/212 165/165
f 165/165 212/212 26/26
f 196/196 197/197 182/182
f 182/182 197/197 188/188
f 192/192 215/215 184/184
f 193/193 201/201 194/194
f 194/194 199/199 186/186
f 194/194 201/201 199/199
f 186/186 199/199 195/195
f 10/10 213/213 187/187
f 187/187 202/202 196/196
f 187/187 213/213 202/202
f 196/196 202/202 197/197
f 197/197 204/204 188/188
f 188/188 205/205 189/189
f 188/188 204/204 205/205
f 189/189 206/206 190/190
f 189/189 205/205 206/206
f 190/190 206/206 191/191
f 198/198 200/200 183/183
f 183/183 208/208 192/192
f 183/183 200/200 208/208
f 192/192 208/208 215/215
f 215/215 209/209 184/184
f 184/184 209/209 193/193
f 202/202 203/203 197/197
f 197/197 203/203 204/204
f 206/206 207/207 191/191
f 191/191 214/214 198/198
f 191/191 207/207 214/214
f 198/198 214/214 200/200
f 193/193 210/210 201/201
f 193/193 209/209 210/210
f 201/201 211/211 199/199
f 201/201 210/210 211/211
f 199/199 221/221 195/195
f 199/199 211/211 221/221
f 195/195 221/221 212/212
f 213/213 216/216 202/202
f 202/202 216/216 203/203
f 209/209 219/219 210/210
f 210/210 219/219 211/211
f 216/216 217/217 203/203
f 203/203 222/222 204/204
f 203/203 217/217 222/222
f 204/204 223/223 205/205
f 204/204 222/222 223/223
f 205/205 224/224 206/206
f 205/205 223/223 224/224
f 206/206 224/224 207/207
f 214/214 218/218 200/200
f 200/200 226/226 208/208
f 200/200 218/218 226/226
f 208/208 226/226 215/215
f 215/215 227/227 209/209
f 219/219 220/220 211/211
f 211/211 220/220 221/221
f 10/10 233/233 213/213
f 213/213 229/229 216/216
f 213/213 233/233 229/229
f 216/216 229/229 217/217
f 224/224 225/225 207/207
f 207/207 231/231 214/214
f 207/207 225/225 231/231
f 214/214 231/231 218/218
f 226/226 235/235 215/215
f 215/215 235/235 227/227
f 209/209 228/228 219/219
f 209/209 227/227 228/228
f 219/219 228/228 220/220
f 229/229 230/230 217/217
f 217/217 230/230 222/222
f 227/227 236/236 228/228
f 228/228 232/232 220/220
f 228/228 236/236 232/232
f 220/220 232/232 221/221
f 233/233 237/237 229/229
f 229/229 237/237 230/230
f 230/230 239/239 222/222
f 222/222 240/240 223/223
f 222/222 239/239 240/240
f 223/223 241/241 224/224
f 223/223 240/240 241/241
f 224/224 241/241 225/225
f 231/231 234/234 218/218
f 218/218 243/243 226/226
f 218/218 234/234 243/243
f 226/226 243/243 235/235
f 235/235 244/244 227/227
f 232/232 266/266 221/221
f 221/221 267/267 212/212
f 221/221 266/266 267/267
f 212/212 267/267 26/26
f 237/237 238/238 230/230
f 230/230 238/238 239/239
f 241/241 242/242 225/225
f 225/225 247/247 231/231
f 225/225 242/242 247/247
f 231/231 247/247 234/234
f 227/227 245/245 236/236
f 227/227 244/244 245/245
f 236/236 246/246 232/232
f 236/236 245/245 246/246
f 232/232 246/246 266/266
f 10/10 253/253 233/233
f 233/233 248/248 237/237
f 233/233 253/253 248/248
f 237/237 248/248 238/238
f 243/243 263/263 235/235
f 244/244 251/251 245/245
f 245/245 251/251 246/246
f 248/248 249/249 238/238
f 238/238 256/256 239/239
f 238/238 249/249 256/256
f 239/239 257/257 240/240
f 239/239 256/256 257/257
f 240/240 258/258 241/241
f 240/240 257/257 258/258
f 241/241 258/258 242/242
f 247/247 250/250 234/234
f 234/234 262/262 243/243
f 234/234 250/250 262/262
f 243/243 262/262 263/263
f 263/263 7/7 235/235
f 235/235 7/7 244/244
f 251/251 252/252 246/246
f 246/246 252/252 266/266
f 253/253 254/254 248/248
f 248/248 255/255 249/249
f 248/248 254/254 255/255
f 249/249 255/255 256/256
f 258/258 259/259 242/242
f 242/242 260/260 247/247
f 242/242 259/259 260/260
f 247/247 261/261 250/250
f 247/247 260/260 261/261
f 250/250 261/261 262/262
f 244/244 264/264 251/251
f 244/244 7/7 264/264
f 251/251 265/265 252/252
f 251/251 264/264 265/265
f 252/252 265/265 266/266
f 253/253 1/1 254/254
f 253/253 10/10 1/1
f 254/254 2/2 255/255
f 254/254 1/1 2/2
f 255/255 3/3 256/256
f 255/255 2/2 3/3
f 256/256 4/4 257/257
f 256/256 3/3 4/4
f 257/257 5/5 258/258
f 257/257 4/4 5/5
f 258/258 6/6 259/259
f 258/258 5/5 6/6
f 259/259 11/11 260/260
f 259/259 6/6 11/11
f 260/260 12/12 261/261
f 260/260 11/11 12/12
f 261/261 16/16 262/262
f 261/261 12/12 16/16
f 262/262 13/13 263/263
f 262/262 16/16 13/13
f 263/263 13/13 7/7
f 7/7 8/8 264/264
f 264/264 9/9 265/265
f 264/264 8/8 9/9
f 265/265 19/19 266/266
f 265/265 9/9 19/19
f 266/266 26/26 267/267
f 266/266 19/19 26/26
f 335/335 276/276 337/337
f 276/276 336/336 338/338
f 276/276 338/338 337/337
f 273/273 335/335 278/278
f 337/337 278/278 335/335
f 279/279 281/281 339/339
f 279/279 280/280 281/281
f 340/340 341/341 342/342
f 291/291 342/342 395/395
f 395/395 334/334 291/291
f 268/268 287/287 340/340
f 340/340 292/292 268/268
f 290/290 269/269 341/341
f 287/287 288/288 340/340
f 288/288 289/289 341/341
f 341/341 340/340 288/288
f 289/289 290/290 341/341
f 292/292 340/340 342/342
f 342/342 291/291 292/292
f 343/343 341/341 269/269
f 295/295 270/270 343/343
f 269/269 293/293 343/343
f 293/293 294/294 343/343
f 294/294 295/295 343/343
f 343/343 342/342 341/341
f 296/296 343/343 270/270
f 300/300 271/271 343/343
f 297/297 298/298 343/343
f 343/343 296/296 297/297
f 298/298 299/299 343/343
f 299/299 300/300 343/343
f 344/344 306/306 307/307
f 344/344 307/307 345/345
f 429/429 309/309 345/345
f 271/271 301/301 344/344
f 344/344 343/343 271/271
f 272/272 306/306 305/305
f 301/301 302/302 344/344
f 309/309 429/429 432/432
f 343/343 345/345 309/309
f 302/302 303/303 344/344
f 343/343 344/344 345/345
f 303/303 304/304 344/344
f 308/308 345/345 307/307
f 304/304 305/305 306/306
f 306/306 344/344 304/304
f 345/345 308/308 429/429
f 309/309 432/432 346/346
f 309/309 346/346 347/347
f 346/346 310/310 347/347
f 312/312 399/399 311/311
f 399/399 310/310 311/311
f 439/439 313/313 348/348
f 312/312 439/439 348/348
f 338/338 348/348 313/313
f 349/349 350/350 354/354
f 350/350 351/351 355/355
f 355/355 354/354 350/350
f 351/351 352/352 355/355
f 352/352 353/353 356/356
f 356/356 355/355 352/352
f 354/354 355/355 338/338
f 355/355 356/356 338/338
f 278/278 353/353 314/314
f 314/314 273/273 278/278
f 337/337 356/356 353/353
f 353/353 278/278 337/337
f 356/356 337/337 338/338
f 352/352 314/314 353/353
f 313/313 349/349 354/354
f 354/354 338/338 313/313
f 358/358 357/357 316/316
f 357/357 358/358 359/359
f 359/359 336/336 357/357
f 357/357 277/277 315/315
f 316/316 357/357 315/315
f 316/316 317/317 358/358
f 357/357 336/336 277/277
f 317/317 360/360 362/362
f 358/358 362/362 359/359
f 318/318 319/319 360/360
f 360/360 317/317 318/318
f 358/358 317/317 362/362
f 339/339 362/362 361/361
f 319/319 320/320 361/361
f 361/361 360/360 319/319
f 279/279 361/361 321/321
f 320/320 321/321 361/361
f 362/362 339/339 402/402
f 361/361 279/279 339/339
f 402/402 359/359 362/362
f 361/361 362/362 360/360
f 280/280 286/286 281/281
f 365/365 363/363 283/283
f 283/283 274/274 365/365
f 363/363 365/365 364/364
f 286/286 285/285 364/364
f 364/364 281/281 286/286
f 364/364 339/339 281/281
f 285/285 284/284 363/363
f 363/363 364/364 285/285
f 284/284 283/283 363/363
f 365/365 366/366 367/367
f 275/275 368/368 367/367
f 274/274 282/282 366/366
f 366/366 365/365 274/274
f 275/275 367/367 366/366
f 322/322 323/323 368/368
f 368/368 275/275 322/322
f 367/367 387/387 364/364
f 282/282 275/275 366/366
f 367/367 364/364 365/365
f 391/391 370/370 369/369
f 392/392 371/371 370/370
f 370/370 391/391 392/392
f 371/371 392/392 372/372
f 275/275 324/324 369/369
f 369/369 330/330 275/275
f 326/326 369/369 325/325
f 325/325 332/332 326/326
f 369/369 326/326 391/391
f 328/328 371/371 372/372
f 372/372 327/327 328/328
f 329/329 370/370 371/371
f 371/371 328/328 329/329
f 330/330 369/369 370/370
f 370/370 329/329 330/330
f 373/373 374/374 379/379
f 379/379 378/378 373/373
f 374/374 375/375 380/380
f 380/380 379/379 374/374
f 375/375 376/376 381/381
f 381/381 380/380 375/375
f 376/376 377/377 382/382
f 382/382 381/381 376/376
f 378/378 379/379 384/384
f 384/384 383/383 378/378
f 379/379 380/380 385/385
f 385/385 384/384 379/379
f 380/380 381/381 386/386
f 386/386 385/385 380/380
f 382/382 386/386 381/381
f 383/383 384/384 387/387
f 384/384 385/385 388/388
f 388/388 387/387 384/384
f 386/386 388/388 385/385
f 389/389 388/388 386/386
f 275/275 330/330 373/373
f 373/373 322/322 275/275
f 331/331 377/377 372/372
f 372/372 400/400 331/331
f 330/330 329/329 374/374
f 374/374 373/373 330/330
f 331/331 382/382 377/377
f 329/329 328/328 375/375
f 375/375 374/374 329/329
f 368/368 383/383 387/387
f 387/387 367/367 368/368
f 328/328 327/327 376/376
f 376/376 375/375 328/328
f 331/331 386/386 382/382
f 387/387 388/388 402/402
f 323/323 378/378 383/383
f 383/383 368/368 323/323
f 327/327 372/372 377/377
f 377/377 376/376 327/327
f 386/386 331/331 389/389
f 322/322 373/373 378/378
f 378/378 323/323 322/322
f 326/326 390/390 391/391
f 390/390 395/395 394/394
f 394/394 391/391 390/390
f 391/391 394/394 392/392
f 394/394 393/393 392/392
f 372/372 393/393 400/400
f 332/332 333/333 390/390
f 390/390 326/326 332/332
f 394/394 400/400 393/393
f 372/372 392/392 393/393
f 395/395 390/390 333/333
f 333/333 334/334 395/395
f 331/331 400/400 396/396
f 396/396 389/389 331/331
f 397/397 399/399 312/312
f 348/348 397/397 312/312
f 401/401 399/399 398/398
f 397/397 396/396 398/398
f 399/399 347/347 310/310
f 399/399 397/397 398/398
f 398/398 396/396 401/401
f 347/347 399/399 343/343
f 343/343 309/309 347/347
f 399/399 401/401 343/343
f 400/400 343/343 401/401
f 400/400 394/394 395/395
f 400/400 395/395 342/342
f 343/343 400/400 342/342
f 401/401 396/396 400/400
f 348/348 338/338 396/396
f 396/396 397/397 348/348
f 336/336 359/359 338/338
f 359/359 396/396 338/338
f 359/359 389/389 396/396
f 389/389 359/359 402/402
f 339/339 364/364 402/402
f 364/364 387/387 402/402
f 402/402 388/388 389/389
f 276/276 335/335 336/336
f 335/335 273/273 336/336
f 279/279 404/404 280/280
f 405/405 404/404 279/279
f 502/502 405/405 403/403
f 403/403 405/405 279/279
f 291/291 407/407 406/406
f 291/291 409/409 407/407
f 408/408 407/407 409/409
f 334/334 409/409 291/291
f 410/410 268/268 406/406
f 292/292 406/406 268/268
f 408/408 412/412 411/411
f 413/413 410/410 406/406
f 414/414 413/413 406/406
f 415/415 414/414 407/407
f 406/406 407/407 414/414
f 411/411 415/415 408/408
f 407/407 408/408 415/415
f 408/408 409/409 500/500
f 406/406 292/292 291/291
f 417/417 412/412 420/420
f 418/418 417/417 420/420
f 419/419 418/418 420/420
f 416/416 419/419 420/420
f 500/500 420/420 408/408
f 408/408 420/420 412/412
f 425/425 424/424 420/420
f 421/421 420/420 424/424
f 426/426 425/425 420/420
f 422/422 426/426 420/420
f 420/420 421/421 416/416
f 420/420 428/428 427/427
f 428/428 420/420 429/429
f 430/430 423/423 427/427
f 422/422 427/427 423/423
f 306/306 272/272 431/431
f 433/433 430/430 427/427
f 434/434 433/433 306/306
f 427/427 306/306 433/433
f 427/427 307/307 306/306
f 436/436 432/432 429/429
f 435/435 434/434 306/306
f 428/428 308/308 427/427
f 307/307 427/427 308/308
f 429/429 420/420 436/436
f 420/420 427/427 422/422
f 431/431 435/435 306/306
f 308/308 428/428 429/429
f 346/346 432/432 437/437
f 436/436 437/437 432/432
f 310/310 346/346 437/437
f 420/420 437/437 436/436
f 311/311 438/438 312/312
f 313/313 439/439 442/442
f 440/440 442/442 439/439
f 438/438 440/440 312/312
f 438/438 442/442 440/440
f 439/439 312/312 440/440
f 442/442 441/441 349/349
f 445/445 444/444 446/446
f 443/443 446/446 444/444
f 443/443 441/441 442/442
f 446/446 443/443 442/442
f 445/445 273/273 314/314
f 350/350 349/349 441/441
f 446/446 273/273 445/445
f 351/351 350/350 443/443
f 441/441 443/443 350/350
f 442/442 336/336 446/446
f 273/273 446/446 336/336
f 352/352 351/351 444/444
f 443/443 444/444 351/351
f 314/314 352/352 445/445
f 444/444 445/445 352/352
f 349/349 313/313 442/442
f 277/277 447/447 315/315
f 316/316 315/315 447/447
f 317/317 316/316 448/448
f 447/447 448/448 316/316
f 277/277 501/501 447/447
f 318/318 450/450 319/319
f 448/448 451/451 318/318
f 450/450 318/318 451/451
f 501/501 449/449 447/447
f 318/318 317/317 448/448
f 451/451 448/448 449/449
f 447/447 449/449 448/448
f 449/449 403/403 451/451
f 320/320 319/319 450/450
f 451/451 279/279 321/321
f 321/321 320/320 451/451
f 450/450 451/451 320/320
f 279/279 451/451 403/403
f 403/403 449/449 502/502
f 405/405 452/452 404/404
f 452/452 405/405 455/455
f 502/502 455/455 405/405
f 454/454 452/452 455/455
f 286/286 280/280 404/404
f 453/453 274/274 283/283
f 404/404 452/452 286/286
f 454/454 456/456 453/453
f 274/274 453/453 456/456
f 285/285 286/286 452/452
f 284/284 285/285 454/454
f 452/452 454/454 285/285
f 456/456 454/454 455/455
f 283/283 284/284 453/453
f 454/454 453/453 284/284
f 275/275 282/282 458/458
f 457/457 458/458 282/282
f 460/460 459/459 457/457
f 458/458 457/457 459/459
f 282/282 456/456 457/457
f 455/455 457/457 456/456
f 456/456 282/282 274/274
f 463/463 461/461 462/462
f 467/467 463/463 468/468
f 462/462 468/468 463/463
f 464/464 470/470 462/462
f 468/468 462/462 470/470
f 470/470 464/464 465/465
f 324/324 275/275 461/461
f 466/466 461/461 275/275
f 332/332 325/325 467/467
f 369/369 324/324 463/463
f 461/461 463/463 324/324
f 464/464 471/471 465/465
f 469/469 465/465 471/471
f 325/325 369/369 463/463
f 462/462 472/472 464/464
f 471/471 464/464 472/472
f 463/463 467/467 325/325
f 461/461 466/466 462/462
f 472/472 462/462 466/466
f 474/474 473/473 475/475
f 476/476 475/475 473/473
f 477/477 474/474 478/478
f 475/475 478/478 474/474
f 479/479 477/477 480/480
f 478/478 480/480 477/477
f 481/481 479/479 482/482
f 480/480 482/482 479/479
f 475/475 476/476 483/483
f 484/484 483/483 476/476
f 478/478 475/475 485/485
f 483/483 485/485 475/475
f 480/480 478/478 486/486
f 485/485 486/486 478/478
f 486/486 482/482 480/480
f 483/483 484/484 487/487
f 488/488 487/487 484/484
f 485/485 483/483 487/487
f 487/487 486/486 485/485
f 486/486 487/487 490/490
f 466/466 275/275 473/473
f 458/458 473/473 275/275
f 481/481 489/489 465/465
f 455/455 488/488 457/457
f 472/472 466/466 474/474
f 473/473 474/474 466/466
f 482/482 489/489 481/481
f 471/471 472/472 477/477
f 474/474 477/477 472/472
f 484/484 460/460 488/488
f 457/457 488/488 460/460
f 469/469 471/471 479/479
f 477/477 479/479 471/471
f 486/486 490/490 482/482
f 489/489 482/482 490/490
f 476/476 459/459 484/484
f 460/460 484/484 459/459
f 465/465 469/469 481/481
f 479/479 481/481 469/469
f 473/473 458/458 476/476
f 459/459 476/476 458/458
f 491/491 467/467 468/468
f 491/491 468/468 470/470
f 492/492 491/491 500/500
f 470/470 500/500 491/491
f 333/333 332/332 491/491
f 467/467 491/491 332/332
f 491/491 492/492 333/333
f 465/465 500/500 470/470
f 334/334 333/333 492/492
f 334/334 492/492 409/409
f 409/409 492/492 500/500
f 489/489 493/493 465/465
f 490/490 494/494 493/493
f 493/493 489/489 490/490
f 311/311 495/495 438/438
f 438/438 495/495 442/442
f 310/310 496/496 311/311
f 311/311 496/496 495/495
f 494/494 495/495 496/496
f 465/465 493/493 500/500
f 494/494 496/496 497/497
f 497/497 493/493 494/494
f 310/310 437/437 498/498
f 496/496 310/310 498/498
f 499/499 498/498 420/420
f 498/498 437/437 420/420
f 498/498 499/499 496/496
f 500/500 497/497 420/420
f 497/497 499/499 420/420
f 497/497 500/500 493/493
f 499/499 497/497 496/496
f 501/501 277/277 442/442
f 336/336 442/442 277/277
f 494/494 501/501 495/495
f 495/495 501/501 442/442
f 501/501 494/494 490/490
f 503/503 488/488 455/455
f 449/449 501/501 502/502
f 488/488 503/503 487/487
f 501/501 490/490 502/502
f 487/487 503/503 490/490
f 502/502 503/503 455/455
f 502/502 490/490 503/503
# 957 faces

g
